<?xml version="1.0" encoding="UTF-8" standalone="no"?>
<svg
   version="1.1"
   id="Calque_1"
   x="0px"
   y="0px"
   viewBox="0 0 640 479.99999"
   xml:space="preserve"
   sodipodi:docname="debian-edu-emerald-syslinux.svg"
   inkscape:version="1.2.2 (732a01da63, 2022-12-09, custom)"
   width="640"
   height="480"
   inkscape:export-filename="/home/steve/debian/d-i/d-i.git/installer/build/boot/artwork/12-emerald/emerald.png"
   inkscape:export-xdpi="96"
   inkscape:export-ydpi="96"
   xmlns:inkscape="http://www.inkscape.org/namespaces/inkscape"
   xmlns:sodipodi="http://sodipodi.sourceforge.net/DTD/sodipodi-0.dtd"
   xmlns:xlink="http://www.w3.org/1999/xlink"
   xmlns="http://www.w3.org/2000/svg"
   xmlns:svg="http://www.w3.org/2000/svg"
   xmlns:rdf="http://www.w3.org/1999/02/22-rdf-syntax-ns#"
   xmlns:cc="http://creativecommons.org/ns#"
   xmlns:dc="http://purl.org/dc/elements/1.1/"><metadata
   id="metadata301"><rdf:RDF><cc:Work
       rdf:about=""><dc:format>image/svg+xml</dc:format><dc:type
         rdf:resource="http://purl.org/dc/dcmitype/StillImage" /><dc:title /></cc:Work></rdf:RDF></metadata><defs
   id="defs299">
	
	
	
	
	
	
	
	
	
	
</defs><sodipodi:namedview
   pagecolor="#ffffff"
   bordercolor="#666666"
   borderopacity="1"
   objecttolerance="10"
   gridtolerance="10"
   guidetolerance="10"
   inkscape:pageopacity="0"
   inkscape:pageshadow="2"
   inkscape:window-width="1854"
   inkscape:window-height="1115"
   id="namedview297"
   showgrid="false"
   inkscape:zoom="1.8796875"
   inkscape:cx="140.71488"
   inkscape:cy="50.008312"
   inkscape:window-x="26"
   inkscape:window-y="23"
   inkscape:window-maximized="0"
   inkscape:current-layer="Calque_1"
   inkscape:document-rotation="0"
   inkscape:showpageshadow="2"
   inkscape:pagecheckerboard="0"
   inkscape:deskcolor="#d1d1d1" />
<style
   type="text/css"
   id="style2">
	.st0{clip-path:url(#SVGID_00000071542680988731292510000018439444353402814855_);fill:#05475C;}
	
		.st1{opacity:0.34;clip-path:url(#SVGID_00000085243690974273077900000011262416615712914086_);fill:url(#SVGID_00000072263354255047025890000013102887253426642863_);enable-background:new    ;}
	.st2{opacity:0.62;clip-path:url(#SVGID_00000139263100654146983480000006272638575328240532_);}
	.st3{opacity:0.34;fill:url(#SVGID_00000045611204893073885370000013269894862223475083_);enable-background:new    ;}
	.st4{opacity:0.34;fill:url(#SVGID_00000054236302322912223680000011333075200813354640_);enable-background:new    ;}
	.st5{opacity:0.34;fill:url(#SVGID_00000158735472467642101810000000793218095674454194_);enable-background:new    ;}
	.st6{opacity:0.34;fill:url(#SVGID_00000054970471622626129120000008582124000012569240_);enable-background:new    ;}
	.st7{opacity:0.34;fill:url(#SVGID_00000045617802322581885590000017117540530357481360_);enable-background:new    ;}
	.st8{opacity:0.34;fill:url(#SVGID_00000124133830351364159410000008068205573473757342_);enable-background:new    ;}
	.st9{opacity:0.34;fill:url(#SVGID_00000051346993954363826760000011407196415412533382_);enable-background:new    ;}
	.st10{opacity:0.34;fill:url(#SVGID_00000063623669021493640110000018074073609943828114_);enable-background:new    ;}
	.st11{opacity:0.34;fill:url(#SVGID_00000138556549459028127130000003696275348898269369_);enable-background:new    ;}
	.st12{opacity:0.34;fill:url(#SVGID_00000060004861970399718470000002238426018333512604_);enable-background:new    ;}
	.st13{opacity:0.34;fill:url(#SVGID_00000157994359395559826260000002190328101612711833_);enable-background:new    ;}
	.st14{opacity:0.34;fill:url(#SVGID_00000181060483116497177010000001648719923621255096_);enable-background:new    ;}
	.st15{opacity:0.34;fill:url(#SVGID_00000142167235154887979020000015085480388107477919_);enable-background:new    ;}
	.st16{opacity:0.34;fill:url(#SVGID_00000116947656910957083370000005132929159132619418_);enable-background:new    ;}
	.st17{opacity:0.34;fill:url(#SVGID_00000134969063157967053530000008838084406334665614_);enable-background:new    ;}
	
		.st18{opacity:0.12;clip-path:url(#SVGID_00000120519090003817143430000014751369527957968025_);fill:url(#SVGID_00000011004778891925810190000008121571088870855059_);enable-background:new    ;}
	
		.st19{opacity:0.12;clip-path:url(#SVGID_00000106111662013024606810000002717633970611550118_);fill:url(#SVGID_00000153683716182026096470000000023037524271700882_);enable-background:new    ;}
	
		.st20{opacity:0.12;clip-path:url(#SVGID_00000183956590612873169660000011894962313201843359_);fill:url(#SVGID_00000147220390516172396170000012946237539661199800_);enable-background:new    ;}
	
		.st21{opacity:0.12;clip-path:url(#SVGID_00000178191628775191767390000013712267012513785221_);fill:url(#SVGID_00000106146033874241472050000009689421648898431387_);enable-background:new    ;}
	
		.st22{opacity:0.12;clip-path:url(#SVGID_00000115510380845737719310000014559970347469282492_);fill:url(#SVGID_00000154425343835058534630000004520284171995681201_);enable-background:new    ;}
	
		.st23{opacity:0.12;clip-path:url(#SVGID_00000140704734525756634240000016841742932993985411_);fill:url(#SVGID_00000085238650639896445010000005588782577886782651_);enable-background:new    ;}
	.st24{clip-path:url(#SVGID_00000139981739315308956980000010868997781734064258_);}
	.st25{opacity:0.71;}
	.st26{fill:#FFFFFF;}
</style>
<g
   id="g12"
   transform="matrix(1,0,0,1.002021,0,-0.98119011)">
		<defs
   id="defs5">
			<rect
   id="SVGID_1_"
   y="0"
   width="640"
   height="484.60001"
   x="0" />
		</defs>
		<clipPath
   id="SVGID_00000165221556703780916170000010866235547332093090_">
			<use
   xlink:href="#SVGID_1_"
   style="overflow:visible"
   id="use7"
   x="0"
   y="0"
   width="100%"
   height="100%" />
		</clipPath>
		
			<rect
   y="0.89999998"
   style="fill:#05475c"
   width="640"
   height="484.60001"
   clip-path="url(#SVGID_00000165221556703780916170000010866235547332093090_)"
   id="rect10"
   x="0" />
	</g><g
   id="g27">
		<defs
   id="defs15">
			<rect
   id="SVGID_00000069388754183686928800000004629736924644173729_"
   y="0"
   width="640"
   height="483.70001"
   x="0" />
		</defs>
		<clipPath
   id="SVGID_00000155132189810832442100000017548490820549518009_">
			<use
   xlink:href="#SVGID_00000069388754183686928800000004629736924644173729_"
   style="overflow:visible"
   id="use17"
   x="0"
   y="0"
   width="100%"
   height="100%" />
		</clipPath>
		
			<radialGradient
   id="SVGID_00000051382217558699162500000002818355917924127389_"
   cx="67.320198"
   cy="10279.84"
   r="301.79999"
   gradientTransform="matrix(0.5,0,0,0.5,0.5399,-4690.4204)"
   gradientUnits="userSpaceOnUse">
			<stop
   offset="0"
   style="stop-color:#DAC9BA"
   id="stop20" />
			<stop
   offset="1"
   style="stop-color:#05475C;stop-opacity:0"
   id="stop22" />
		</radialGradient>
		
			<circle
   style="opacity:0.34;fill:url(#SVGID_00000051382217558699162500000002818355917924127389_);enable-background:new"
   cx="34.200001"
   cy="449.5"
   r="150.89999"
   clip-path="url(#SVGID_00000155132189810832442100000017548490820549518009_)"
   id="circle25" />
	</g><g
   id="g142">
		<defs
   id="defs30">
			<rect
   id="SVGID_00000124148156101187928870000002935036004658084790_"
   y="0"
   width="640"
   height="483.70001"
   x="0" />
		</defs>
		<clipPath
   id="SVGID_00000009557460816904590930000007797994413251903375_">
			<use
   xlink:href="#SVGID_00000124148156101187928870000002935036004658084790_"
   style="overflow:visible"
   id="use32"
   x="0"
   y="0"
   width="100%"
   height="100%" />
		</clipPath>
		<g
   style="opacity:0.62"
   clip-path="url(#SVGID_00000009557460816904590930000007797994413251903375_)"
   id="g140">
			
				<radialGradient
   id="SVGID_00000070817965774873609210000009896994520112849083_"
   cx="-1719.8934"
   cy="5956.8662"
   r="113.8"
   gradientTransform="matrix(0.8642,0.5228,-0.5025,0.9115,4505.9019,-4287.3071)"
   gradientUnits="userSpaceOnUse">
				<stop
   offset="0"
   style="stop-color:#18F5B0"
   id="stop35" />
				<stop
   offset="1"
   style="stop-color:#05475C;stop-opacity:0"
   id="stop37" />
			</radialGradient>
			
				<ellipse
   style="opacity:0.34;fill:url(#SVGID_00000070817965774873609210000009896994520112849083_);enable-background:new"
   cx="26.799999"
   cy="237.39999"
   rx="113.8"
   ry="119.2"
   id="ellipse40" />
			
				<linearGradient
   id="SVGID_00000101795260509640636020000012437242171126501814_"
   gradientUnits="userSpaceOnUse"
   x1="2583.5959"
   y1="-454.25641"
   x2="2712.8965"
   y2="-454.25641"
   gradientTransform="matrix(-0.7151,0.699,-0.5383,-0.5506,1717.1921,-2081.8496)">
				<stop
   offset="0"
   style="stop-color:#18F5B0"
   id="stop42" />
				<stop
   offset="1"
   style="stop-color:#05475C;stop-opacity:0"
   id="stop44" />
			</linearGradient>
			
				<polygon
   style="opacity:0.34;fill:url(#SVGID_00000101795260509640636020000012437242171126501814_);enable-background:new"
   points="104.9,86 -16.5,24.6 56,-86.2 146.9,59.5 "
   id="polygon47" />
			
				<linearGradient
   id="SVGID_00000106859585145232098850000002955945112293633935_"
   gradientUnits="userSpaceOnUse"
   x1="178.07179"
   y1="3684.5178"
   x2="356.27829"
   y2="3684.5178"
   gradientTransform="matrix(0.7774,0.629,-0.629,0.7774,2201.9092,-3021.4944)">
				<stop
   offset="0"
   style="stop-color:#18F5B0"
   id="stop49" />
				<stop
   offset="1"
   style="stop-color:#05475C;stop-opacity:0"
   id="stop51" />
			</linearGradient>
			
				<polygon
   style="opacity:0.34;fill:url(#SVGID_00000106859585145232098850000002955945112293633935_);enable-background:new"
   points="118.4,-54.5 196.9,-28.1 181.1,42.5 96.2,138.1 39,-3.3 56,-86.2 "
   id="polygon54" />
			
				<linearGradient
   id="SVGID_00000169530912143375906700000000621875339329320109_"
   gradientUnits="userSpaceOnUse"
   x1="-6531.374"
   y1="1569.223"
   x2="-6201.4302"
   y2="1569.223"
   gradientTransform="matrix(0.3915,-0.9202,0.9202,0.3915,1042.983,-6363.4004)">
				<stop
   offset="0"
   style="stop-color:#AABDCB"
   id="stop56" />
				<stop
   offset="1"
   style="stop-color:#05475C;stop-opacity:0"
   id="stop58" />
			</linearGradient>
			
				<polygon
   style="opacity:0.34;fill:url(#SVGID_00000169530912143375906700000000621875339329320109_);enable-background:new"
   points="140.7,58.2 -175.4,216.3 -63.2,75.8 49,-46.8 "
   id="polygon61" />
			
				<linearGradient
   id="SVGID_00000045578667995824677480000012118072077176775348_"
   gradientUnits="userSpaceOnUse"
   x1="6759.1001"
   y1="1273.7374"
   x2="6901.8306"
   y2="1273.7374"
   gradientTransform="matrix(-0.3483,0.5724,-0.7648,-0.6285,3595.4902,-3079.3232)">
				<stop
   offset="0"
   style="stop-color:#18F5B0"
   id="stop63" />
				<stop
   offset="1"
   style="stop-color:#05475C;stop-opacity:0"
   id="stop65" />
			</linearGradient>
			
				<polygon
   style="opacity:0.34;fill:url(#SVGID_00000045578667995824677480000012118072077176775348_);enable-background:new"
   points="162.5,-105.5 319.6,70.4 329.3,153.4 173,16.9 "
   id="polygon68" />
			
				<linearGradient
   id="SVGID_00000132079007386204810610000001991809070636413312_"
   gradientUnits="userSpaceOnUse"
   x1="-3473.5115"
   y1="1871.9165"
   x2="-3272.8167"
   y2="1871.9165"
   gradientTransform="matrix(0.7151,-0.699,0.699,0.7151,1303.7971,-3678.4753)">
				<stop
   offset="0"
   style="stop-color:#AABDCB"
   id="stop70" />
				<stop
   offset="1"
   style="stop-color:#05475C;stop-opacity:0"
   id="stop72" />
			</linearGradient>
			
				<polygon
   style="opacity:0.34;fill:url(#SVGID_00000132079007386204810610000001991809070636413312_);enable-background:new"
   points="200,-125.7 317.6,81.9 173,16.9 39,-3.3 107.6,-47.4 "
   id="polygon75" />
			
				<linearGradient
   id="SVGID_00000165940415883816199490000002652170903267179168_"
   gradientUnits="userSpaceOnUse"
   x1="4172.0244"
   y1="945.66931"
   x2="4326.3755"
   y2="945.66931"
   gradientTransform="matrix(-0.5898,0.8076,-0.8076,-0.5898,3412.5413,-2898.3325)">
				<stop
   offset="0"
   style="stop-color:#18F5B0"
   id="stop77" />
				<stop
   offset="1"
   style="stop-color:#05475C;stop-opacity:0"
   id="stop79" />
			</linearGradient>
			
				<polygon
   style="opacity:0.34;fill:url(#SVGID_00000165940415883816199490000002652170903267179168_);enable-background:new"
   points="209,81.9 154.1,56.9 3.2,-30.7 162.5,-105.5 "
   id="polygon82" />
			
				<linearGradient
   id="SVGID_00000079460277199837384410000007256434529950953905_"
   gradientUnits="userSpaceOnUse"
   x1="-5700.8525"
   y1="-3731.8777"
   x2="-5460.1079"
   y2="-3731.8777"
   gradientTransform="matrix(-0.2682,-0.9634,1.0501,-0.2924,2347.9292,-6172.313)">
				<stop
   offset="0"
   style="stop-color:#18F5B0"
   id="stop84" />
				<stop
   offset="1"
   style="stop-color:#05475C;stop-opacity:0"
   id="stop86" />
			</linearGradient>
			
				<polygon
   style="opacity:0.34;fill:url(#SVGID_00000079460277199837384410000007256434529950953905_);enable-background:new"
   points="-134,300.3 -44.9,162 20.4,244.3 -142.9,439.2 "
   id="polygon89" />
			
				<linearGradient
   id="SVGID_00000096769642374833351560000001367799226074404744_"
   gradientUnits="userSpaceOnUse"
   x1="5079.2051"
   y1="-3976.7305"
   x2="5331.4736"
   y2="-3976.7305"
   gradientTransform="matrix(-0.9257,0.3783,-0.3783,-0.9257,3221.5364,-5374.0972)">
				<stop
   offset="0"
   style="stop-color:#18F5B0"
   id="stop91" />
				<stop
   offset="1"
   style="stop-color:#05475C;stop-opacity:0"
   id="stop93" />
			</linearGradient>
			
				<polygon
   style="opacity:0.34;fill:url(#SVGID_00000096769642374833351560000001367799226074404744_);enable-background:new"
   points="-63.8,359.6 -137.5,401 -195.5,358.1 -215.7,220.3 -17.3,194.6 26.8,235.2 "
   id="polygon96" />
			
				<linearGradient
   id="SVGID_00000029728178370301967340000011235284565816107184_"
   gradientUnits="userSpaceOnUse"
   x1="-9159.0127"
   y1="-5494.3096"
   x2="-8863.6025"
   y2="-5494.3096"
   gradientTransform="matrix(-0.2347,-0.2596,0.879,-0.2953,2621.8279,-3787.2927)">
				<stop
   offset="0"
   style="stop-color:#AABDCB"
   id="stop98" />
				<stop
   offset="1"
   style="stop-color:#05475C;stop-opacity:0"
   id="stop100" />
			</linearGradient>
			
				<polygon
   style="opacity:0.34;fill:url(#SVGID_00000029728178370301967340000011235284565816107184_);enable-background:new"
   points="-16.5,196.8 -192.8,291.1 -175.4,216.3 53,108.4 "
   id="polygon103" />
			
				<linearGradient
   id="SVGID_00000161595143950144110780000017925993887690476720_"
   gradientUnits="userSpaceOnUse"
   x1="5745.1045"
   y1="2944.0874"
   x2="6341.5342"
   y2="2944.0874"
   gradientTransform="matrix(0.1765,0.3022,-0.9209,0.1087,1598.3757,-1774.4047)">
				<stop
   offset="0"
   style="stop-color:#AABDCB"
   id="stop105" />
				<stop
   offset="1"
   style="stop-color:#05475C;stop-opacity:0"
   id="stop107" />
			</linearGradient>
			
				<polygon
   style="opacity:0.34;fill:url(#SVGID_00000161595143950144110780000017925993887690476720_);enable-background:new"
   points="-134,300.3 9.9,292.3 110.4,461.4 -145.2,381 "
   id="polygon110" />
			
				<linearGradient
   id="SVGID_00000083799099488186877740000001427691366751589030_"
   gradientUnits="userSpaceOnUse"
   x1="-6531.374"
   y1="1531.231"
   x2="-6342.6738"
   y2="1531.231"
   gradientTransform="matrix(0.3915,-0.9202,0.9202,0.3915,1042.983,-6363.4004)">
				<stop
   offset="0"
   style="stop-color:#AABDCB"
   id="stop112" />
				<stop
   offset="1"
   style="stop-color:#05475C;stop-opacity:0"
   id="stop114" />
			</linearGradient>
			
				<polygon
   style="opacity:0.34;fill:url(#SVGID_00000083799099488186877740000001427691366751589030_);enable-background:new"
   points="53,108.4 -17.3,194.6 -175.4,216.3 -126.2,62.5 "
   id="polygon117" />
			
				<radialGradient
   id="SVGID_00000062186679139829515360000008929432546328608678_"
   cx="-3802.3752"
   cy="-2018.9218"
   r="119.51"
   gradientTransform="matrix(1,0,0,-1,0,-3076.8403)"
   gradientUnits="userSpaceOnUse">
				<stop
   offset="0"
   style="stop-color:#18F5B0"
   id="stop119" />
				<stop
   offset="1"
   style="stop-color:#05475C;stop-opacity:0"
   id="stop121" />
			</radialGradient>
			
				<ellipse
   style="opacity:0.34;fill:url(#SVGID_00000062186679139829515360000008929432546328608678_);enable-background:new"
   cx="96.199997"
   cy="13.7"
   rx="119.5"
   ry="125.2"
   id="ellipse124" />
			
				<linearGradient
   id="SVGID_00000024690754393631733010000011044239768892776096_"
   gradientUnits="userSpaceOnUse"
   x1="5079.2051"
   y1="-4032.7424"
   x2="5272.6421"
   y2="-4032.7424"
   gradientTransform="matrix(-0.9257,0.3783,-0.3783,-0.9257,3221.5364,-5374.0972)">
				<stop
   offset="0"
   style="stop-color:#18F5B0"
   id="stop126" />
				<stop
   offset="1"
   style="stop-color:#05475C;stop-opacity:0"
   id="stop128" />
			</linearGradient>
			
				<polygon
   style="opacity:0.34;fill:url(#SVGID_00000024690754393631733010000011044239768892776096_);enable-background:new"
   points="-63.8,359.6 -127,370.2 -147.1,232.3 26.8,235.2 -5.4,428 "
   id="polygon131" />
			
				<linearGradient
   id="SVGID_00000050656969083910025690000008598441663246236579_"
   gradientUnits="userSpaceOnUse"
   x1="-2724.9294"
   y1="3967.8757"
   x2="-2549.8918"
   y2="3967.8757"
   gradientTransform="matrix(0.9797,-0.2004,0.2004,0.9797,1750.7784,-4358.5493)">
				<stop
   offset="0"
   style="stop-color:#AABDCB"
   id="stop133" />
				<stop
   offset="1"
   style="stop-color:#05475C;stop-opacity:0"
   id="stop135" />
			</linearGradient>
			
				<polygon
   style="opacity:0.34;fill:url(#SVGID_00000050656969083910025690000008598441663246236579_);enable-background:new"
   points="47.6,84.7 -126.2,62.5 3.2,40 39,-3.3 "
   id="polygon138" />
		</g>
	</g><g
   id="g157">
		<defs
   id="defs145">
			<rect
   id="SVGID_00000031195912240633887000000004079428614401632700_"
   y="0"
   width="640"
   height="483.70001"
   x="0" />
		</defs>
		<clipPath
   id="SVGID_00000151507511927978965780000002387878401372756407_">
			<use
   xlink:href="#SVGID_00000031195912240633887000000004079428614401632700_"
   style="overflow:visible"
   id="use147"
   x="0"
   y="0"
   width="100%"
   height="100%" />
		</clipPath>
		
			<linearGradient
   id="SVGID_00000033359048294171688790000000775581327429353636_"
   gradientUnits="userSpaceOnUse"
   x1="-6938.3296"
   y1="1131.6506"
   x2="-6649.2324"
   y2="1131.6506"
   gradientTransform="matrix(0.4172,-0.9088,0.9088,0.4172,2531.2654,-6215.4648)">
			<stop
   offset="0"
   style="stop-color:#18F5B0"
   id="stop150" />
			<stop
   offset="1"
   style="stop-color:#05475C;stop-opacity:0"
   id="stop152" />
		</linearGradient>
		
			<polygon
   style="opacity:0.12;fill:url(#SVGID_00000033359048294171688790000000775581327429353636_);enable-background:new"
   points="589.6,300 943.4,371.9 840.8,642.9 527.3,398.7 "
   clip-path="url(#SVGID_00000151507511927978965780000002387878401372756407_)"
   id="polygon155" />
	</g><g
   id="g172">
		<defs
   id="defs160">
			<rect
   id="SVGID_00000130622640253779499030000006957545591170167218_"
   y="0"
   width="640"
   height="483.70001"
   x="0" />
		</defs>
		<clipPath
   id="SVGID_00000038377279451847958660000013948159711101587628_">
			<use
   xlink:href="#SVGID_00000130622640253779499030000006957545591170167218_"
   style="overflow:visible"
   id="use162"
   x="0"
   y="0"
   width="100%"
   height="100%" />
		</clipPath>
		
			<linearGradient
   id="SVGID_00000073712156955919745150000018014436835206889603_"
   gradientUnits="userSpaceOnUse"
   x1="58.759899"
   y1="-5871.8867"
   x2="421.16409"
   y2="-5871.8867"
   gradientTransform="matrix(-0.9511,-0.3089,0.3089,-0.9511,2700.2234,-5034.0278)">
			<stop
   offset="0"
   style="stop-color:#18F5B0"
   id="stop165" />
			<stop
   offset="1"
   style="stop-color:#05475C;stop-opacity:0"
   id="stop167" />
		</linearGradient>
		
			<polygon
   style="opacity:0.12;fill:url(#SVGID_00000073712156955919745150000018014436835206889603_);enable-background:new"
   points="617.8,645.3 474.6,667.4 465.9,494.1 559.4,194.1 708.5,470.8 807.8,602.5 "
   clip-path="url(#SVGID_00000038377279451847958660000013948159711101587628_)"
   id="polygon170" />
	</g><g
   id="g187">
		<defs
   id="defs175">
			<rect
   id="SVGID_00000118376838458325678060000015855036868445107350_"
   y="0"
   width="640"
   height="483.70001"
   x="0" />
		</defs>
		<clipPath
   id="SVGID_00000110459491631553875290000010150341677443506576_">
			<use
   xlink:href="#SVGID_00000118376838458325678060000015855036868445107350_"
   style="overflow:visible"
   id="use177"
   x="0"
   y="0"
   width="100%"
   height="100%" />
		</clipPath>
		
			<linearGradient
   id="SVGID_00000103971786709948536080000001973379522257999801_"
   gradientUnits="userSpaceOnUse"
   x1="2613.928"
   y1="4164.1494"
   x2="3052.9421"
   y2="4164.1494"
   gradientTransform="matrix(-0.03594599,0.9994,-0.9994,-0.03594599,4979.0908,-2328.8867)">
			<stop
   offset="0"
   style="stop-color:#AABDCB"
   id="stop180" />
			<stop
   offset="1"
   style="stop-color:#05475C;stop-opacity:0"
   id="stop182" />
		</linearGradient>
		
			<polygon
   style="opacity:0.12;fill:url(#SVGID_00000103971786709948536080000001973379522257999801_);enable-background:new"
   points="589.3,258.1 807.2,136.8 847.9,280.8 678.8,571.5 "
   clip-path="url(#SVGID_00000110459491631553875290000010150341677443506576_)"
   id="polygon185" />
	</g><g
   id="g202">
		<defs
   id="defs190">
			<rect
   id="SVGID_00000116237745612361073240000006150465265803419285_"
   y="0"
   width="640"
   height="483.70001"
   x="0" />
		</defs>
		<clipPath
   id="SVGID_00000145058946190271890110000017138466978116788627_">
			<use
   xlink:href="#SVGID_00000116237745612361073240000006150465265803419285_"
   style="overflow:visible"
   id="use192"
   x="0"
   y="0"
   width="100%"
   height="100%" />
		</clipPath>
		
			<linearGradient
   id="SVGID_00000030448420059369570490000000840399102467860385_"
   gradientUnits="userSpaceOnUse"
   x1="-5329.144"
   y1="523.46637"
   x2="-5071.4404"
   y2="523.46637"
   gradientTransform="matrix(0.2612,-0.9653,0.9653,0.2612,1525.5635,-4714.7476)">
			<stop
   offset="0"
   style="stop-color:#18F5B0"
   id="stop195" />
			<stop
   offset="1"
   style="stop-color:#05475C;stop-opacity:0"
   id="stop197" />
		</linearGradient>
		
			<polygon
   style="opacity:0.12;fill:url(#SVGID_00000030448420059369570490000000840399102467860385_);enable-background:new"
   points="498.9,330.8 602.4,329.8 896,368.8 803.7,610.8 "
   clip-path="url(#SVGID_00000145058946190271890110000017138466978116788627_)"
   id="polygon200" />
	</g><g
   id="g217">
		<defs
   id="defs205">
			<rect
   id="SVGID_00000101074714170627461240000013138533359750141568_"
   y="0"
   width="640"
   height="483.70001"
   x="0" />
		</defs>
		<clipPath
   id="SVGID_00000116914092487373798290000001093053265067242669_">
			<use
   xlink:href="#SVGID_00000101074714170627461240000013138533359750141568_"
   style="overflow:visible"
   id="use207"
   x="0"
   y="0"
   width="100%"
   height="100%" />
		</clipPath>
		
			<linearGradient
   id="SVGID_00000017477945025455821640000013403267416503434134_"
   gradientUnits="userSpaceOnUse"
   x1="1120.3934"
   y1="2872.0176"
   x2="1397.709"
   y2="2872.0176"
   gradientTransform="matrix(0.9919,-0.1269,0.1269,0.9919,-926.962,-2147.6309)">
			<stop
   offset="0"
   style="stop-color:#18F5B0"
   id="stop210" />
			<stop
   offset="1"
   style="stop-color:#05475C;stop-opacity:0"
   id="stop212" />
		</linearGradient>
		
			<polygon
   style="opacity:0.12;fill:url(#SVGID_00000017477945025455821640000013403267416503434134_);enable-background:new"
   points="840.1,650.5 630.1,619.4 532.6,432.2 "
   clip-path="url(#SVGID_00000116914092487373798290000001093053265067242669_)"
   id="polygon215" />
	</g><g
   id="g232">
		<defs
   id="defs220">
			<rect
   id="SVGID_00000003815786949138481970000001745649588036378536_"
   y="0"
   width="640"
   height="483.70001"
   x="0" />
		</defs>
		<clipPath
   id="SVGID_00000052802962437109526920000015325253674162927752_">
			<use
   xlink:href="#SVGID_00000003815786949138481970000001745649588036378536_"
   style="overflow:visible"
   id="use222"
   x="0"
   y="0"
   width="100%"
   height="100%" />
		</clipPath>
		
			<linearGradient
   id="SVGID_00000175296180110522475230000004885647257872674460_"
   gradientUnits="userSpaceOnUse"
   x1="-4937.0015"
   y1="-1044.0806"
   x2="-4651.3462"
   y2="-1044.0806"
   gradientTransform="matrix(-0.09480336,-0.9955,0.9955,-0.09480336,573.8284,-4451.9326)">
			<stop
   offset="0"
   style="stop-color:#18F5B0"
   id="stop225" />
			<stop
   offset="1"
   style="stop-color:#05475C;stop-opacity:0"
   id="stop227" />
		</linearGradient>
		
			<polygon
   style="opacity:0.12;fill:url(#SVGID_00000175296180110522475230000004885647257872674460_);enable-background:new"
   points="91.6,266.4 48.7,474.4 -113.7,572.9 "
   clip-path="url(#SVGID_00000052802962437109526920000015325253674162927752_)"
   id="polygon230" />
	</g>
<g
   id="g17020"
   transform="matrix(0.64025525,0,0,0.64025525,-514.70646,-223.37304)"><g
     id="g115-3"
     transform="matrix(0.75797812,0,0,0.75797812,256.30436,45.797892)">
				<path
   class="st11"
   d="m 1066.5,457.2 c 0,5.7 0.1,9.1 0.2,12.1 0.2,3.7 0.5,4.5 1,5.5 -1.6,-0.2 -3.1,-0.2 -4.5,-0.2 -1.7,0 -2.4,0.1 -3.7,0.2 0.6,-1.5 0.8,-2.3 0.9,-5.4 0.1,-2.3 0.2,-5.2 0.2,-12.1 v -6.8 c -0.2,-8.7 -0.2,-9.7 -0.3,-11.3 -2.6,1 -5.1,2 -7.5,3.4 0.1,-0.6 0.1,-1.2 0.2,-1.9 0,-1.1 -0.1,-1.7 -0.2,-2.6 2.9,-0.6 9.3,-2.4 14,-5.8 -0.2,4.4 -0.3,7.6 -0.3,16.6 z"
   id="path111-6"
   style="fill:#ffffff;opacity:1" />
				<path
   class="st11"
   d="m 1091.3,468.7 c 8,0 9,-0.1 11.1,-1.6 -0.2,1.3 -0.3,2.4 -0.3,4.5 0,1.5 0.1,2.3 0.2,3.1 -3.7,-0.2 -7.5,-0.3 -11.1,-0.3 -5.8,0 -10.9,0.1 -12.6,0.3 0.1,-0.6 0.2,-1.6 0.2,-2.9 0,-1.2 -0.1,-2.1 -0.2,-2.7 1.7,-1.5 3.4,-2.8 6.9,-6.6 6.9,-7.4 9.7,-11.9 9.7,-16.7 0,-4.5 -3,-7.4 -8,-7.4 -2.7,0 -4.9,0.6 -7.1,2 0.1,-1.3 0.3,-2.4 0.2,-3.6 0,-1 0,-1.7 -0.1,-2.3 3,-1 5.8,-1.5 9,-1.5 8.2,0 12.4,4.2 12.4,10.4 0,5.1 -2.9,9.3 -4.5,11.6 -2.2,3.1 -6.3,7.8 -12.6,13.5 h 6.8 z"
   id="path113-7"
   style="fill:#ffffff;opacity:1" />
			</g><path
     inkscape:connector-curvature="0"
     id="path4104"
     style="opacity:0.71;fill:#ffffff;fill-opacity:1;fill-rule:nonzero;stroke:none;stroke-width:0.268814"
     d="m 866.34312,396.79724 c 0.0468,1.25743 -0.36692,1.86846 -0.74114,2.94893 l -0.67243,0.33466 c -0.54961,1.06903 0.0547,0.67868 -0.33987,1.52859 -0.8598,0.76353 -2.60542,2.3884 -3.1644,2.53726 -0.40856,-0.009 0.27637,-0.48196 0.36589,-0.66671 -1.1497,0.78901 -0.9233,1.18456 -2.68089,1.66494 l -0.0515,-0.11502 c -4.33544,2.04021 -10.35821,-2.00221 -10.2791,-7.51702 -0.0458,0.34976 -0.13168,0.26232 -0.22744,0.40284 -0.22381,-2.83703 1.31051,-5.68655 3.89825,-6.85186 2.53099,-1.25223 5.49815,-0.73906 7.31039,0.95191 -0.99564,-1.30427 -2.97755,-2.68713 -5.32639,-2.5591 -2.30097,0.0375 -4.45359,1.49944 -5.17235,3.08738 -1.17833,0.74165 -1.31572,2.86044 -1.82889,3.24871 -0.6917,5.0797 1.29958,7.27345 4.66853,9.85545 0.52878,0.35704 0.14885,0.41168 0.21963,0.68337 -1.11899,-0.52358 -2.14326,-1.31468 -2.98641,-2.28327 0.4476,0.65422 0.93007,1.29023 1.5541,1.78986 -1.05601,-0.35651 -2.46594,-2.55702 -2.87658,-2.64653 1.81901,3.25704 7.37909,5.71205 10.29211,4.49366 -1.34747,0.05 -3.05927,0.0276 -4.57329,-0.53191 -0.63704,-0.32738 -1.50101,-1.0045 -1.34644,-1.13097 3.97372,1.48384 8.0786,1.12315 11.51729,-1.63269 0.87438,-0.6818 1.82993,-1.84086 2.1063,-1.85648 -0.41533,0.6256 0.0713,0.30083 -0.24774,0.85304 0.87073,-1.40577 -0.37941,-0.57251 0.9004,-2.42743 l 0.4731,0.65057 c -0.17644,-1.16792 1.44949,-2.58461 1.28346,-4.43016 0.37317,-0.56419 0.41584,0.6079 0.0203,1.90593 0.54908,-1.44012 0.14573,-1.67173 0.28574,-2.86046 0.15197,0.39972 0.35287,0.82389 0.45539,1.24598 -0.35755,-1.39223 0.36589,-2.34362 0.54597,-3.15294 -0.178,-0.0781 -0.55169,0.61518 -0.63808,-1.02844 0.013,-0.71407 0.19881,-0.37421 0.27011,-0.55013 -0.13948,-0.0807 -0.50745,-0.62819 -0.73073,-1.67795 0.16083,-0.24723 0.43303,0.63963 0.65371,0.67554 -0.1421,-0.83428 -0.38671,-1.47082 -0.39659,-2.1115 -0.64537,-1.348 -0.229,0.18008 -0.75103,-0.57876 -0.687,-2.14117 0.56886,-0.49703 0.65423,-1.46925 1.03988,1.50673 1.63319,3.84359 1.90591,4.81114 -0.20818,-1.17989 -0.54335,-2.32335 -0.95452,-3.42933 0.31748,0.13376 -0.5085,-2.42691 0.41168,-0.73124 -0.98263,-3.6146 -4.20427,-6.99239 -7.1683,-8.57668 0.36172,0.33154 0.81972,0.74791 0.65577,0.81348 -1.47445,-0.87697 -1.21526,-0.94619 -1.4271,-1.31676 -1.19966,-0.48872 -1.27929,0.0401 -2.07404,8.9e-4 -2.26295,-1.20122 -2.69963,-1.07319 -4.78303,-1.82526 l 0.0942,0.44344 c -1.49944,-0.49964 -1.74718,0.1884 -3.36738,8.9e-4 -0.0984,-0.0765 0.51942,-0.27897 1.02792,-0.35236 -1.44949,0.19153 -1.38183,-0.28625 -2.80061,0.0526 0.34923,-0.24513 0.71981,-0.40805 1.09244,-0.61623 -1.18195,0.0718 -2.82297,0.68805 -2.31656,0.12699 -1.92831,0.86085 -5.35346,2.06884 -7.27553,3.87119 l -0.0604,-0.40388 c -0.88062,1.05707 -3.84048,3.15712 -4.07625,4.52749 l -0.23577,0.0547 c -0.45748,0.776 -0.75467,1.65506 -1.11796,2.45293 -0.59904,1.02167 -0.87853,0.39347 -0.79317,0.55377 -1.17884,2.38996 -1.76541,4.39789 -2.27077,6.04568 0.36015,0.53867 0.009,3.24351 0.14468,5.4081 -0.59124,10.69235 7.50401,21.07348 16.35289,23.46915 1.29698,0.46478 3.2253,0.4476 4.86631,0.49392 -1.9356,-0.55378 -2.18541,-0.2925 -4.07156,-0.95036 -1.35998,-0.64121 -1.65768,-1.37246 -2.62156,-2.20884 l 0.38149,0.67399 c -1.88927,-0.66878 -1.0987,-0.82752 -2.63614,-1.31415 l 0.40752,-0.53191 c -0.61258,-0.0465 -1.62227,-1.03118 -1.89812,-1.57819 l -0.67036,0.0265 c -0.80462,-0.99252 -1.23401,-1.70919 -1.20226,-2.264 l -0.2165,0.38618 c -0.24515,-0.42053 -2.96196,-3.72546 -1.55254,-2.95621 -0.26179,-0.23839 -0.60998,-0.38879 -0.98732,-1.07528 l 0.28677,-0.32738 c -0.67712,-0.87281 -1.24806,-1.99127 -1.20434,-2.36393 0.36172,0.48819 0.61258,0.57979 0.86136,0.66359 -1.71283,-4.24904 -1.80912,-0.23368 -3.10559,-4.32503 l 0.27376,-0.0219 c -0.20975,-0.31799 -0.3383,-0.66099 -0.50692,-0.99876 l 0.1197,-1.18926 c -1.23246,-1.42398 -0.34454,-6.06076 -0.16602,-8.60321 0.1223,-1.03364 1.02895,-2.13441 1.71751,-3.86078 l -0.41949,-0.0718 c 0.80256,-1.39899 4.58111,-5.62046 6.33193,-5.40394 0.84783,-1.06486 -0.16862,-0.004 -0.33466,-0.27169 1.86273,-1.92727 2.44825,-1.36152 3.70516,-1.70866 1.35477,-0.80412 -1.16322,0.31435 -0.52097,-0.30655 2.34363,-0.59801 1.66027,-1.3605 4.71694,-1.66392 0.32268,0.1832 -0.74791,0.28313 -1.01647,0.52098 1.95174,-0.95557 6.17736,-0.73749 8.92278,0.52983 3.18419,1.48904 6.76287,5.88849 6.90444,10.02772 l 0.1603,0.0432 c -0.0812,1.64571 0.25191,3.54903 -0.32581,5.29673 l 0.39295,-0.82753" /><g
     style="fill:#808080;fill-opacity:1;stroke:none"
     id="g4448"
     transform="matrix(0.44588826,0,0,0.44588826,820.86453,5.0201537)"><g
       id="g4516"><path
         inkscape:connector-curvature="0"
         id="path4118"
         style="opacity:0.71;fill:#ffffff;fill-opacity:1;fill-rule:nonzero;stroke:none"
         d="m 286.18119,834.61078 -7.42894,7.42701 -7.42706,-7.42701 7.42706,-7.42707 7.42894,7.42707" /><g
         transform="translate(0,356)"
         style="fill:#ffffff"
         id="g4318"><path
           id="path4120"
           style="fill:#ffffff;fill-opacity:1;fill-rule:nonzero;stroke:none"
           d="m 380.71893,511.6723 c 0.091,-7.44638 1.61669,-14.08736 7.98465,-14.08736 6.99913,0 7.53352,7.71553 7.3554,14.08736 z m 24.22114,0.90031 c 0,-10.49774 -2.06199,-20.8174 -15.34007,-20.8174 -18.30039,0 -18.30039,20.27721 -18.30039,24.58318 0,18.21138 8.16278,25.38862 21.89003,25.38862 6.0969,0 9.06111,-0.8945 10.67584,-1.34559 -0.0891,-3.22952 0.3582,-5.29343 0.90031,-8.07372 -1.88771,1.16945 -4.30986,2.69316 -9.69228,2.69316 -13.99639,0 -14.17647,-12.74369 -14.17647,-17.13872 h 23.86875 l 0.17428,-5.28953"
           inkscape:connector-curvature="0" /><path
           id="path4122"
           style="fill:#ffffff;fill-opacity:1;fill-rule:nonzero;stroke:none"
           d="m 435.39508,505.66254 c -0.0871,0.091 -0.0871,14.53265 -0.26722,18.30231 -0.17811,3.04943 -0.44917,9.59747 -6.90815,9.59747 -6.63902,0 -8.25375,-7.62646 -8.79198,-10.94307 -0.62733,-3.67868 -0.62733,-6.73003 -0.62733,-8.07371 0,-4.30597 0.26913,-16.33134 10.40676,-16.33134 3.05135,0 4.75514,0.9003 6.10078,1.61473 l 0.0871,5.83361 z m -26.01596,10.58876 c 0,25.29759 13.45815,25.29759 15.43104,25.29759 5.56256,0 9.15214,-3.05134 10.67589,-8.34089 l 0.18008,7.9827 c 1.70571,-0.091 3.40955,-0.26914 6.18985,-0.26914 0.9874,0 1.79284,0 2.51308,0.091 0.7183,0 1.4347,0.0871 2.24206,0.17811 -1.43465,-2.86935 -2.51115,-9.32833 -2.51115,-23.32856 0,-13.63622 0,-36.6918 1.16555,-43.69092 -3.22754,1.52759 -6.01173,2.51503 -12.11251,3.05135 2.4221,2.60217 2.4221,3.94777 2.4221,15.78726 -1.70187,-0.53631 -3.8568,-1.16359 -7.53544,-1.16359 -16.05837,0 -18.66055,13.99441 -18.66055,24.40506"
           inkscape:connector-curvature="0" /><path
           id="path4124"
           style="fill:#ffffff;fill-opacity:1;fill-rule:nonzero;stroke:none"
           d="m 451.41513,500.53249 c -0.091,-3.05135 -0.091,-6.28083 -1.3456,-8.883 1.97485,0.17811 3.14233,0.44917 6.81713,0.44917 2.1569,0 3.32049,-0.18004 5.02625,-0.44917 -0.35628,1.16556 -0.54019,1.61473 -0.71831,3.14237 -0.26913,2.06003 -0.44917,8.97014 -0.44917,11.39416 v 9.68844 c 0,4.21692 0,10.31966 0.27105,12.47071 0.17812,1.52376 0.62341,5.64966 5.83165,5.64966 5.11334,0 6.81521,-3.76578 7.44638,-6.81714 0.71443,-3.14045 0.71443,-6.55 0.71443,-19.82803 -0.0871,-11.48326 -0.0871,-12.5578 -0.98356,-15.70017 1.52375,0.17811 3.40762,0.35819 6.09886,0.35819 2.15685,0 3.58958,-0.0891 5.38248,-0.35819 -0.62925,1.43662 -0.98745,2.15492 -1.16556,7.17728 -0.182,4.93523 -0.54019,29.16021 0.27297,34.89891 0.44534,3.50249 1.14428,6.097 1.87396,7.56472 -4.91878,-0.31189 -6.60307,-0.45182 -11.38813,0.33088 -0.0635,-1.82628 -0.11459,-5.90714 -0.0604,-7.76347 -1.39876,3.81524 -6.93702,7.40669 -12.23035,7.22716 -11.2096,-0.38021 -11.30318,-8.16469 -11.3942,-13.54524 v -27.00724"
           inkscape:connector-curvature="0"
           sodipodi:nodetypes="ccsccsscscccsccccccscc" /></g><path
         d="m 182.62093,861.66254 c -0.0871,0.091 -0.0871,14.53265 -0.26721,18.30231 -0.17812,3.04943 -0.44918,9.59747 -6.90816,9.59747 -6.63901,0 -8.25374,-7.62646 -8.79198,-10.94307 -0.62733,-3.67868 -0.62733,-6.73003 -0.62733,-8.07371 0,-4.30597 0.26914,-16.33134 10.40676,-16.33134 3.05135,0 4.75514,0.9003 6.10079,1.61473 l 0.0871,5.83361 z m -26.01595,10.58876 c 0,25.29759 13.45811,25.29759 15.43104,25.29759 5.56255,0 9.15213,-3.05134 10.67589,-8.34089 l 0.18008,7.9827 c 1.70571,-0.091 3.40955,-0.26914 6.18984,-0.26914 0.98741,0 1.79286,0 2.51308,0.091 0.71831,0 1.4347,0.0871 2.24207,0.17811 -1.43466,-2.86935 -2.51116,-9.32833 -2.51116,-23.32856 0,-13.63622 0,-36.6918 1.16556,-43.69092 -3.22755,1.52759 -6.01173,2.51503 -12.11251,3.05135 2.4221,2.60217 2.4221,3.94777 2.4221,15.78726 -1.70187,-0.53631 -3.8568,-1.16359 -7.53544,-1.16359 -16.05837,0 -18.66055,13.99441 -18.66055,24.40506"
         style="opacity:0.71;fill:#ffffff;fill-opacity:1;fill-rule:nonzero;stroke:none"
         id="path4106"
         inkscape:connector-curvature="0" /><path
         d="m 205.26023,867.6723 c 0.091,-7.44638 1.61665,-14.08736 7.9846,-14.08736 6.99918,0 7.53353,7.71553 7.35541,14.08736 z m 24.22109,0.90031 c 0,-10.49774 -2.06198,-20.8174 -15.34001,-20.8174 -18.30044,0 -18.30044,20.27721 -18.30044,24.58318 0,18.21138 8.16277,25.38862 21.89002,25.38862 6.0969,0 9.06116,-0.8945 10.67589,-1.34559 -0.0891,-3.22952 0.35819,-5.29343 0.90031,-8.07372 -1.88775,1.16945 -4.30986,2.69316 -9.69233,2.69316 -13.99638,0 -14.17642,-12.74369 -14.17642,-17.13872 h 23.86875 l 0.17423,-5.28953"
         style="opacity:0.71;fill:#ffffff;fill-opacity:1;fill-rule:nonzero;stroke:none"
         id="path4108"
         inkscape:connector-curvature="0" /><path
         d="m 258.66865,872.42941 c 0,8.3428 -1.52375,19.5589 -11.93051,19.5589 -1.43662,0 -3.22947,-0.27303 -4.39503,-0.54212 -0.18003,-3.22951 -0.18003,-8.79202 -0.18003,-15.251 0,-7.71744 0.8054,-11.74847 1.43657,-13.72725 1.88195,-6.36795 6.09886,-6.45702 6.90431,-6.45702 6.8191,0 8.16469,9.4232 8.16469,16.41849 z m -25.74682,9.77942 c 0,6.63906 0,10.40676 -1.07646,13.27616 3.67865,1.43657 8.25184,2.24202 13.7272,2.24202 3.49861,0 13.63628,0 19.10781,-11.21221 2.60218,-5.20239 3.4986,-12.20152 3.4986,-17.49685 0,-3.22952 -0.35819,-10.31579 -2.96037,-14.80375 -2.51116,-4.21304 -6.54996,-6.36796 -10.85401,-6.36796 -8.61386,0 -11.12507,7.17724 -12.46875,10.85592 0,-4.57511 0.0872,-20.54438 0.80353,-28.70911 -5.82973,2.6932 -9.42127,3.13849 -13.27615,3.49861 3.4986,1.43278 3.4986,7.35736 3.4986,26.64712 v 22.07005"
         style="opacity:0.71;fill:#ffffff;fill-opacity:1;fill-rule:nonzero;stroke:none"
         id="path4110"
         inkscape:connector-curvature="0" /><path
         d="m 285.4242,897.1907 c -1.7929,-0.26914 -3.05331,-0.44917 -5.6555,-0.44917 -2.86547,0 -4.84228,0.18003 -6.90427,0.44917 0.89643,-1.70571 1.25462,-2.51504 1.52376,-8.34281 0.36011,-7.98657 0.45109,-29.34028 -0.17811,-33.82441 -0.44922,-3.41147 -1.25462,-3.94778 -2.51121,-4.8442 7.35541,-0.71831 9.42128,-1.25654 12.82694,-2.87132 -0.71639,3.94394 -0.80737,5.92267 -0.80737,11.93052 -0.17811,30.95697 -0.26913,34.27358 1.70576,37.95222"
         style="opacity:0.71;fill:#ffffff;fill-opacity:1;fill-rule:nonzero;stroke:none"
         id="path4112"
         inkscape:connector-curvature="0" /><path
         d="m 314.15263,871.79824 c -0.1762,5.65353 -0.26718,9.60131 -1.79481,12.7398 -1.88383,4.0388 -5.02232,5.2024 -7.35536,5.2024 -5.38636,0 -6.55,-4.48409 -6.55,-8.87912 0,-8.43191 7.53739,-9.06308 10.94306,-9.06308 z m -24.67415,11.03793 c 0,5.65353 1.70571,11.30318 6.73195,13.72725 2.24203,0.98547 4.48409,0.98547 5.2024,0.98547 8.25571,0 11.03404,-6.1027 12.7398,-9.86852 -0.091,3.94782 0,6.368 0.26914,9.51033 1.61473,-0.091 3.22946,-0.26914 5.92267,-0.26914 1.52371,0 2.96033,0.17816 4.48408,0.26914 -0.98744,-1.52372 -1.52375,-2.42402 -1.79673,-5.92267 -0.17816,-3.40566 -0.17816,-6.81713 -0.17816,-11.57036 l 0.091,-18.30235 c 0,-6.82293 -1.79481,-13.54908 -15.25484,-13.54908 -8.87719,0 -14.08155,2.69123 -16.68374,4.03879 1.07842,1.97293 1.97485,3.67476 2.7803,7.53545 3.50052,-3.05136 8.0776,-4.66609 12.7398,-4.66609 7.45026,0 7.45026,4.93522 7.45026,11.93047 -1.7057,-0.0871 -3.14429,-0.26526 -5.56639,-0.26526 -11.3942,0 -18.93156,4.39119 -18.93156,16.41657"
         style="opacity:0.71;fill:#ffffff;fill-opacity:1;fill-rule:nonzero;stroke:none"
         id="path4114"
         inkscape:connector-curvature="0" /><path
         d="m 365.82821,888.3077 c 0.091,3.05135 0.091,6.28082 1.34565,8.883 -1.9749,-0.17811 -3.14237,-0.44917 -6.81718,-0.44917 -2.15684,0 -3.32044,0.18003 -5.02619,0.44917 0.35622,-1.16556 0.54019,-1.61473 0.7183,-3.14233 0.26914,-2.06006 0.44917,-8.97014 0.44917,-11.3942 v -9.68845 c 0,-4.21691 0,-10.31962 -0.27105,-12.4707 -0.17812,-1.52372 -0.62345,-5.64965 -5.83165,-5.64965 -5.11334,0 -6.81521,3.76582 -7.44643,6.81717 -0.71442,3.14041 -0.71442,6.54996 -0.71442,19.82799 0.0871,11.48325 0.0871,12.55784 0.98356,15.70017 -1.52371,-0.17811 -3.40758,-0.35819 -6.09882,-0.35819 -2.15689,0 -3.58962,0.0891 -5.38248,0.35819 0.62925,-1.43662 0.98741,-2.15493 1.16557,-7.17725 0.182,-4.93522 0.54014,-29.16024 -0.27303,-34.89895 -0.44528,-3.50249 -1.34559,-4.30794 -2.32916,-5.20436 7.26827,-0.3582 9.59743,-1.52759 11.84338,-2.69124 v 9.51034 c 1.07454,-2.78419 3.31661,-8.97403 12.29063,-8.97403 11.21604,0 11.30318,8.16474 11.39415,13.54526 v 27.00723"
         style="opacity:0.71;fill:#ffffff;fill-opacity:1;fill-rule:nonzero;stroke:none"
         id="path4116"
         inkscape:connector-curvature="0" /></g><path
       d="m 296.81767,912.89241 c 0,-2.93664 1.1552,-5.38812 3.46561,-7.35443 2.3104,-1.96627 5.38218,-2.94941 9.21537,-2.94944 3.12428,3e-5 5.55283,0.58736 7.28565,1.762 1.75904,1.14916 2.63857,2.75794 2.63859,4.82635 -2e-5,0.63843 -0.10504,1.43005 -0.31505,2.37487 h -5.51347 c 0.0525,-0.45963 0.0787,-0.7533 0.0788,-0.881 -2e-5,-2.11948 -1.73282,-3.17924 -5.19841,-3.17927 -1.78533,3e-5 -3.20307,0.35754 -4.25325,1.07253 -1.02394,0.71503 -1.5359,1.68542 -1.53589,2.91113 -10e-6,0.71503 0.32817,1.27683 0.98455,1.68539 0.65634,0.38306 1.91657,0.75334 3.78066,1.11083 l 4.29263,0.84269 c 2.02158,0.38306 3.55747,1.05977 4.60769,2.03013 1.05016,0.97039 1.57524,2.19613 1.57527,3.67722 -3e-5,0.91931 -0.11817,1.83861 -0.35443,2.75791 -0.23632,0.91931 -0.66953,1.88968 -1.29961,2.91114 -0.63013,1.02145 -1.4309,1.91521 -2.40229,2.6813 -0.97145,0.76608 -2.27105,1.40449 -3.89882,1.91521 -1.6278,0.51072 -3.46562,0.76609 -5.51346,0.76609 -2.02162,0 -3.76755,-0.2426 -5.23779,-0.72779 -1.44402,-0.45965 -2.53358,-1.07251 -3.26871,-1.8386 -0.73513,-0.79162 -1.27335,-1.59602 -1.61466,-2.41318 -0.31505,-0.81716 -0.47258,-1.67261 -0.47258,-2.56639 0,-0.43411 0.0525,-0.9959 0.15753,-1.68539 h 5.74976 c -0.0525,0.45966 -0.0788,0.75332 -0.0788,0.88101 -1e-5,1.09806 0.4857,1.95351 1.45712,2.56638 0.99767,0.58734 2.38916,0.88101 4.17449,0.881 2.04784,10e-6 3.67563,-0.38304 4.88336,-1.14913 1.23394,-0.79162 1.85092,-1.82583 1.85094,-3.10265 -2e-5,-0.89376 -0.34133,-1.57046 -1.02393,-2.03013 -0.68263,-0.45964 -1.9166,-0.86823 -3.7019,-1.22574 l -3.85942,-0.76608 c -2.33668,-0.45965 -4.03009,-1.13635 -5.08027,-2.03013 -1.05019,-0.91929 -1.57528,-2.17057 -1.57528,-3.75383"
       style="font-style:oblique;font-variant:normal;font-weight:bold;font-stretch:normal;font-size:54.6294px;line-height:125%;font-family:FreeSans;-inkscape-font-specification:'FreeSans Bold Oblique';letter-spacing:0px;word-spacing:0px;opacity:0.71;fill:#ffffff;fill-opacity:1;stroke:none"
       id="path4126"
       inkscape:connector-curvature="0" /><path
       d="m 331.11809,903.0482 -3.34746,15.28342 8.78216,-8.04391 h 6.26173 l -9.13661,7.8907 5.08027,12.79364 h -6.45863 l -3.11118,-9.15473 -2.67796,2.37487 -1.49651,6.77986 h -5.51348 l 6.1042,-27.92385 h 5.51347"
       style="font-style:oblique;font-variant:normal;font-weight:bold;font-stretch:normal;font-size:54.6294px;line-height:125%;font-family:FreeSans;-inkscape-font-specification:'FreeSans Bold Oblique';letter-spacing:0px;word-spacing:0px;opacity:0.71;fill:#ffffff;fill-opacity:1;stroke:none"
       id="path4128"
       inkscape:connector-curvature="0" /><path
       d="m 340.13668,924.19219 c -1e-5,-3.9581 1.19458,-7.31611 3.58375,-10.07404 2.41542,-2.78343 5.56597,-4.17515 9.45167,-4.17517 2.7042,2e-5 4.83082,0.68949 6.37986,2.06843 1.54901,1.35344 2.32351,3.21758 2.32354,5.59243 -3e-5,4.03473 -1.22087,7.41828 -3.66252,10.15066 -2.4417,2.73237 -5.61851,4.09856 -9.53043,4.09856 -2.59921,0 -4.67332,-0.68948 -6.22233,-2.06844 -1.54903,-1.40449 -2.32355,-3.26863 -2.32354,-5.59243 m 9.53042,3.37078 c 1.23395,0 2.3104,-0.34473 3.22932,-1.03422 0.91889,-0.715 1.60152,-1.58324 2.04786,-2.60469 0.44631,-1.04698 0.77449,-2.01735 0.98455,-2.91113 0.21001,-0.89376 0.31504,-1.65985 0.31506,-2.29826 -2e-5,-1.3534 -0.35446,-2.4387 -1.06332,-3.25587 -0.70889,-0.81714 -1.66718,-1.22572 -2.87488,-1.22574 -1.78533,2e-5 -3.32122,0.88102 -4.60768,2.643 -1.28649,1.73648 -1.92972,3.81767 -1.92971,6.2436 -1e-5,1.35343 0.35442,2.43872 1.06331,3.25588 0.70886,0.79162 1.65403,1.18743 2.83549,1.18743"
       style="font-style:oblique;font-variant:normal;font-weight:bold;font-stretch:normal;font-size:54.6294px;line-height:125%;font-family:FreeSans;-inkscape-font-specification:'FreeSans Bold Oblique';letter-spacing:0px;word-spacing:0px;opacity:0.71;fill:#ffffff;fill-opacity:1;stroke:none"
       id="path4130"
       inkscape:connector-curvature="0" /><path
       d="m 373.81697,903.0482 -6.10419,27.92385 h -5.51348 l 6.1042,-27.92385 h 5.51347"
       style="font-style:oblique;font-variant:normal;font-weight:bold;font-stretch:normal;font-size:54.6294px;line-height:125%;font-family:FreeSans;-inkscape-font-specification:'FreeSans Bold Oblique';letter-spacing:0px;word-spacing:0px;opacity:0.71;fill:#ffffff;fill-opacity:1;stroke:none"
       id="path4132"
       inkscape:connector-curvature="0" /><path
       d="m 385.40878,909.94298 c 2.49417,2e-5 4.50265,0.70226 6.02543,2.10674 1.549,1.4045 2.32352,3.23035 2.32354,5.47752 -2e-5,1.45557 -0.23632,3.05158 -0.70888,4.78804 h -14.29563 c -0.0788,0.71502 -0.11816,1.28959 -0.11815,1.72369 -10e-6,1.04699 0.3413,1.90245 1.02393,2.5664 0.68261,0.6384 1.5884,0.9576 2.71735,0.9576 0.94516,0 1.81157,-0.21705 2.59921,-0.65117 0.81388,-0.43411 1.41774,-1.02145 1.81157,-1.762 h 5.43471 c -1.07647,2.11951 -2.57298,3.76659 -4.48955,4.94126 -1.89034,1.17466 -4.0301,1.762 -6.41925,1.762 -2.46794,0 -4.47641,-0.72779 -6.02543,-2.18335 -1.52277,-1.4811 -2.28415,-3.40908 -2.28415,-5.78396 0,-0.61286 0.0656,-1.3151 0.19691,-2.10673 0.13127,-0.79162 0.35443,-1.73645 0.66949,-2.83453 0.31505,-1.12357 0.77451,-2.18333 1.37837,-3.17925 0.63011,-1.02144 1.37836,-1.97905 2.24476,-2.87283 0.8664,-0.89375 1.98222,-1.60876 3.34747,-2.14504 1.36523,-0.53624 2.88799,-0.80437 4.5683,-0.80439 m 2.71736,8.23543 c -2e-5,-2.63022 -1.12897,-3.94533 -3.38685,-3.94535 -2.65173,2e-5 -4.41079,1.50666 -5.27717,4.51992 h 8.66402 v -0.57457"
       style="font-style:oblique;font-variant:normal;font-weight:bold;font-stretch:normal;font-size:54.6294px;line-height:125%;font-family:FreeSans;-inkscape-font-specification:'FreeSans Bold Oblique';letter-spacing:0px;word-spacing:0px;opacity:0.71;fill:#ffffff;fill-opacity:1;stroke:none"
       id="path4134"
       inkscape:connector-curvature="0" /><path
       d="m 406.66086,903.0482 -6.10419,27.92385 h -5.51347 l 6.10419,-27.92385 h 5.51347"
       style="font-style:oblique;font-variant:normal;font-weight:bold;font-stretch:normal;font-size:54.6294px;line-height:125%;font-family:FreeSans;-inkscape-font-specification:'FreeSans Bold Oblique';letter-spacing:0px;word-spacing:0px;opacity:0.71;fill:#ffffff;fill-opacity:1;stroke:none"
       id="path4136"
       inkscape:connector-curvature="0" /><path
       d="m 416.00792,910.28771 -4.52893,20.68434 h -5.51346 l 4.52892,-20.68434 h 5.51347 m 1.57527,-7.23951 -1.06331,4.78804 h -5.51346 l 1.0633,-4.78804 h 5.51347"
       style="font-style:oblique;font-variant:normal;font-weight:bold;font-stretch:normal;font-size:54.6294px;line-height:125%;font-family:FreeSans;-inkscape-font-specification:'FreeSans Bold Oblique';letter-spacing:0px;word-spacing:0px;opacity:0.71;fill:#ffffff;fill-opacity:1;stroke:none"
       id="path4138"
       inkscape:connector-curvature="0" /><path
       d="m 421.25925,910.28771 h 5.51347 l -0.70887,3.14096 c 1.05017,-1.22572 2.13974,-2.10672 3.26869,-2.643 1.12894,-0.56177 2.42854,-0.84267 3.89882,-0.84269 1.75903,2e-5 3.16366,0.45967 4.21386,1.37895 1.05016,0.91932 1.57525,2.14506 1.57528,3.67722 -3e-5,0.68949 -0.0788,1.39174 -0.2363,2.10674 l -3.0324,13.86616 h -5.51347 l 2.63858,-11.98925 c 0.15752,-0.84268 0.23628,-1.46832 0.2363,-1.87691 -2e-5,-1.91521 -0.97144,-2.87281 -2.91426,-2.87283 -1.31275,2e-5 -2.45482,0.45967 -3.42623,1.37896 -0.94518,0.89378 -1.60154,2.13228 -1.9691,3.71552 l -2.55981,11.64451 h -5.51347 l 4.52891,-20.68434"
       style="font-style:oblique;font-variant:normal;font-weight:bold;font-stretch:normal;font-size:54.6294px;line-height:125%;font-family:FreeSans;-inkscape-font-specification:'FreeSans Bold Oblique';letter-spacing:0px;word-spacing:0px;opacity:0.71;fill:#ffffff;fill-opacity:1;stroke:none"
       id="path4140"
       inkscape:connector-curvature="0" /><path
       d="m 458.86097,930.97205 h -5.51346 l 0.59073,-2.60468 c -1.0502,1.22574 -2.13977,2.10673 -3.2687,2.64299 -1.12896,0.56179 -2.42856,0.8427 -3.89881,0.8427 -1.73281,0 -3.1243,-0.45965 -4.17448,-1.37896 -1.05019,-0.9193 -1.57528,-2.14504 -1.57528,-3.67722 0,-0.68947 0.0788,-1.39172 0.23629,-2.10673 l 3.15056,-14.40244 h 5.51346 l -2.75674,12.52552 c -0.15753,0.89377 -0.23629,1.51941 -0.23628,1.87692 -1e-5,1.91522 0.99767,2.87282 2.99302,2.87282 1.28647,0 2.40229,-0.45965 3.34746,-1.37895 0.94516,-0.9193 1.58839,-2.15781 1.92972,-3.71553 l 2.67797,-12.18078 h 5.51347 l -4.52893,20.68434"
       style="font-style:oblique;font-variant:normal;font-weight:bold;font-stretch:normal;font-size:54.6294px;line-height:125%;font-family:FreeSans;-inkscape-font-specification:'FreeSans Bold Oblique';letter-spacing:0px;word-spacing:0px;opacity:0.71;fill:#ffffff;fill-opacity:1;stroke:none"
       id="path4142"
       inkscape:connector-curvature="0" /><path
       d="m 477.3833,920.47667 4.84397,10.49538 h -6.61616 l -2.32354,-6.43512 -4.84398,6.43512 h -6.61615 l 9.17599,-10.49538 -4.3714,-10.18896 h 6.61616 l 2.00848,6.24361 4.84397,-6.24361 h 6.61617 l -9.33351,10.18896"
       style="font-style:oblique;font-variant:normal;font-weight:bold;font-stretch:normal;font-size:54.6294px;line-height:125%;font-family:FreeSans;-inkscape-font-specification:'FreeSans Bold Oblique';letter-spacing:0px;word-spacing:0px;opacity:0.71;fill:#ffffff;fill-opacity:1;stroke:none"
       id="path4144"
       inkscape:connector-curvature="0" /></g></g></svg>
