<?xml version="1.0" encoding="UTF-8" standalone="no"?>
<svg
   xmlns:dc="http://purl.org/dc/elements/1.1/"
   xmlns:cc="http://creativecommons.org/ns#"
   xmlns:rdf="http://www.w3.org/1999/02/22-rdf-syntax-ns#"
   xmlns:svg="http://www.w3.org/2000/svg"
   xmlns="http://www.w3.org/2000/svg"
   xmlns:xlink="http://www.w3.org/1999/xlink"
   xmlns:sodipodi="http://sodipodi.sourceforge.net/DTD/sodipodi-0.dtd"
   xmlns:inkscape="http://www.inkscape.org/namespaces/inkscape"
   version="1.1"
   id="Layer_1"
   x="0px"
   y="0px"
   width="1600"
   height="1202.6858"
   viewBox="0 0 1600 1202.6858"
   enable-background="new 0 0 2560 1600"
   xml:space="preserve"
   sodipodi:docname="1600x1200.svg"
   inkscape:version="1.0.1 (3bc2e813f5, 2020-09-07)"><metadata
   id="metadata749"><rdf:RDF><cc:Work
       rdf:about=""><dc:format>image/svg+xml</dc:format><dc:type
         rdf:resource="http://purl.org/dc/dcmitype/StillImage" /><dc:title /></cc:Work></rdf:RDF></metadata><defs
   id="defs747" /><sodipodi:namedview
   pagecolor="#ffffff"
   bordercolor="#666666"
   borderopacity="1"
   objecttolerance="10"
   gridtolerance="10"
   guidetolerance="10"
   inkscape:pageopacity="0"
   inkscape:pageshadow="2"
   inkscape:window-width="1280"
   inkscape:window-height="982"
   id="namedview745"
   showgrid="false"
   inkscape:zoom="0.5"
   inkscape:cx="704.71069"
   inkscape:cy="582.47681"
   inkscape:window-x="0"
   inkscape:window-y="-37"
   inkscape:window-maximized="1"
   inkscape:current-layer="Layer_1"
   inkscape:document-rotation="0"
   fit-margin-top="0"
   fit-margin-left="0"
   fit-margin-right="0"
   fit-margin-bottom="0"
   width="1600px" />
<rect
   x="-1206"
   y="0"
   fill="#010027"
   width="1203.4458"
   height="1604.5945"
   id="rect586"
   transform="rotate(-90)"
   style="stroke-width:0.591413" />
<rect
   x="551.18549"
   y="304.62573"
   fill="#e7e9b9"
   width="19"
   height="20"
   id="rect588" />
<rect
   x="906.59314"
   y="-1092.4034"
   transform="rotate(62.889145)"
   fill="#e7e9b9"
   width="4.2608733"
   height="1323.3566"
   id="rect590"
   style="stroke-width:0.99997" />
<circle
   fill="#01a495"
   cx="678.12445"
   cy="655.28174"
   r="313.69601"
   id="circle592" />
<radialGradient
   id="SVGID_1_"
   cx="1328.4463"
   cy="786.10352"
   r="418.38519"
   gradientTransform="matrix(0.7846,0,0,1.0808,-396.61376,-313.9946)"
   gradientUnits="userSpaceOnUse">
	<stop
   offset="0"
   style="stop-color:#010027;stop-opacity:0"
   id="stop594" />
	<stop
   offset="0.8533"
   style="stop-color:#010027;stop-opacity:0.8533"
   id="stop596" />
	<stop
   offset="1"
   style="stop-color:#010027"
   id="stop598" />
</radialGradient>
<rect
   x="310.18542"
   y="93.625793"
   fill="url(#SVGID_1_)"
   width="671"
   height="884"
   id="rect601"
   style="fill:url(#SVGID_1_)" />
<g
   display="none"
   id="g605"
   transform="translate(-582.03156,-137.3772)">
	

</g>
<rect
   x="-342.96014"
   y="-1207.585"
   transform="rotate(162.66853)"
   fill="#010027"
   width="29.682081"
   height="742.06006"
   id="rect607"
   style="stroke-width:1" />
<rect
   x="-452.79883"
   y="-1243.1417"
   transform="rotate(162.674)"
   opacity="0.6"
   fill="#010027"
   width="110.983"
   height="738.73901"
   id="rect609"
   style="stroke-width:0.999973" />
<rect
   x="-385.72134"
   y="-1209.2699"
   transform="rotate(162.674)"
   opacity="0.6"
   fill="#010027"
   width="72.268044"
   height="704.90894"
   id="rect611"
   style="stroke-width:0.999973" />
<rect
   x="-390.04712"
   y="-985.36279"
   transform="rotate(173.30422)"
   fill="#010027"
   width="130.48973"
   height="513.69476"
   id="rect613"
   style="stroke-width:1.00002" />
<polygon
   opacity="0.6"
   fill="#010027"
   points="1171.436,869.016 1007.844,348.622 1323.856,262.773 1579.253,740.812 "
   id="polygon615"
   transform="translate(-582.03156,-137.3772)" />
<path
   fill="#010027"
   d="m 901.86439,692.55281 41.854,22.575 -94.048,175.652 c -23.566,-3.752 -44.792,-18.418 -44.792,-18.418 z"
   id="path617" />
<path
   opacity="0.6"
   fill="#010027"
   d="m 726.22639,746.55581 c -1.767,-82.182 144.351,-210.238 144.351,-210.238 0,0 134.06001,134.054 153.26301,203.831 21.812,79.255 -63.42001,150.238 -145.60301,152.008 -82.183,1.77 -150.24,-63.418 -152.011,-145.601 z"
   id="path619" />
<g
   opacity="0.4"
   id="g623"
   transform="translate(-582.03156,-137.3772)">
	

</g>
<rect
   x="602.18549"
   y="468.62573"
   opacity="0.6"
   fill="#010027"
   width="39"
   height="39"
   id="rect625" />
<rect
   x="648.18549"
   y="393.62573"
   opacity="0.6"
   fill="#010027"
   width="39"
   height="39"
   id="rect627" />
<circle
   opacity="0.4"
   fill="#010027"
   cx="482.95941"
   cy="462.77686"
   r="249.703"
   id="circle629" />
<radialGradient
   id="SVGID_2_"
   cx="1459.4863"
   cy="666.1709"
   r="418.4527"
   gradientTransform="matrix(0.865,0,0,0.9231,-459.27056,-5.8170959)"
   gradientUnits="userSpaceOnUse">
	<stop
   offset="0"
   style="stop-color:#FFFFFF"
   id="stop631" />
	<stop
   offset="0.6613"
   style="stop-color:#010027"
   id="stop633" />
</radialGradient>
<rect
   x="433.18542"
   y="231.62573"
   opacity="0.2"
   fill="url(#SVGID_2_)"
   width="740"
   height="755"
   id="rect636"
   style="fill:url(#SVGID_2_)" />
<path
   fill="none"
   stroke="#01a495"
   stroke-width="16"
   stroke-miterlimit="10"
   d="m 1022.6334,575.07281 c 1.975,91.741 -117.39401,185.077 -117.39401,185.077 0,0 -165.146,-43.727 -199.621,-147.511 -35.01095,-105.395 55.585,-198.125 147.326,-200.1 91.741,-1.975 167.71201,70.794 169.68901,162.534 z"
   id="path638" />
<circle
   opacity="0.6"
   fill="#010027"
   cx="916.16333"
   cy="366.62976"
   r="111.754"
   id="circle640" />
<polygon
   fill="#010027"
   points="1429.566,775.813 1388.408,686.946 1537.875,617.704 1579.03,706.573 "
   id="polygon642"
   transform="translate(-582.03156,-137.3772)" />
<polygon
   fill="#010027"
   points="1692.276,1340.063 1164.13,199.975 1298.022,137.943 1826.169,1278.037 "
   id="polygon644"
   transform="translate(-582.03156,-137.3772)" />

<g
   id="g686"
   transform="translate(-582.03156,-137.3772)">
	<path
   fill="#ffffff"
   d="m 1467.076,724.713 c -3.024,0.04 0.57,1.553 4.52,2.163 1.094,-0.855 2.077,-1.714 2.961,-2.551 -2.454,0.6 -4.957,0.614 -7.481,0.388"
   id="path662" />
	<path
   fill="#ffffff"
   d="m 1483.308,720.665 c 1.807,-2.488 3.118,-5.208 3.582,-8.022 -0.409,2.003 -1.491,3.734 -2.519,5.565 -5.656,3.561 -0.535,-2.113 -0.01,-4.274 -6.077,7.659 -0.839,4.591 -1.058,6.731"
   id="path664" />
	<path
   fill="#ffffff"
   d="m 1489.307,705.069 c 0.366,-5.447 -1.073,-3.722 -1.557,-1.647 0.563,0.296 1.01,3.841 1.557,1.647"
   id="path666" />
	<path
   fill="#ffffff"
   d="m 1455.604,630.616 c 1.613,0.288 3.49,0.511 3.22,0.897 1.773,-0.391 2.171,-0.743 -3.22,-0.897"
   id="path668" />
	<path
   fill="#ffffff"
   d="m 1458.825,631.513 -1.135,0.237 1.06,-0.098 0.075,-0.139"
   id="path670" />
	<path
   fill="#ffffff"
   d="m 1509.169,707.133 c 0.181,4.892 -1.429,7.269 -2.882,11.472 l -2.618,1.301 c -2.139,4.16 0.214,2.641 -1.32,5.944 -3.342,2.97 -10.133,9.292 -12.308,9.87 -1.588,-0.035 1.074,-1.873 1.423,-2.594 -4.471,3.069 -3.587,4.608 -10.428,6.476 l -0.2,-0.446 c -16.864,7.936 -40.288,-7.788 -39.979,-29.238 -0.18,1.36 -0.513,1.02 -0.884,1.566 -0.873,-11.035 5.097,-22.118 15.16,-26.649 9.844,-4.873 21.386,-2.875 28.434,3.702 -3.872,-5.073 -11.583,-10.452 -20.713,-9.954 -8.951,0.146 -17.325,5.832 -20.121,12.008 -4.581,2.885 -5.115,11.126 -7.112,12.636 -2.689,19.759 5.056,28.289 18.16,38.332 2.055,1.39 0.577,1.602 0.853,2.66 -4.352,-2.037 -8.335,-5.116 -11.615,-8.882 1.74,2.544 3.618,5.018 6.047,6.962 -4.109,-1.387 -9.592,-9.947 -11.189,-10.295 7.074,12.668 28.699,22.217 40.03,17.479 -5.244,0.195 -11.899,0.107 -17.787,-2.07 -2.48,-1.271 -5.84,-3.904 -5.238,-4.396 15.459,5.771 31.423,4.367 44.795,-6.352 3.405,-2.651 7.121,-7.16 8.196,-7.221 -1.617,2.434 0.277,1.169 -0.965,3.318 3.387,-5.467 -1.476,-2.227 3.503,-9.441 l 1.839,2.528 c -0.689,-4.542 5.637,-10.051 4.993,-17.23 1.45,-2.195 1.616,2.365 0.079,7.414 2.133,-5.603 0.564,-6.502 1.109,-11.127 0.59,1.555 1.373,3.205 1.772,4.847 -1.392,-5.415 1.424,-9.116 2.124,-12.264 -0.693,-0.303 -2.147,2.393 -2.483,-4 0.05,-2.777 0.775,-1.456 1.052,-2.14 -0.541,-0.315 -1.973,-2.444 -2.842,-6.527 0.626,-0.961 1.687,2.489 2.543,2.629 -0.554,-3.248 -1.502,-5.724 -1.543,-8.213 -2.51,-5.244 -0.89,0.699 -2.921,-2.251 -2.674,-8.327 2.214,-1.932 2.547,-5.714 4.043,5.859 6.349,14.949 7.413,18.712 -0.811,-4.589 -2.116,-9.038 -3.713,-13.338 1.232,0.521 -1.983,-9.44 1.6,-2.844 -3.822,-14.06 -16.353,-27.197 -27.88,-33.359 1.406,1.29 3.186,2.908 2.552,3.164 -5.737,-3.412 -4.731,-3.679 -5.551,-5.122 -4.668,-1.903 -4.978,0.155 -8.067,0.005 -8.805,-4.674 -10.501,-4.177 -18.604,-7.101 l 0.367,1.725 c -5.831,-1.943 -6.794,0.731 -13.098,0.003 -0.383,-0.296 2.022,-1.084 4.001,-1.369 -5.64,0.745 -5.378,-1.114 -10.894,0.204 1.356,-0.953 2.798,-1.587 4.247,-2.397 -4.595,0.28 -10.979,2.677 -9.01,0.495 -7.501,3.348 -20.821,8.046 -28.298,15.058 l -0.235,-1.572 c -3.427,4.113 -14.939,12.279 -15.856,17.61 l -0.915,0.212 c -1.78,3.018 -2.938,6.437 -4.35,9.54 -2.329,3.974 -3.416,1.532 -3.085,2.153 -4.582,9.296 -6.866,17.108 -8.83,23.517 1.398,2.094 0.033,12.615 0.561,21.034 -2.299,41.591 29.187,81.964 63.606,91.283 5.044,1.81 12.544,1.743 18.926,1.923 -7.527,-2.152 -8.498,-1.139 -15.834,-3.697 -5.291,-2.495 -6.449,-5.339 -10.197,-8.59 l 1.481,2.622 c -7.346,-2.603 -4.271,-3.222 -10.25,-5.114 l 1.585,-2.066 c -2.386,-0.183 -6.312,-4.012 -7.382,-6.14 l -2.61,0.104 c -3.126,-3.859 -4.799,-6.646 -4.675,-8.807 l -0.843,1.502 c -0.956,-1.639 -11.519,-14.492 -6.04,-11.499 -1.017,-0.926 -2.371,-1.512 -3.838,-4.182 l 1.115,-1.271 c -2.634,-3.396 -4.856,-7.747 -4.687,-9.194 1.407,1.898 2.384,2.254 3.352,2.58 -6.659,-16.527 -7.037,-0.91 -12.078,-16.822 l 1.064,-0.086 c -0.817,-1.236 -1.317,-2.571 -1.974,-3.884 l 0.467,-4.626 c -4.793,-5.539 -1.341,-23.574 -0.646,-33.462 0.476,-4.021 4.003,-8.302 6.679,-15.017 l -1.63,-0.28 c 3.121,-5.442 17.817,-21.861 24.629,-21.018 3.298,-4.144 -0.656,-0.018 -1.303,-1.058 7.246,-7.496 9.524,-5.295 14.409,-6.646 5.272,-3.128 -4.522,1.223 -2.021,-1.192 9.113,-2.327 6.454,-5.293 18.345,-6.473 1.255,0.712 -2.911,1.101 -3.954,2.026 7.591,-3.716 24.027,-2.869 34.709,2.061 12.381,5.793 26.301,22.904 26.854,39.003 l 0.625,0.168 c -0.316,6.401 0.98,13.805 -1.269,20.601 l 1.519,-3.219"
   id="path672" />
	<path
   fill="#ffffff"
   d="m 1434.059,728.862 -0.428,2.121 c 1.989,2.702 3.568,5.627 6.105,7.733 -1.827,-3.56 -3.181,-5.032 -5.677,-9.854"
   id="path674" />
	<path
   fill="#ffffff"
   d="m 1438.755,728.678 c -1.052,-1.166 -1.672,-2.567 -2.371,-3.96 0.666,2.453 2.035,4.56 3.306,6.707 l -0.935,-2.747"
   id="path676" />
	<path
   fill="#ffffff"
   d="m 1521.924,710.601 -0.443,1.119 c -0.812,5.785 -2.576,11.511 -5.271,16.82 2.977,-5.601 4.898,-11.727 5.714,-17.939"
   id="path678" />
	<path
   fill="#ffffff"
   d="m 1456.204,629.164 c 2.044,-0.745 5.026,-0.411 7.199,-0.903 -2.831,0.238 -5.645,0.379 -8.426,0.731 l 1.227,0.172"
   id="path680" />
	<path
   fill="#ffffff"
   d="m 1384.4,667.348 c 0.468,4.36 -3.282,6.055 0.828,3.176 2.208,-4.968 -0.858,-1.37 -0.828,-3.176"
   id="path682" />
	<path
   fill="#ffffff"
   d="m 1379.564,687.54 c 0.95,-2.91 1.119,-4.656 1.481,-6.342 -2.617,3.349 -1.206,4.063 -1.481,6.342"
   id="path684" />
</g>
<rect
   x="642.18549"
   y="322.62573"
   opacity="0.7"
   fill="#01a495"
   width="25"
   height="25"
   id="rect688" />
<rect
   x="576.18549"
   y="407.62573"
   opacity="0.4"
   fill="#01a495"
   width="38"
   height="39"
   id="rect690" />
<polygon
   opacity="0.7"
   fill="#01a495"
   points="1222.245,375.174 1219.564,407.551 1185.804,403.486 1188.483,371.109 "
   id="polygon692"
   transform="translate(-582.03156,-137.3772)" />
<rect
   x="1236.1855"
   y="329.62573"
   fill="#010027"
   width="34"
   height="83"
   id="rect694" />
<rect
   x="1292.1855"
   y="304.62573"
   fill="#010027"
   width="34"
   height="106"
   id="rect696" />
<rect
   x="1370.1855"
   y="203.62573"
   fill="#010027"
   width="34"
   height="252"
   id="rect698" />
<rect
   x="1164.1855"
   y="359.62573"
   fill="#010027"
   width="34"
   height="83"
   id="rect700" />
<g
   opacity="0.5"
   id="g704"
   transform="translate(-582.03156,-137.3772)">
	

</g>
<g
   opacity="0.6"
   id="g708"
   transform="translate(-582.03156,-137.3772)">
	
</g>
<g
   opacity="0.4"
   id="g712"
   transform="translate(-582.03156,-137.3772)">
	

</g>
<g
   id="g714"
   transform="translate(-582.03156,-137.3772)">
</g>
<g
   id="g716"
   transform="translate(-582.03156,-137.3772)">
</g>
<g
   id="g718"
   transform="translate(-582.03156,-137.3772)">
</g>
<g
   id="g720"
   transform="translate(-582.03156,-137.3772)">
</g>
<g
   id="g722"
   transform="translate(-582.03156,-137.3772)">
</g>
<g
   id="g724"
   transform="translate(-582.03156,-137.3772)">
</g>
<g
   id="g726"
   transform="translate(-582.03156,-137.3772)">
</g>
<g
   id="g728"
   transform="translate(-582.03156,-137.3772)">
</g>
<g
   id="g730"
   transform="translate(-582.03156,-137.3772)">
</g>
<g
   id="g732"
   transform="translate(-582.03156,-137.3772)">
</g>
<g
   id="g734"
   transform="translate(-582.03156,-137.3772)">
</g>
<g
   id="g736"
   transform="translate(-582.03156,-137.3772)">
</g>
<g
   id="g738"
   transform="translate(-582.03156,-137.3772)">
</g>
<g
   id="g740"
   transform="translate(-582.03156,-137.3772)">
</g>
<g
   id="g742"
   transform="translate(-582.03156,-137.3772)">
</g>
<g
   id="g2983-9"
   transform="matrix(0.92586561,0,0,0.92586561,395.82486,231.50681)"
   style="fill:#008080"><path
     inkscape:connector-curvature="0"
     id="path4118-7"
     style="fill:#01a495;fill-opacity:1;fill-rule:nonzero;stroke:none"
     d="m 286.18119,834.61078 -7.42894,7.42701 -7.42706,-7.42701 7.42706,-7.42707 7.42894,7.42707" /><g
     transform="translate(0,356)"
     style="fill:#01a495;fill-opacity:1"
     id="g4318-3"><path
       id="path4120-6"
       style="fill:#01a495;fill-opacity:1;fill-rule:nonzero;stroke:none"
       d="m 380.71893,511.6723 c 0.091,-7.44638 1.61669,-14.08736 7.98465,-14.08736 6.99913,0 7.53352,7.71553 7.3554,14.08736 z m 24.22114,0.90031 c 0,-10.49774 -2.06199,-20.8174 -15.34007,-20.8174 -18.30039,0 -18.30039,20.27721 -18.30039,24.58318 0,18.21138 8.16278,25.38862 21.89003,25.38862 6.0969,0 9.06111,-0.8945 10.67584,-1.34559 -0.0891,-3.22952 0.3582,-5.29343 0.90031,-8.07372 -1.88771,1.16945 -4.30986,2.69316 -9.69228,2.69316 -13.99639,0 -14.17647,-12.74369 -14.17647,-17.13872 h 23.86875 l 0.17428,-5.28953"
       inkscape:connector-curvature="0" /><path
       id="path4122-1"
       style="fill:#01a495;fill-opacity:1;fill-rule:nonzero;stroke:none"
       d="m 435.39508,505.66254 c -0.0871,0.091 -0.0871,14.53265 -0.26722,18.30231 -0.17811,3.04943 -0.44917,9.59747 -6.90815,9.59747 -6.63902,0 -8.25375,-7.62646 -8.79198,-10.94307 -0.62733,-3.67868 -0.62733,-6.73003 -0.62733,-8.07371 0,-4.30597 0.26913,-16.33134 10.40676,-16.33134 3.05135,0 4.75514,0.9003 6.10078,1.61473 l 0.0871,5.83361 z m -26.01596,10.58876 c 0,25.29759 13.45815,25.29759 15.43104,25.29759 5.56256,0 9.15214,-3.05134 10.67589,-8.34089 l 0.18008,7.9827 c 1.70571,-0.091 3.40955,-0.26914 6.18985,-0.26914 0.9874,0 1.79284,0 2.51308,0.091 0.7183,0 1.4347,0.0871 2.24206,0.17811 -1.43465,-2.86935 -2.51115,-9.32833 -2.51115,-23.32856 0,-13.63622 0,-36.6918 1.16555,-43.69092 -3.22754,1.52759 -6.01173,2.51503 -12.11251,3.05135 2.4221,2.60217 2.4221,3.94777 2.4221,15.78726 -1.70187,-0.53631 -3.8568,-1.16359 -7.53544,-1.16359 -16.05837,0 -18.66055,13.99441 -18.66055,24.40506"
       inkscape:connector-curvature="0" /><path
       id="path4124-2"
       style="fill:#01a495;fill-opacity:1;fill-rule:nonzero;stroke:none"
       d="m 451.41513,500.53249 c -0.091,-3.05135 -0.091,-6.28083 -1.3456,-8.883 1.97485,0.17811 3.14233,0.44917 6.81713,0.44917 2.1569,0 3.32049,-0.18004 5.02625,-0.44917 -0.35628,1.16556 -0.54019,1.61473 -0.71831,3.14237 -0.26913,2.06003 -0.44917,8.97014 -0.44917,11.39416 v 9.68844 c 0,4.21692 0,10.31966 0.27105,12.47071 0.17812,1.52376 0.62341,5.64966 5.83165,5.64966 5.11334,0 6.81521,-3.76578 7.44638,-6.81714 0.71443,-3.14045 0.71443,-6.55 0.71443,-19.82803 -0.0871,-11.48326 -0.0871,-12.5578 -0.98356,-15.70017 1.52375,0.17811 3.40762,0.35819 6.09886,0.35819 2.15685,0 3.58958,-0.0891 5.38248,-0.35819 -0.62925,1.43662 -0.98745,2.15492 -1.16556,7.17728 -0.182,4.93523 -0.54019,29.16021 0.27297,34.89891 0.44534,3.50249 1.14428,6.097 1.87396,7.56472 -4.91878,-0.31189 -6.60307,-0.45182 -11.38813,0.33088 -0.0635,-1.82628 -0.11459,-5.90714 -0.0604,-7.76347 -1.39876,3.81524 -6.93702,7.40669 -12.23035,7.22716 -11.2096,-0.38021 -11.30318,-8.16469 -11.3942,-13.54524 v -27.00724"
       inkscape:connector-curvature="0"
       sodipodi:nodetypes="ccsccsscscccsccccccscc" /></g><g
     style="fill:#008080;fill-opacity:1;stroke:none"
     id="g4448-9"><path
       d="m 182.62093,861.66254 c -0.0871,0.091 -0.0871,14.53265 -0.26721,18.30231 -0.17812,3.04943 -0.44918,9.59747 -6.90816,9.59747 -6.63901,0 -8.25374,-7.62646 -8.79198,-10.94307 -0.62733,-3.67868 -0.62733,-6.73003 -0.62733,-8.07371 0,-4.30597 0.26914,-16.33134 10.40676,-16.33134 3.05135,0 4.75514,0.9003 6.10079,1.61473 l 0.0871,5.83361 z m -26.01595,10.58876 c 0,25.29759 13.45811,25.29759 15.43104,25.29759 5.56255,0 9.15213,-3.05134 10.67589,-8.34089 l 0.18008,7.9827 c 1.70571,-0.091 3.40955,-0.26914 6.18984,-0.26914 0.98741,0 1.79286,0 2.51308,0.091 0.71831,0 1.4347,0.0871 2.24207,0.17811 -1.43466,-2.86935 -2.51116,-9.32833 -2.51116,-23.32856 0,-13.63622 0,-36.6918 1.16556,-43.69092 -3.22755,1.52759 -6.01173,2.51503 -12.11251,3.05135 2.4221,2.60217 2.4221,3.94777 2.4221,15.78726 -1.70187,-0.53631 -3.8568,-1.16359 -7.53544,-1.16359 -16.05837,0 -18.66055,13.99441 -18.66055,24.40506"
       style="fill:#ffffff;fill-opacity:1;fill-rule:nonzero;stroke:none"
       id="path4106-3"
       inkscape:connector-curvature="0" /><path
       d="m 205.26023,867.6723 c 0.091,-7.44638 1.61665,-14.08736 7.9846,-14.08736 6.99918,0 7.53353,7.71553 7.35541,14.08736 z m 24.22109,0.90031 c 0,-10.49774 -2.06198,-20.8174 -15.34001,-20.8174 -18.30044,0 -18.30044,20.27721 -18.30044,24.58318 0,18.21138 8.16277,25.38862 21.89002,25.38862 6.0969,0 9.06116,-0.8945 10.67589,-1.34559 -0.0891,-3.22952 0.35819,-5.29343 0.90031,-8.07372 -1.88775,1.16945 -4.30986,2.69316 -9.69233,2.69316 -13.99638,0 -14.17642,-12.74369 -14.17642,-17.13872 h 23.86875 l 0.17423,-5.28953"
       style="fill:#ffffff;fill-opacity:1;fill-rule:nonzero;stroke:none"
       id="path4108-1"
       inkscape:connector-curvature="0" /><path
       d="m 258.66865,872.42941 c 0,8.3428 -1.52375,19.5589 -11.93051,19.5589 -1.43662,0 -3.22947,-0.27303 -4.39503,-0.54212 -0.18003,-3.22951 -0.18003,-8.79202 -0.18003,-15.251 0,-7.71744 0.8054,-11.74847 1.43657,-13.72725 1.88195,-6.36795 6.09886,-6.45702 6.90431,-6.45702 6.8191,0 8.16469,9.4232 8.16469,16.41849 z m -25.74682,9.77942 c 0,6.63906 0,10.40676 -1.07646,13.27616 3.67865,1.43657 8.25184,2.24202 13.7272,2.24202 3.49861,0 13.63628,0 19.10781,-11.21221 2.60218,-5.20239 3.4986,-12.20152 3.4986,-17.49685 0,-3.22952 -0.35819,-10.31579 -2.96037,-14.80375 -2.51116,-4.21304 -6.54996,-6.36796 -10.85401,-6.36796 -8.61386,0 -11.12507,7.17724 -12.46875,10.85592 0,-4.57511 0.0872,-20.54438 0.80353,-28.70911 -5.82973,2.6932 -9.42127,3.13849 -13.27615,3.49861 3.4986,1.43278 3.4986,7.35736 3.4986,26.64712 v 22.07005"
       style="fill:#ffffff;fill-opacity:1;fill-rule:nonzero;stroke:none"
       id="path4110-9"
       inkscape:connector-curvature="0" /><path
       d="m 285.4242,897.1907 c -1.7929,-0.26914 -3.05331,-0.44917 -5.6555,-0.44917 -2.86547,0 -4.84228,0.18003 -6.90427,0.44917 0.89643,-1.70571 1.25462,-2.51504 1.52376,-8.34281 0.36011,-7.98657 0.45109,-29.34028 -0.17811,-33.82441 -0.44922,-3.41147 -1.25462,-3.94778 -2.51121,-4.8442 7.35541,-0.71831 9.42128,-1.25654 12.82694,-2.87132 -0.71639,3.94394 -0.80737,5.92267 -0.80737,11.93052 -0.17811,30.95697 -0.26913,34.27358 1.70576,37.95222"
       style="fill:#ffffff;fill-opacity:1;fill-rule:nonzero;stroke:none"
       id="path4112-4"
       inkscape:connector-curvature="0" /><path
       d="m 314.15263,871.79824 c -0.1762,5.65353 -0.26718,9.60131 -1.79481,12.7398 -1.88383,4.0388 -5.02232,5.2024 -7.35536,5.2024 -5.38636,0 -6.55,-4.48409 -6.55,-8.87912 0,-8.43191 7.53739,-9.06308 10.94306,-9.06308 z m -24.67415,11.03793 c 0,5.65353 1.70571,11.30318 6.73195,13.72725 2.24203,0.98547 4.48409,0.98547 5.2024,0.98547 8.25571,0 11.03404,-6.1027 12.7398,-9.86852 -0.091,3.94782 0,6.368 0.26914,9.51033 1.61473,-0.091 3.22946,-0.26914 5.92267,-0.26914 1.52371,0 2.96033,0.17816 4.48408,0.26914 -0.98744,-1.52372 -1.52375,-2.42402 -1.79673,-5.92267 -0.17816,-3.40566 -0.17816,-6.81713 -0.17816,-11.57036 l 0.091,-18.30235 c 0,-6.82293 -1.79481,-13.54908 -15.25484,-13.54908 -8.87719,0 -14.08155,2.69123 -16.68374,4.03879 1.07842,1.97293 1.97485,3.67476 2.7803,7.53545 3.50052,-3.05136 8.0776,-4.66609 12.7398,-4.66609 7.45026,0 7.45026,4.93522 7.45026,11.93047 -1.7057,-0.0871 -3.14429,-0.26526 -5.56639,-0.26526 -11.3942,0 -18.93156,4.39119 -18.93156,16.41657"
       style="fill:#ffffff;fill-opacity:1;fill-rule:nonzero;stroke:none"
       id="path4114-7"
       inkscape:connector-curvature="0" /><path
       d="m 365.82821,888.3077 c 0.091,3.05135 0.091,6.28082 1.34565,8.883 -1.9749,-0.17811 -3.14237,-0.44917 -6.81718,-0.44917 -2.15684,0 -3.32044,0.18003 -5.02619,0.44917 0.35622,-1.16556 0.54019,-1.61473 0.7183,-3.14233 0.26914,-2.06006 0.44917,-8.97014 0.44917,-11.3942 v -9.68845 c 0,-4.21691 0,-10.31962 -0.27105,-12.4707 -0.17812,-1.52372 -0.62345,-5.64965 -5.83165,-5.64965 -5.11334,0 -6.81521,3.76582 -7.44643,6.81717 -0.71442,3.14041 -0.71442,6.54996 -0.71442,19.82799 0.0871,11.48325 0.0871,12.55784 0.98356,15.70017 -1.52371,-0.17811 -3.40758,-0.35819 -6.09882,-0.35819 -2.15689,0 -3.58962,0.0891 -5.38248,0.35819 0.62925,-1.43662 0.98741,-2.15493 1.16557,-7.17725 0.182,-4.93522 0.54014,-29.16024 -0.27303,-34.89895 -0.44528,-3.50249 -1.34559,-4.30794 -2.32916,-5.20436 7.26827,-0.3582 9.59743,-1.52759 11.84338,-2.69124 v 9.51034 c 1.07454,-2.78419 3.31661,-8.97403 12.29063,-8.97403 11.21604,0 11.30318,8.16474 11.39415,13.54526 v 27.00723"
       style="fill:#ffffff;fill-opacity:1;fill-rule:nonzero;stroke:none"
       id="path4116-8"
       inkscape:connector-curvature="0" /><path
       d="m 296.81767,912.89241 c 0,-2.93664 1.1552,-5.38812 3.46561,-7.35443 2.3104,-1.96627 5.38218,-2.94941 9.21537,-2.94944 3.12428,3e-5 5.55283,0.58736 7.28565,1.762 1.75904,1.14916 2.63857,2.75794 2.63859,4.82635 -2e-5,0.63843 -0.10504,1.43005 -0.31505,2.37487 h -5.51347 c 0.0525,-0.45963 0.0787,-0.7533 0.0788,-0.881 -2e-5,-2.11948 -1.73282,-3.17924 -5.19841,-3.17927 -1.78533,3e-5 -3.20307,0.35754 -4.25325,1.07253 -1.02394,0.71503 -1.5359,1.68542 -1.53589,2.91113 -10e-6,0.71503 0.32817,1.27683 0.98455,1.68539 0.65634,0.38306 1.91657,0.75334 3.78066,1.11083 l 4.29263,0.84269 c 2.02158,0.38306 3.55747,1.05977 4.60769,2.03013 1.05016,0.97039 1.57524,2.19613 1.57527,3.67722 -3e-5,0.91931 -0.11817,1.83861 -0.35443,2.75791 -0.23632,0.91931 -0.66953,1.88968 -1.29961,2.91114 -0.63013,1.02145 -1.4309,1.91521 -2.40229,2.6813 -0.97145,0.76608 -2.27105,1.40449 -3.89882,1.91521 -1.6278,0.51072 -3.46562,0.76609 -5.51346,0.76609 -2.02162,0 -3.76755,-0.2426 -5.23779,-0.72779 -1.44402,-0.45965 -2.53358,-1.07251 -3.26871,-1.8386 -0.73513,-0.79162 -1.27335,-1.59602 -1.61466,-2.41318 -0.31505,-0.81716 -0.47258,-1.67261 -0.47258,-2.56639 0,-0.43411 0.0525,-0.9959 0.15753,-1.68539 h 5.74976 c -0.0525,0.45966 -0.0788,0.75332 -0.0788,0.88101 -1e-5,1.09806 0.4857,1.95351 1.45712,2.56638 0.99767,0.58734 2.38916,0.88101 4.17449,0.881 2.04784,10e-6 3.67563,-0.38304 4.88336,-1.14913 1.23394,-0.79162 1.85092,-1.82583 1.85094,-3.10265 -2e-5,-0.89376 -0.34133,-1.57046 -1.02393,-2.03013 -0.68263,-0.45964 -1.9166,-0.86823 -3.7019,-1.22574 l -3.85942,-0.76608 c -2.33668,-0.45965 -4.03009,-1.13635 -5.08027,-2.03013 -1.05019,-0.91929 -1.57528,-2.17057 -1.57528,-3.75383"
       style="font-style:oblique;font-variant:normal;font-weight:bold;font-stretch:normal;font-size:54.6294px;line-height:125%;font-family:FreeSans;-inkscape-font-specification:'FreeSans Bold Oblique';letter-spacing:0px;word-spacing:0px;fill:#016269;fill-opacity:1;stroke:none"
       id="path4126-4"
       inkscape:connector-curvature="0" /><path
       d="m 331.11809,903.0482 -3.34746,15.28342 8.78216,-8.04391 h 6.26173 l -9.13661,7.8907 5.08027,12.79364 h -6.45863 l -3.11118,-9.15473 -2.67796,2.37487 -1.49651,6.77986 h -5.51348 l 6.1042,-27.92385 h 5.51347"
       style="font-style:oblique;font-variant:normal;font-weight:bold;font-stretch:normal;font-size:54.6294px;line-height:125%;font-family:FreeSans;-inkscape-font-specification:'FreeSans Bold Oblique';letter-spacing:0px;word-spacing:0px;fill:#016269;fill-opacity:1;stroke:none"
       id="path4128-5"
       inkscape:connector-curvature="0" /><path
       d="m 340.13668,924.19219 c -1e-5,-3.9581 1.19458,-7.31611 3.58375,-10.07404 2.41542,-2.78343 5.56597,-4.17515 9.45167,-4.17517 2.7042,2e-5 4.83082,0.68949 6.37986,2.06843 1.54901,1.35344 2.32351,3.21758 2.32354,5.59243 -3e-5,4.03473 -1.22087,7.41828 -3.66252,10.15066 -2.4417,2.73237 -5.61851,4.09856 -9.53043,4.09856 -2.59921,0 -4.67332,-0.68948 -6.22233,-2.06844 -1.54903,-1.40449 -2.32355,-3.26863 -2.32354,-5.59243 m 9.53042,3.37078 c 1.23395,0 2.3104,-0.34473 3.22932,-1.03422 0.91889,-0.715 1.60152,-1.58324 2.04786,-2.60469 0.44631,-1.04698 0.77449,-2.01735 0.98455,-2.91113 0.21001,-0.89376 0.31504,-1.65985 0.31506,-2.29826 -2e-5,-1.3534 -0.35446,-2.4387 -1.06332,-3.25587 -0.70889,-0.81714 -1.66718,-1.22572 -2.87488,-1.22574 -1.78533,2e-5 -3.32122,0.88102 -4.60768,2.643 -1.28649,1.73648 -1.92972,3.81767 -1.92971,6.2436 -1e-5,1.35343 0.35442,2.43872 1.06331,3.25588 0.70886,0.79162 1.65403,1.18743 2.83549,1.18743"
       style="font-style:oblique;font-variant:normal;font-weight:bold;font-stretch:normal;font-size:54.6294px;line-height:125%;font-family:FreeSans;-inkscape-font-specification:'FreeSans Bold Oblique';letter-spacing:0px;word-spacing:0px;fill:#016269;fill-opacity:1;stroke:none"
       id="path4130-0"
       inkscape:connector-curvature="0" /><path
       d="m 373.81697,903.0482 -6.10419,27.92385 h -5.51348 l 6.1042,-27.92385 h 5.51347"
       style="font-style:oblique;font-variant:normal;font-weight:bold;font-stretch:normal;font-size:54.6294px;line-height:125%;font-family:FreeSans;-inkscape-font-specification:'FreeSans Bold Oblique';letter-spacing:0px;word-spacing:0px;fill:#016269;fill-opacity:1;stroke:none"
       id="path4132-3"
       inkscape:connector-curvature="0" /><path
       d="m 385.40878,909.94298 c 2.49417,2e-5 4.50265,0.70226 6.02543,2.10674 1.549,1.4045 2.32352,3.23035 2.32354,5.47752 -2e-5,1.45557 -0.23632,3.05158 -0.70888,4.78804 h -14.29563 c -0.0788,0.71502 -0.11816,1.28959 -0.11815,1.72369 -10e-6,1.04699 0.3413,1.90245 1.02393,2.5664 0.68261,0.6384 1.5884,0.9576 2.71735,0.9576 0.94516,0 1.81157,-0.21705 2.59921,-0.65117 0.81388,-0.43411 1.41774,-1.02145 1.81157,-1.762 h 5.43471 c -1.07647,2.11951 -2.57298,3.76659 -4.48955,4.94126 -1.89034,1.17466 -4.0301,1.762 -6.41925,1.762 -2.46794,0 -4.47641,-0.72779 -6.02543,-2.18335 -1.52277,-1.4811 -2.28415,-3.40908 -2.28415,-5.78396 0,-0.61286 0.0656,-1.3151 0.19691,-2.10673 0.13127,-0.79162 0.35443,-1.73645 0.66949,-2.83453 0.31505,-1.12357 0.77451,-2.18333 1.37837,-3.17925 0.63011,-1.02144 1.37836,-1.97905 2.24476,-2.87283 0.8664,-0.89375 1.98222,-1.60876 3.34747,-2.14504 1.36523,-0.53624 2.88799,-0.80437 4.5683,-0.80439 m 2.71736,8.23543 c -2e-5,-2.63022 -1.12897,-3.94533 -3.38685,-3.94535 -2.65173,2e-5 -4.41079,1.50666 -5.27717,4.51992 h 8.66402 v -0.57457"
       style="font-style:oblique;font-variant:normal;font-weight:bold;font-stretch:normal;font-size:54.6294px;line-height:125%;font-family:FreeSans;-inkscape-font-specification:'FreeSans Bold Oblique';letter-spacing:0px;word-spacing:0px;fill:#016269;fill-opacity:1;stroke:none"
       id="path4134-6"
       inkscape:connector-curvature="0" /><path
       d="m 406.66086,903.0482 -6.10419,27.92385 h -5.51347 l 6.10419,-27.92385 h 5.51347"
       style="font-style:oblique;font-variant:normal;font-weight:bold;font-stretch:normal;font-size:54.6294px;line-height:125%;font-family:FreeSans;-inkscape-font-specification:'FreeSans Bold Oblique';letter-spacing:0px;word-spacing:0px;fill:#016269;fill-opacity:1;stroke:none"
       id="path4136-1"
       inkscape:connector-curvature="0" /><path
       d="m 416.00792,910.28771 -4.52893,20.68434 h -5.51346 l 4.52892,-20.68434 h 5.51347 m 1.57527,-7.23951 -1.06331,4.78804 h -5.51346 l 1.0633,-4.78804 h 5.51347"
       style="font-style:oblique;font-variant:normal;font-weight:bold;font-stretch:normal;font-size:54.6294px;line-height:125%;font-family:FreeSans;-inkscape-font-specification:'FreeSans Bold Oblique';letter-spacing:0px;word-spacing:0px;fill:#016269;fill-opacity:1;stroke:none"
       id="path4138-0"
       inkscape:connector-curvature="0" /><path
       d="m 421.25925,910.28771 h 5.51347 l -0.70887,3.14096 c 1.05017,-1.22572 2.13974,-2.10672 3.26869,-2.643 1.12894,-0.56177 2.42854,-0.84267 3.89882,-0.84269 1.75903,2e-5 3.16366,0.45967 4.21386,1.37895 1.05016,0.91932 1.57525,2.14506 1.57528,3.67722 -3e-5,0.68949 -0.0788,1.39174 -0.2363,2.10674 l -3.0324,13.86616 h -5.51347 l 2.63858,-11.98925 c 0.15752,-0.84268 0.23628,-1.46832 0.2363,-1.87691 -2e-5,-1.91521 -0.97144,-2.87281 -2.91426,-2.87283 -1.31275,2e-5 -2.45482,0.45967 -3.42623,1.37896 -0.94518,0.89378 -1.60154,2.13228 -1.9691,3.71552 l -2.55981,11.64451 h -5.51347 l 4.52891,-20.68434"
       style="font-style:oblique;font-variant:normal;font-weight:bold;font-stretch:normal;font-size:54.6294px;line-height:125%;font-family:FreeSans;-inkscape-font-specification:'FreeSans Bold Oblique';letter-spacing:0px;word-spacing:0px;fill:#016269;fill-opacity:1;stroke:none"
       id="path4140-6"
       inkscape:connector-curvature="0" /><path
       d="m 458.86097,930.97205 h -5.51346 l 0.59073,-2.60468 c -1.0502,1.22574 -2.13977,2.10673 -3.2687,2.64299 -1.12896,0.56179 -2.42856,0.8427 -3.89881,0.8427 -1.73281,0 -3.1243,-0.45965 -4.17448,-1.37896 -1.05019,-0.9193 -1.57528,-2.14504 -1.57528,-3.67722 0,-0.68947 0.0788,-1.39172 0.23629,-2.10673 l 3.15056,-14.40244 h 5.51346 l -2.75674,12.52552 c -0.15753,0.89377 -0.23629,1.51941 -0.23628,1.87692 -1e-5,1.91522 0.99767,2.87282 2.99302,2.87282 1.28647,0 2.40229,-0.45965 3.34746,-1.37895 0.94516,-0.9193 1.58839,-2.15781 1.92972,-3.71553 l 2.67797,-12.18078 h 5.51347 l -4.52893,20.68434"
       style="font-style:oblique;font-variant:normal;font-weight:bold;font-stretch:normal;font-size:54.6294px;line-height:125%;font-family:FreeSans;-inkscape-font-specification:'FreeSans Bold Oblique';letter-spacing:0px;word-spacing:0px;fill:#016269;fill-opacity:1;stroke:none"
       id="path4142-3"
       inkscape:connector-curvature="0" /><path
       d="m 477.3833,920.47667 4.84397,10.49538 h -6.61616 l -2.32354,-6.43512 -4.84398,6.43512 h -6.61615 l 9.17599,-10.49538 -4.3714,-10.18896 h 6.61616 l 2.00848,6.24361 4.84397,-6.24361 h 6.61617 l -9.33351,10.18896"
       style="font-style:oblique;font-variant:normal;font-weight:bold;font-stretch:normal;font-size:54.6294px;line-height:125%;font-family:FreeSans;-inkscape-font-specification:'FreeSans Bold Oblique';letter-spacing:0px;word-spacing:0px;fill:#016269;fill-opacity:1;stroke:none"
       id="path4144-2"
       inkscape:connector-curvature="0" /></g></g></svg>
