<?xml version="1.0" encoding="UTF-8" standalone="no"?>
<svg
   xmlns:dc="http://purl.org/dc/elements/1.1/"
   xmlns:cc="http://creativecommons.org/ns#"
   xmlns:rdf="http://www.w3.org/1999/02/22-rdf-syntax-ns#"
   xmlns:svg="http://www.w3.org/2000/svg"
   xmlns="http://www.w3.org/2000/svg"
   xmlns:xlink="http://www.w3.org/1999/xlink"
   xmlns:sodipodi="http://sodipodi.sourceforge.net/DTD/sodipodi-0.dtd"
   xmlns:inkscape="http://www.inkscape.org/namespaces/inkscape"
   version="1.1"
   id="Layer_1"
   x="0px"
   y="0px"
   width="3840px"
   height="2160px"
   viewBox="0 0 3840 2160"
   enable-background="new 0 0 3840 2160"
   xml:space="preserve"
   sodipodi:docname="3840x2160.svg"
   inkscape:version="1.0.2 (e86c870879, 2021-01-15)"><metadata
   id="metadata1925"><rdf:RDF><cc:Work
       rdf:about=""><dc:format>image/svg+xml</dc:format><dc:type
         rdf:resource="http://purl.org/dc/dcmitype/StillImage" /></cc:Work></rdf:RDF></metadata><defs
   id="defs1923" /><sodipodi:namedview
   pagecolor="#ffffff"
   bordercolor="#666666"
   borderopacity="1"
   objecttolerance="10"
   gridtolerance="10"
   guidetolerance="10"
   inkscape:pageopacity="0"
   inkscape:pageshadow="2"
   inkscape:window-width="783"
   inkscape:window-height="480"
   id="namedview1921"
   showgrid="false"
   inkscape:zoom="0.29296875"
   inkscape:cx="1920"
   inkscape:cy="1286.0885"
   inkscape:window-x="0"
   inkscape:window-y="27"
   inkscape:window-maximized="0"
   inkscape:current-layer="Layer_1" />
<rect
   y="-8"
   fill="#010027"
   width="3840"
   height="2176"
   id="rect1792" />
<rect
   x="1774"
   y="714"
   fill="#E7E9B9"
   width="19"
   height="20"
   id="rect1794" />
<rect
   x="2018.209"
   y="360.315"
   transform="matrix(0.4557 0.8901 -0.8901 0.4557 2009.3518 -1242.0903)"
   fill="#E7E9B9"
   width="4.261"
   height="1323.396"
   id="rect1796" />
<circle
   fill="#01A495"
   cx="1900.939"
   cy="1064.656"
   r="313.696"
   id="circle1798" />
<radialGradient
   id="SVGID_1_"
   cx="1969.2295"
   cy="1058.1006"
   r="418.3852"
   gradientTransform="matrix(0.7846 0 0 1.0808 323.4425 -198.5948)"
   gradientUnits="userSpaceOnUse">
	<stop
   offset="0"
   style="stop-color:#010027;stop-opacity:0"
   id="stop1800" />
	<stop
   offset="0.8533"
   style="stop-color:#010027;stop-opacity:0.8533"
   id="stop1802" />
	<stop
   offset="1"
   style="stop-color:#010027"
   id="stop1804" />
</radialGradient>
<rect
   x="1533"
   y="503"
   fill="url(#SVGID_1_)"
   width="671"
   height="884"
   id="rect1807" />
<g
   display="none"
   id="g1811">
	

</g>
<rect
   x="1770.424"
   y="739.126"
   transform="matrix(-0.9546 0.2979 -0.2979 -0.9546 3820.1699 1638.1494)"
   fill="#010027"
   width="29.682"
   height="742.058"
   id="rect1813" />
<rect
   x="1806.781"
   y="755.784"
   transform="matrix(-0.9546 0.2978 -0.2978 -0.9546 3975.1304 1644.677)"
   opacity="0.6"
   fill="#010027"
   width="110.986"
   height="738.759"
   id="rect1815" />
<rect
   x="1775.518"
   y="770.773"
   transform="matrix(-0.9546 0.2978 -0.2978 -0.9546 3875.6316 1655.9119)"
   opacity="0.6"
   fill="#010027"
   width="72.27"
   height="704.928"
   id="rect1817" />
<rect
   x="1565.093"
   y="838.271"
   transform="matrix(-0.9932 0.1166 -0.1166 -0.9932 3377.2791 1992.585)"
   fill="#010027"
   width="130.487"
   height="513.684"
   id="rect1819" />
<polygon
   opacity="0.6"
   fill="#010027"
   points="1648.627,620.619 1964.64,534.771 2220.036,1012.809 1812.219,1141.013 "
   id="polygon1821" />
<path
   fill="#010027"
   d="M2124.679,1101.927l41.854,22.575l-94.048,175.652c-23.566-3.752-44.792-18.418-44.792-18.418  L2124.679,1101.927z"
   id="path1823" />
<path
   opacity="0.6"
   fill="#010027"
   d="M1949.041,1155.93c-1.767-82.182,144.351-210.238,144.351-210.238  s134.06,134.054,153.263,203.831c21.812,79.255-63.42,150.238-145.603,152.008  C2018.869,1303.301,1950.813,1238.113,1949.041,1155.93z"
   id="path1825" />
<g
   opacity="0.4"
   id="g1829">
	

</g>
<rect
   x="1825"
   y="878"
   opacity="0.6"
   fill="#010027"
   width="39"
   height="39"
   id="rect1831" />
<rect
   x="1871"
   y="803"
   opacity="0.6"
   fill="#010027"
   width="39"
   height="39"
   id="rect1833" />
<circle
   opacity="0.4"
   fill="#010027"
   cx="1705.774"
   cy="872.151"
   r="249.703"
   id="circle1835" />
<radialGradient
   id="SVGID_2_"
   cx="2100.2695"
   cy="938.168"
   r="418.4527"
   gradientTransform="matrix(0.865 0 0 0.9231 209.2667 152.4767)"
   gradientUnits="userSpaceOnUse">
	<stop
   offset="0"
   style="stop-color:#FFFFFF"
   id="stop1837" />
	<stop
   offset="0.6613"
   style="stop-color:#010027"
   id="stop1839" />
</radialGradient>
<rect
   x="1656"
   y="641"
   opacity="0.2"
   fill="url(#SVGID_2_)"
   width="740"
   height="755"
   id="rect1842" />
<path
   fill="none"
   stroke="#01A495"
   stroke-width="16"
   stroke-miterlimit="10"
   d="M2245.448,984.447  c1.975,91.741-117.394,185.077-117.394,185.077s-165.146-43.727-199.621-147.511c-35.011-105.395,55.585-198.125,147.326-200.1  C2167.5,819.938,2243.472,892.708,2245.448,984.447z"
   id="path1844" />
<circle
   opacity="0.6"
   fill="#010027"
   cx="2138.979"
   cy="776.004"
   r="111.754"
   id="circle1846" />
<polygon
   fill="#010027"
   points="2029.191,958.943 2178.658,889.701 2219.813,978.57 2070.35,1047.811 "
   id="polygon1848" />
<polygon
   fill="#010027"
   points="1804.913,471.972 1938.806,409.94 2466.952,1550.034 2333.06,1612.06 "
   id="polygon1850" />

<g
   id="g1892">
	<path
   fill="#FFFFFF"
   d="M2107.859,996.71c-3.024,0.04,0.57,1.553,4.52,2.163c1.094-0.855,2.077-1.714,2.961-2.551   C2112.886,996.922,2110.383,996.937,2107.859,996.71"
   id="path1868" />
	<path
   fill="#FFFFFF"
   d="M2124.091,992.662c1.807-2.488,3.118-5.208,3.582-8.022c-0.409,2.003-1.491,3.734-2.519,5.565   c-5.656,3.561-0.535-2.113-0.005-4.274C2119.072,993.59,2124.311,990.522,2124.091,992.662"
   id="path1870" />
	<path
   fill="#FFFFFF"
   d="M2130.09,977.066c0.366-5.447-1.073-3.722-1.557-1.647C2129.097,975.715,2129.543,979.26,2130.09,977.066"
   id="path1872" />
	<path
   fill="#FFFFFF"
   d="M2096.387,902.613c1.613,0.288,3.49,0.511,3.22,0.897C2101.38,903.119,2101.778,902.767,2096.387,902.613"
   id="path1874" />
	<path
   fill="#FFFFFF"
   d="M2099.608,903.51l-1.135,0.237l1.06-0.098L2099.608,903.51"
   id="path1876" />
	<path
   fill="#FFFFFF"
   d="M2149.952,979.13c0.181,4.892-1.429,7.269-2.882,11.472l-2.618,1.301c-2.139,4.16,0.214,2.641-1.32,5.944   c-3.342,2.97-10.133,9.292-12.308,9.87c-1.588-0.035,1.074-1.873,1.423-2.594c-4.471,3.069-3.587,4.608-10.428,6.476l-0.2-0.446   c-16.864,7.936-40.288-7.788-39.979-29.238c-0.18,1.36-0.513,1.02-0.884,1.566c-0.873-11.035,5.097-22.118,15.16-26.649   c9.844-4.873,21.386-2.875,28.434,3.702c-3.872-5.073-11.583-10.452-20.713-9.954c-8.951,0.146-17.325,5.832-20.121,12.008   c-4.581,2.885-5.115,11.126-7.112,12.636c-2.689,19.759,5.056,28.289,18.16,38.332c2.055,1.39,0.577,1.602,0.853,2.66   c-4.352-2.037-8.335-5.116-11.615-8.882c1.74,2.544,3.618,5.018,6.047,6.962c-4.109-1.387-9.592-9.947-11.189-10.295   c7.074,12.668,28.699,22.217,40.03,17.479c-5.244,0.195-11.899,0.107-17.787-2.07c-2.48-1.271-5.84-3.904-5.238-4.396   c15.459,5.771,31.423,4.367,44.795-6.352c3.405-2.651,7.121-7.16,8.196-7.221c-1.617,2.434,0.277,1.169-0.965,3.318   c3.387-5.467-1.476-2.227,3.503-9.441l1.839,2.528c-0.689-4.542,5.637-10.051,4.993-17.23c1.45-2.195,1.616,2.365,0.079,7.414   c2.133-5.603,0.564-6.502,1.109-11.127c0.59,1.555,1.373,3.205,1.772,4.847c-1.392-5.415,1.424-9.116,2.124-12.264   c-0.693-0.303-2.147,2.393-2.483-4c0.05-2.777,0.775-1.456,1.052-2.14c-0.541-0.315-1.973-2.444-2.842-6.527   c0.626-0.961,1.687,2.489,2.543,2.629c-0.554-3.248-1.502-5.724-1.543-8.213c-2.51-5.244-0.89,0.699-2.921-2.251   c-2.674-8.327,2.214-1.932,2.547-5.714c4.043,5.859,6.349,14.949,7.413,18.712c-0.811-4.589-2.116-9.038-3.713-13.338   c1.232,0.521-1.983-9.44,1.6-2.844c-3.822-14.06-16.353-27.197-27.88-33.359c1.406,1.29,3.186,2.908,2.552,3.164   c-5.737-3.412-4.731-3.679-5.551-5.122c-4.668-1.903-4.978,0.155-8.067,0.005c-8.805-4.674-10.501-4.177-18.604-7.101l0.367,1.725   c-5.831-1.943-6.794,0.731-13.098,0.003c-0.383-0.296,2.022-1.084,4.001-1.369c-5.64,0.745-5.378-1.114-10.894,0.204   c1.356-0.953,2.798-1.587,4.247-2.397c-4.595,0.28-10.979,2.677-9.01,0.495c-7.501,3.348-20.821,8.046-28.298,15.058l-0.235-1.572   c-3.427,4.113-14.939,12.279-15.856,17.61l-0.915,0.212c-1.78,3.018-2.938,6.437-4.35,9.54c-2.329,3.974-3.416,1.532-3.085,2.153   c-4.582,9.296-6.866,17.108-8.83,23.517c1.398,2.094,0.033,12.615,0.561,21.034c-2.299,41.591,29.187,81.964,63.606,91.283   c5.044,1.81,12.544,1.743,18.926,1.923c-7.527-2.152-8.498-1.139-15.834-3.697c-5.291-2.495-6.449-5.339-10.197-8.59l1.481,2.622   c-7.346-2.603-4.271-3.222-10.25-5.114l1.585-2.066c-2.386-0.183-6.312-4.012-7.382-6.14l-2.61,0.104   c-3.126-3.859-4.799-6.646-4.675-8.807l-0.843,1.502c-0.956-1.639-11.519-14.492-6.04-11.499c-1.017-0.926-2.371-1.512-3.838-4.182   l1.115-1.271c-2.634-3.396-4.856-7.747-4.687-9.194c1.407,1.898,2.384,2.254,3.352,2.58c-6.659-16.527-7.037-0.91-12.078-16.822   l1.064-0.086c-0.817-1.236-1.317-2.571-1.974-3.884l0.467-4.626c-4.793-5.539-1.341-23.574-0.646-33.462   c0.476-4.021,4.003-8.302,6.679-15.017l-1.63-0.28c3.121-5.442,17.817-21.861,24.629-21.018c3.298-4.144-0.656-0.018-1.303-1.058   c7.246-7.496,9.524-5.295,14.409-6.646c5.272-3.128-4.522,1.223-2.021-1.192c9.113-2.327,6.454-5.293,18.345-6.473   c1.255,0.712-2.911,1.101-3.954,2.026c7.591-3.716,24.027-2.869,34.709,2.061c12.381,5.793,26.301,22.904,26.854,39.003   l0.625,0.168c-0.316,6.401,0.98,13.805-1.269,20.601L2149.952,979.13"
   id="path1878" />
	<path
   fill="#FFFFFF"
   d="M2074.842,1000.859l-0.428,2.121c1.989,2.702,3.568,5.627,6.105,7.733   C2078.692,1007.153,2077.338,1005.681,2074.842,1000.859"
   id="path1880" />
	<path
   fill="#FFFFFF"
   d="M2079.538,1000.675c-1.052-1.166-1.672-2.567-2.371-3.96c0.666,2.453,2.035,4.56,3.306,6.707   L2079.538,1000.675"
   id="path1882" />
	<path
   fill="#FFFFFF"
   d="M2162.707,982.598l-0.443,1.119c-0.812,5.785-2.576,11.511-5.271,16.82   C2159.97,994.936,2161.892,988.81,2162.707,982.598"
   id="path1884" />
	<path
   fill="#FFFFFF"
   d="M2096.987,901.161c2.044-0.745,5.026-0.411,7.199-0.903c-2.831,0.238-5.645,0.379-8.426,0.731   L2096.987,901.161"
   id="path1886" />
	<path
   fill="#FFFFFF"
   d="M2025.184,939.345c0.468,4.36-3.282,6.055,0.828,3.176C2028.219,937.553,2025.153,941.151,2025.184,939.345   "
   id="path1888" />
	<path
   fill="#FFFFFF"
   d="M2020.348,959.537c0.95-2.91,1.119-4.656,1.481-6.342C2019.211,956.544,2020.622,957.258,2020.348,959.537"
   id="path1890" />
</g>
<rect
   x="1865"
   y="732"
   opacity="0.7"
   fill="#01A495"
   width="25"
   height="25"
   id="rect1894" />
<rect
   x="1799"
   y="817"
   opacity="0.4"
   fill="#01A495"
   width="38"
   height="39"
   id="rect1896" />
<polygon
   opacity="0.7"
   fill="#01A495"
   points="1860.348,679.548 1826.587,675.483 1829.267,643.106 1863.028,647.171 "
   id="polygon1898" />
<rect
   x="2459"
   y="739"
   fill="#010027"
   width="34"
   height="83"
   id="rect1900" />
<rect
   x="2515"
   y="714"
   fill="#010027"
   width="34"
   height="106"
   id="rect1902" />
<rect
   x="2593"
   y="613"
   fill="#010027"
   width="34"
   height="252"
   id="rect1904" />
<rect
   x="2387"
   y="769"
   fill="#010027"
   width="34"
   height="83"
   id="rect1906" />
<g
   opacity="0.5"
   id="g1910">
	

</g>
<g
   opacity="0.6"
   id="g1914">
	

</g>
<g
   opacity="0.4"
   id="g1918">
	

</g>
<g
   id="g2983-9"
   transform="matrix(0.92586561,0,0,0.92586561,1622.1852,613.77271)"
   style="fill:#008080"><path
     inkscape:connector-curvature="0"
     id="path4118-7"
     style="fill:#01a495;fill-opacity:1;fill-rule:nonzero;stroke:none"
     d="m 286.18119,834.61078 -7.42894,7.42701 -7.42706,-7.42701 7.42706,-7.42707 7.42894,7.42707" /><g
     transform="translate(0,356)"
     style="fill:#01a495;fill-opacity:1"
     id="g4318-3"><path
       id="path4120-6"
       style="fill:#01a495;fill-opacity:1;fill-rule:nonzero;stroke:none"
       d="m 380.71893,511.6723 c 0.091,-7.44638 1.61669,-14.08736 7.98465,-14.08736 6.99913,0 7.53352,7.71553 7.3554,14.08736 z m 24.22114,0.90031 c 0,-10.49774 -2.06199,-20.8174 -15.34007,-20.8174 -18.30039,0 -18.30039,20.27721 -18.30039,24.58318 0,18.21138 8.16278,25.38862 21.89003,25.38862 6.0969,0 9.06111,-0.8945 10.67584,-1.34559 -0.0891,-3.22952 0.3582,-5.29343 0.90031,-8.07372 -1.88771,1.16945 -4.30986,2.69316 -9.69228,2.69316 -13.99639,0 -14.17647,-12.74369 -14.17647,-17.13872 h 23.86875 l 0.17428,-5.28953"
       inkscape:connector-curvature="0" /><path
       id="path4122-1"
       style="fill:#01a495;fill-opacity:1;fill-rule:nonzero;stroke:none"
       d="m 435.39508,505.66254 c -0.0871,0.091 -0.0871,14.53265 -0.26722,18.30231 -0.17811,3.04943 -0.44917,9.59747 -6.90815,9.59747 -6.63902,0 -8.25375,-7.62646 -8.79198,-10.94307 -0.62733,-3.67868 -0.62733,-6.73003 -0.62733,-8.07371 0,-4.30597 0.26913,-16.33134 10.40676,-16.33134 3.05135,0 4.75514,0.9003 6.10078,1.61473 l 0.0871,5.83361 z m -26.01596,10.58876 c 0,25.29759 13.45815,25.29759 15.43104,25.29759 5.56256,0 9.15214,-3.05134 10.67589,-8.34089 l 0.18008,7.9827 c 1.70571,-0.091 3.40955,-0.26914 6.18985,-0.26914 0.9874,0 1.79284,0 2.51308,0.091 0.7183,0 1.4347,0.0871 2.24206,0.17811 -1.43465,-2.86935 -2.51115,-9.32833 -2.51115,-23.32856 0,-13.63622 0,-36.6918 1.16555,-43.69092 -3.22754,1.52759 -6.01173,2.51503 -12.11251,3.05135 2.4221,2.60217 2.4221,3.94777 2.4221,15.78726 -1.70187,-0.53631 -3.8568,-1.16359 -7.53544,-1.16359 -16.05837,0 -18.66055,13.99441 -18.66055,24.40506"
       inkscape:connector-curvature="0" /><path
       id="path4124-2"
       style="fill:#01a495;fill-opacity:1;fill-rule:nonzero;stroke:none"
       d="m 451.41513,500.53249 c -0.091,-3.05135 -0.091,-6.28083 -1.3456,-8.883 1.97485,0.17811 3.14233,0.44917 6.81713,0.44917 2.1569,0 3.32049,-0.18004 5.02625,-0.44917 -0.35628,1.16556 -0.54019,1.61473 -0.71831,3.14237 -0.26913,2.06003 -0.44917,8.97014 -0.44917,11.39416 v 9.68844 c 0,4.21692 0,10.31966 0.27105,12.47071 0.17812,1.52376 0.62341,5.64966 5.83165,5.64966 5.11334,0 6.81521,-3.76578 7.44638,-6.81714 0.71443,-3.14045 0.71443,-6.55 0.71443,-19.82803 -0.0871,-11.48326 -0.0871,-12.5578 -0.98356,-15.70017 1.52375,0.17811 3.40762,0.35819 6.09886,0.35819 2.15685,0 3.58958,-0.0891 5.38248,-0.35819 -0.62925,1.43662 -0.98745,2.15492 -1.16556,7.17728 -0.182,4.93523 -0.54019,29.16021 0.27297,34.89891 0.44534,3.50249 1.14428,6.097 1.87396,7.56472 -4.91878,-0.31189 -6.60307,-0.45182 -11.38813,0.33088 -0.0635,-1.82628 -0.11459,-5.90714 -0.0604,-7.76347 -1.39876,3.81524 -6.93702,7.40669 -12.23035,7.22716 -11.2096,-0.38021 -11.30318,-8.16469 -11.3942,-13.54524 v -27.00724"
       inkscape:connector-curvature="0"
       sodipodi:nodetypes="ccsccsscscccsccccccscc" /></g><g
     style="fill:#008080;fill-opacity:1;stroke:none"
     id="g4448-9"><path
       d="m 182.62093,861.66254 c -0.0871,0.091 -0.0871,14.53265 -0.26721,18.30231 -0.17812,3.04943 -0.44918,9.59747 -6.90816,9.59747 -6.63901,0 -8.25374,-7.62646 -8.79198,-10.94307 -0.62733,-3.67868 -0.62733,-6.73003 -0.62733,-8.07371 0,-4.30597 0.26914,-16.33134 10.40676,-16.33134 3.05135,0 4.75514,0.9003 6.10079,1.61473 l 0.0871,5.83361 z m -26.01595,10.58876 c 0,25.29759 13.45811,25.29759 15.43104,25.29759 5.56255,0 9.15213,-3.05134 10.67589,-8.34089 l 0.18008,7.9827 c 1.70571,-0.091 3.40955,-0.26914 6.18984,-0.26914 0.98741,0 1.79286,0 2.51308,0.091 0.71831,0 1.4347,0.0871 2.24207,0.17811 -1.43466,-2.86935 -2.51116,-9.32833 -2.51116,-23.32856 0,-13.63622 0,-36.6918 1.16556,-43.69092 -3.22755,1.52759 -6.01173,2.51503 -12.11251,3.05135 2.4221,2.60217 2.4221,3.94777 2.4221,15.78726 -1.70187,-0.53631 -3.8568,-1.16359 -7.53544,-1.16359 -16.05837,0 -18.66055,13.99441 -18.66055,24.40506"
       style="fill:#ffffff;fill-opacity:1;fill-rule:nonzero;stroke:none"
       id="path4106-3"
       inkscape:connector-curvature="0" /><path
       d="m 205.26023,867.6723 c 0.091,-7.44638 1.61665,-14.08736 7.9846,-14.08736 6.99918,0 7.53353,7.71553 7.35541,14.08736 z m 24.22109,0.90031 c 0,-10.49774 -2.06198,-20.8174 -15.34001,-20.8174 -18.30044,0 -18.30044,20.27721 -18.30044,24.58318 0,18.21138 8.16277,25.38862 21.89002,25.38862 6.0969,0 9.06116,-0.8945 10.67589,-1.34559 -0.0891,-3.22952 0.35819,-5.29343 0.90031,-8.07372 -1.88775,1.16945 -4.30986,2.69316 -9.69233,2.69316 -13.99638,0 -14.17642,-12.74369 -14.17642,-17.13872 h 23.86875 l 0.17423,-5.28953"
       style="fill:#ffffff;fill-opacity:1;fill-rule:nonzero;stroke:none"
       id="path4108-1"
       inkscape:connector-curvature="0" /><path
       d="m 258.66865,872.42941 c 0,8.3428 -1.52375,19.5589 -11.93051,19.5589 -1.43662,0 -3.22947,-0.27303 -4.39503,-0.54212 -0.18003,-3.22951 -0.18003,-8.79202 -0.18003,-15.251 0,-7.71744 0.8054,-11.74847 1.43657,-13.72725 1.88195,-6.36795 6.09886,-6.45702 6.90431,-6.45702 6.8191,0 8.16469,9.4232 8.16469,16.41849 z m -25.74682,9.77942 c 0,6.63906 0,10.40676 -1.07646,13.27616 3.67865,1.43657 8.25184,2.24202 13.7272,2.24202 3.49861,0 13.63628,0 19.10781,-11.21221 2.60218,-5.20239 3.4986,-12.20152 3.4986,-17.49685 0,-3.22952 -0.35819,-10.31579 -2.96037,-14.80375 -2.51116,-4.21304 -6.54996,-6.36796 -10.85401,-6.36796 -8.61386,0 -11.12507,7.17724 -12.46875,10.85592 0,-4.57511 0.0872,-20.54438 0.80353,-28.70911 -5.82973,2.6932 -9.42127,3.13849 -13.27615,3.49861 3.4986,1.43278 3.4986,7.35736 3.4986,26.64712 v 22.07005"
       style="fill:#ffffff;fill-opacity:1;fill-rule:nonzero;stroke:none"
       id="path4110-9"
       inkscape:connector-curvature="0" /><path
       d="m 285.4242,897.1907 c -1.7929,-0.26914 -3.05331,-0.44917 -5.6555,-0.44917 -2.86547,0 -4.84228,0.18003 -6.90427,0.44917 0.89643,-1.70571 1.25462,-2.51504 1.52376,-8.34281 0.36011,-7.98657 0.45109,-29.34028 -0.17811,-33.82441 -0.44922,-3.41147 -1.25462,-3.94778 -2.51121,-4.8442 7.35541,-0.71831 9.42128,-1.25654 12.82694,-2.87132 -0.71639,3.94394 -0.80737,5.92267 -0.80737,11.93052 -0.17811,30.95697 -0.26913,34.27358 1.70576,37.95222"
       style="fill:#ffffff;fill-opacity:1;fill-rule:nonzero;stroke:none"
       id="path4112-4"
       inkscape:connector-curvature="0" /><path
       d="m 314.15263,871.79824 c -0.1762,5.65353 -0.26718,9.60131 -1.79481,12.7398 -1.88383,4.0388 -5.02232,5.2024 -7.35536,5.2024 -5.38636,0 -6.55,-4.48409 -6.55,-8.87912 0,-8.43191 7.53739,-9.06308 10.94306,-9.06308 z m -24.67415,11.03793 c 0,5.65353 1.70571,11.30318 6.73195,13.72725 2.24203,0.98547 4.48409,0.98547 5.2024,0.98547 8.25571,0 11.03404,-6.1027 12.7398,-9.86852 -0.091,3.94782 0,6.368 0.26914,9.51033 1.61473,-0.091 3.22946,-0.26914 5.92267,-0.26914 1.52371,0 2.96033,0.17816 4.48408,0.26914 -0.98744,-1.52372 -1.52375,-2.42402 -1.79673,-5.92267 -0.17816,-3.40566 -0.17816,-6.81713 -0.17816,-11.57036 l 0.091,-18.30235 c 0,-6.82293 -1.79481,-13.54908 -15.25484,-13.54908 -8.87719,0 -14.08155,2.69123 -16.68374,4.03879 1.07842,1.97293 1.97485,3.67476 2.7803,7.53545 3.50052,-3.05136 8.0776,-4.66609 12.7398,-4.66609 7.45026,0 7.45026,4.93522 7.45026,11.93047 -1.7057,-0.0871 -3.14429,-0.26526 -5.56639,-0.26526 -11.3942,0 -18.93156,4.39119 -18.93156,16.41657"
       style="fill:#ffffff;fill-opacity:1;fill-rule:nonzero;stroke:none"
       id="path4114-7"
       inkscape:connector-curvature="0" /><path
       d="m 365.82821,888.3077 c 0.091,3.05135 0.091,6.28082 1.34565,8.883 -1.9749,-0.17811 -3.14237,-0.44917 -6.81718,-0.44917 -2.15684,0 -3.32044,0.18003 -5.02619,0.44917 0.35622,-1.16556 0.54019,-1.61473 0.7183,-3.14233 0.26914,-2.06006 0.44917,-8.97014 0.44917,-11.3942 v -9.68845 c 0,-4.21691 0,-10.31962 -0.27105,-12.4707 -0.17812,-1.52372 -0.62345,-5.64965 -5.83165,-5.64965 -5.11334,0 -6.81521,3.76582 -7.44643,6.81717 -0.71442,3.14041 -0.71442,6.54996 -0.71442,19.82799 0.0871,11.48325 0.0871,12.55784 0.98356,15.70017 -1.52371,-0.17811 -3.40758,-0.35819 -6.09882,-0.35819 -2.15689,0 -3.58962,0.0891 -5.38248,0.35819 0.62925,-1.43662 0.98741,-2.15493 1.16557,-7.17725 0.182,-4.93522 0.54014,-29.16024 -0.27303,-34.89895 -0.44528,-3.50249 -1.34559,-4.30794 -2.32916,-5.20436 7.26827,-0.3582 9.59743,-1.52759 11.84338,-2.69124 v 9.51034 c 1.07454,-2.78419 3.31661,-8.97403 12.29063,-8.97403 11.21604,0 11.30318,8.16474 11.39415,13.54526 v 27.00723"
       style="fill:#ffffff;fill-opacity:1;fill-rule:nonzero;stroke:none"
       id="path4116-8"
       inkscape:connector-curvature="0" /><path
       d="m 296.81767,912.89241 c 0,-2.93664 1.1552,-5.38812 3.46561,-7.35443 2.3104,-1.96627 5.38218,-2.94941 9.21537,-2.94944 3.12428,3e-5 5.55283,0.58736 7.28565,1.762 1.75904,1.14916 2.63857,2.75794 2.63859,4.82635 -2e-5,0.63843 -0.10504,1.43005 -0.31505,2.37487 h -5.51347 c 0.0525,-0.45963 0.0787,-0.7533 0.0788,-0.881 -2e-5,-2.11948 -1.73282,-3.17924 -5.19841,-3.17927 -1.78533,3e-5 -3.20307,0.35754 -4.25325,1.07253 -1.02394,0.71503 -1.5359,1.68542 -1.53589,2.91113 -10e-6,0.71503 0.32817,1.27683 0.98455,1.68539 0.65634,0.38306 1.91657,0.75334 3.78066,1.11083 l 4.29263,0.84269 c 2.02158,0.38306 3.55747,1.05977 4.60769,2.03013 1.05016,0.97039 1.57524,2.19613 1.57527,3.67722 -3e-5,0.91931 -0.11817,1.83861 -0.35443,2.75791 -0.23632,0.91931 -0.66953,1.88968 -1.29961,2.91114 -0.63013,1.02145 -1.4309,1.91521 -2.40229,2.6813 -0.97145,0.76608 -2.27105,1.40449 -3.89882,1.91521 -1.6278,0.51072 -3.46562,0.76609 -5.51346,0.76609 -2.02162,0 -3.76755,-0.2426 -5.23779,-0.72779 -1.44402,-0.45965 -2.53358,-1.07251 -3.26871,-1.8386 -0.73513,-0.79162 -1.27335,-1.59602 -1.61466,-2.41318 -0.31505,-0.81716 -0.47258,-1.67261 -0.47258,-2.56639 0,-0.43411 0.0525,-0.9959 0.15753,-1.68539 h 5.74976 c -0.0525,0.45966 -0.0788,0.75332 -0.0788,0.88101 -1e-5,1.09806 0.4857,1.95351 1.45712,2.56638 0.99767,0.58734 2.38916,0.88101 4.17449,0.881 2.04784,10e-6 3.67563,-0.38304 4.88336,-1.14913 1.23394,-0.79162 1.85092,-1.82583 1.85094,-3.10265 -2e-5,-0.89376 -0.34133,-1.57046 -1.02393,-2.03013 -0.68263,-0.45964 -1.9166,-0.86823 -3.7019,-1.22574 l -3.85942,-0.76608 c -2.33668,-0.45965 -4.03009,-1.13635 -5.08027,-2.03013 -1.05019,-0.91929 -1.57528,-2.17057 -1.57528,-3.75383"
       style="font-style:oblique;font-variant:normal;font-weight:bold;font-stretch:normal;font-size:54.6294px;line-height:125%;font-family:FreeSans;-inkscape-font-specification:'FreeSans Bold Oblique';letter-spacing:0px;word-spacing:0px;fill:#016269;fill-opacity:1;stroke:none"
       id="path4126-4"
       inkscape:connector-curvature="0" /><path
       d="m 331.11809,903.0482 -3.34746,15.28342 8.78216,-8.04391 h 6.26173 l -9.13661,7.8907 5.08027,12.79364 h -6.45863 l -3.11118,-9.15473 -2.67796,2.37487 -1.49651,6.77986 h -5.51348 l 6.1042,-27.92385 h 5.51347"
       style="font-style:oblique;font-variant:normal;font-weight:bold;font-stretch:normal;font-size:54.6294px;line-height:125%;font-family:FreeSans;-inkscape-font-specification:'FreeSans Bold Oblique';letter-spacing:0px;word-spacing:0px;fill:#016269;fill-opacity:1;stroke:none"
       id="path4128-5"
       inkscape:connector-curvature="0" /><path
       d="m 340.13668,924.19219 c -1e-5,-3.9581 1.19458,-7.31611 3.58375,-10.07404 2.41542,-2.78343 5.56597,-4.17515 9.45167,-4.17517 2.7042,2e-5 4.83082,0.68949 6.37986,2.06843 1.54901,1.35344 2.32351,3.21758 2.32354,5.59243 -3e-5,4.03473 -1.22087,7.41828 -3.66252,10.15066 -2.4417,2.73237 -5.61851,4.09856 -9.53043,4.09856 -2.59921,0 -4.67332,-0.68948 -6.22233,-2.06844 -1.54903,-1.40449 -2.32355,-3.26863 -2.32354,-5.59243 m 9.53042,3.37078 c 1.23395,0 2.3104,-0.34473 3.22932,-1.03422 0.91889,-0.715 1.60152,-1.58324 2.04786,-2.60469 0.44631,-1.04698 0.77449,-2.01735 0.98455,-2.91113 0.21001,-0.89376 0.31504,-1.65985 0.31506,-2.29826 -2e-5,-1.3534 -0.35446,-2.4387 -1.06332,-3.25587 -0.70889,-0.81714 -1.66718,-1.22572 -2.87488,-1.22574 -1.78533,2e-5 -3.32122,0.88102 -4.60768,2.643 -1.28649,1.73648 -1.92972,3.81767 -1.92971,6.2436 -1e-5,1.35343 0.35442,2.43872 1.06331,3.25588 0.70886,0.79162 1.65403,1.18743 2.83549,1.18743"
       style="font-style:oblique;font-variant:normal;font-weight:bold;font-stretch:normal;font-size:54.6294px;line-height:125%;font-family:FreeSans;-inkscape-font-specification:'FreeSans Bold Oblique';letter-spacing:0px;word-spacing:0px;fill:#016269;fill-opacity:1;stroke:none"
       id="path4130-0"
       inkscape:connector-curvature="0" /><path
       d="m 373.81697,903.0482 -6.10419,27.92385 h -5.51348 l 6.1042,-27.92385 h 5.51347"
       style="font-style:oblique;font-variant:normal;font-weight:bold;font-stretch:normal;font-size:54.6294px;line-height:125%;font-family:FreeSans;-inkscape-font-specification:'FreeSans Bold Oblique';letter-spacing:0px;word-spacing:0px;fill:#016269;fill-opacity:1;stroke:none"
       id="path4132-3"
       inkscape:connector-curvature="0" /><path
       d="m 385.40878,909.94298 c 2.49417,2e-5 4.50265,0.70226 6.02543,2.10674 1.549,1.4045 2.32352,3.23035 2.32354,5.47752 -2e-5,1.45557 -0.23632,3.05158 -0.70888,4.78804 h -14.29563 c -0.0788,0.71502 -0.11816,1.28959 -0.11815,1.72369 -10e-6,1.04699 0.3413,1.90245 1.02393,2.5664 0.68261,0.6384 1.5884,0.9576 2.71735,0.9576 0.94516,0 1.81157,-0.21705 2.59921,-0.65117 0.81388,-0.43411 1.41774,-1.02145 1.81157,-1.762 h 5.43471 c -1.07647,2.11951 -2.57298,3.76659 -4.48955,4.94126 -1.89034,1.17466 -4.0301,1.762 -6.41925,1.762 -2.46794,0 -4.47641,-0.72779 -6.02543,-2.18335 -1.52277,-1.4811 -2.28415,-3.40908 -2.28415,-5.78396 0,-0.61286 0.0656,-1.3151 0.19691,-2.10673 0.13127,-0.79162 0.35443,-1.73645 0.66949,-2.83453 0.31505,-1.12357 0.77451,-2.18333 1.37837,-3.17925 0.63011,-1.02144 1.37836,-1.97905 2.24476,-2.87283 0.8664,-0.89375 1.98222,-1.60876 3.34747,-2.14504 1.36523,-0.53624 2.88799,-0.80437 4.5683,-0.80439 m 2.71736,8.23543 c -2e-5,-2.63022 -1.12897,-3.94533 -3.38685,-3.94535 -2.65173,2e-5 -4.41079,1.50666 -5.27717,4.51992 h 8.66402 v -0.57457"
       style="font-style:oblique;font-variant:normal;font-weight:bold;font-stretch:normal;font-size:54.6294px;line-height:125%;font-family:FreeSans;-inkscape-font-specification:'FreeSans Bold Oblique';letter-spacing:0px;word-spacing:0px;fill:#016269;fill-opacity:1;stroke:none"
       id="path4134-6"
       inkscape:connector-curvature="0" /><path
       d="m 406.66086,903.0482 -6.10419,27.92385 h -5.51347 l 6.10419,-27.92385 h 5.51347"
       style="font-style:oblique;font-variant:normal;font-weight:bold;font-stretch:normal;font-size:54.6294px;line-height:125%;font-family:FreeSans;-inkscape-font-specification:'FreeSans Bold Oblique';letter-spacing:0px;word-spacing:0px;fill:#016269;fill-opacity:1;stroke:none"
       id="path4136-1"
       inkscape:connector-curvature="0" /><path
       d="m 416.00792,910.28771 -4.52893,20.68434 h -5.51346 l 4.52892,-20.68434 h 5.51347 m 1.57527,-7.23951 -1.06331,4.78804 h -5.51346 l 1.0633,-4.78804 h 5.51347"
       style="font-style:oblique;font-variant:normal;font-weight:bold;font-stretch:normal;font-size:54.6294px;line-height:125%;font-family:FreeSans;-inkscape-font-specification:'FreeSans Bold Oblique';letter-spacing:0px;word-spacing:0px;fill:#016269;fill-opacity:1;stroke:none"
       id="path4138-0"
       inkscape:connector-curvature="0" /><path
       d="m 421.25925,910.28771 h 5.51347 l -0.70887,3.14096 c 1.05017,-1.22572 2.13974,-2.10672 3.26869,-2.643 1.12894,-0.56177 2.42854,-0.84267 3.89882,-0.84269 1.75903,2e-5 3.16366,0.45967 4.21386,1.37895 1.05016,0.91932 1.57525,2.14506 1.57528,3.67722 -3e-5,0.68949 -0.0788,1.39174 -0.2363,2.10674 l -3.0324,13.86616 h -5.51347 l 2.63858,-11.98925 c 0.15752,-0.84268 0.23628,-1.46832 0.2363,-1.87691 -2e-5,-1.91521 -0.97144,-2.87281 -2.91426,-2.87283 -1.31275,2e-5 -2.45482,0.45967 -3.42623,1.37896 -0.94518,0.89378 -1.60154,2.13228 -1.9691,3.71552 l -2.55981,11.64451 h -5.51347 l 4.52891,-20.68434"
       style="font-style:oblique;font-variant:normal;font-weight:bold;font-stretch:normal;font-size:54.6294px;line-height:125%;font-family:FreeSans;-inkscape-font-specification:'FreeSans Bold Oblique';letter-spacing:0px;word-spacing:0px;fill:#016269;fill-opacity:1;stroke:none"
       id="path4140-6"
       inkscape:connector-curvature="0" /><path
       d="m 458.86097,930.97205 h -5.51346 l 0.59073,-2.60468 c -1.0502,1.22574 -2.13977,2.10673 -3.2687,2.64299 -1.12896,0.56179 -2.42856,0.8427 -3.89881,0.8427 -1.73281,0 -3.1243,-0.45965 -4.17448,-1.37896 -1.05019,-0.9193 -1.57528,-2.14504 -1.57528,-3.67722 0,-0.68947 0.0788,-1.39172 0.23629,-2.10673 l 3.15056,-14.40244 h 5.51346 l -2.75674,12.52552 c -0.15753,0.89377 -0.23629,1.51941 -0.23628,1.87692 -1e-5,1.91522 0.99767,2.87282 2.99302,2.87282 1.28647,0 2.40229,-0.45965 3.34746,-1.37895 0.94516,-0.9193 1.58839,-2.15781 1.92972,-3.71553 l 2.67797,-12.18078 h 5.51347 l -4.52893,20.68434"
       style="font-style:oblique;font-variant:normal;font-weight:bold;font-stretch:normal;font-size:54.6294px;line-height:125%;font-family:FreeSans;-inkscape-font-specification:'FreeSans Bold Oblique';letter-spacing:0px;word-spacing:0px;fill:#016269;fill-opacity:1;stroke:none"
       id="path4142-3"
       inkscape:connector-curvature="0" /><path
       d="m 477.3833,920.47667 4.84397,10.49538 h -6.61616 l -2.32354,-6.43512 -4.84398,6.43512 h -6.61615 l 9.17599,-10.49538 -4.3714,-10.18896 h 6.61616 l 2.00848,6.24361 4.84397,-6.24361 h 6.61617 l -9.33351,10.18896"
       style="font-style:oblique;font-variant:normal;font-weight:bold;font-stretch:normal;font-size:54.6294px;line-height:125%;font-family:FreeSans;-inkscape-font-specification:'FreeSans Bold Oblique';letter-spacing:0px;word-spacing:0px;fill:#016269;fill-opacity:1;stroke:none"
       id="path4144-2"
       inkscape:connector-curvature="0" /></g></g></svg>
