<?xml version="1.0" encoding="UTF-8" standalone="no"?>
<!-- Generator: Adobe Illustrator 16.0.0, SVG Export Plug-In . SVG Version: 6.00 Build 0)  -->

<svg
   xmlns:dc="http://purl.org/dc/elements/1.1/"
   xmlns:cc="http://creativecommons.org/ns#"
   xmlns:rdf="http://www.w3.org/1999/02/22-rdf-syntax-ns#"
   xmlns:svg="http://www.w3.org/2000/svg"
   xmlns="http://www.w3.org/2000/svg"
   xmlns:sodipodi="http://sodipodi.sourceforge.net/DTD/sodipodi-0.dtd"
   xmlns:inkscape="http://www.inkscape.org/namespaces/inkscape"
   version="1.1"
   id="root"
   x="0px"
   y="0px"
   width="1280"
   height="800"
   viewBox="0 0 1280 800"
   enable-background="new 0 0 1920 1200"
   xml:space="preserve"
   inkscape:version="0.91 r13725"
   sodipodi:docname="1280x800.svg"><metadata
     id="metadata4837"><rdf:RDF><cc:Work
         rdf:about=""><dc:format>image/svg+xml</dc:format><dc:type
           rdf:resource="http://purl.org/dc/dcmitype/StillImage" /><dc:title></dc:title></cc:Work></rdf:RDF></metadata><defs
     id="defs4835" /><sodipodi:namedview
     pagecolor="#ffffff"
     bordercolor="#666666"
     borderopacity="1"
     objecttolerance="10"
     gridtolerance="10"
     guidetolerance="10"
     inkscape:pageopacity="0"
     inkscape:pageshadow="2"
     inkscape:window-width="1366"
     inkscape:window-height="704"
     id="namedview4833"
     showgrid="false"
     inkscape:zoom="0.64583333"
     inkscape:cx="680.07863"
     inkscape:cy="423.85826"
     inkscape:window-x="0"
     inkscape:window-y="27"
     inkscape:window-maximized="1"
     inkscape:current-layer="root"
     fit-margin-top="0"
     fit-margin-left="0"
     fit-margin-right="0"
     fit-margin-bottom="0" /><g
     id="background_1_"
     transform="matrix(0.66667,0,0,0.66667,-1.09375e-6,-0.00402297)"><linearGradient
       id="SVGID_1_"
       gradientUnits="userSpaceOnUse"
       x1="-1040.8335"
       y1="2487.3613"
       x2="-1040.834"
       y2="1289.5101"
       gradientTransform="matrix(1,0,0,-1,2002,2490.7148)"><stop
         offset="0"
         style="stop-color:#133356"
         id="stop4642" /><stop
         offset="0.5025"
         style="stop-color:#7C9999"
         id="stop4644" /><stop
         offset="1"
         style="stop-color:#333333"
         id="stop4646" /></linearGradient><rect
       x="0.041000001"
       y="0.46799999"
       width="1922.25"
       height="1200.09"
       id="rect4648"
       style="fill:url(#SVGID_1_)" /></g><g
     id="Layer_4"
     transform="matrix(0.66667,0,0,0.66667,-1.09375e-6,-0.00402297)"><radialGradient
       id="SVGID_2_"
       cx="-1141.3408"
       cy="1741.8223"
       r="942.22357"
       gradientTransform="matrix(0.9956,0,0,-1.1101,2007.3188,2502.5781)"
       gradientUnits="userSpaceOnUse"><stop
         offset="0"
         style="stop-color:#E4C8A5;stop-opacity:0.5"
         id="stop4652" /><stop
         offset="0.1429"
         style="stop-color:#AEAB93;stop-opacity:0.4372"
         id="stop4654" /><stop
         offset="0.3797"
         style="stop-color:#587E77;stop-opacity:0.3331"
         id="stop4656" /><stop
         offset="0.4877"
         style="stop-color:#366C6C;stop-opacity:0.2857"
         id="stop4658" /></radialGradient><rect
       x="-0.70899999"
       y="1.5880001"
       width="1923"
       height="1198.97"
       id="rect4660"
       style="fill:url(#SVGID_2_)" /></g><g
     id="glows"
     transform="matrix(0.66667,0,0,0.66667,-1.09375e-6,-0.00402297)"><radialGradient
       id="SVGID_3_"
       cx="-509.97269"
       cy="1898.1797"
       r="279.20801"
       gradientTransform="matrix(1,0,0,-1,2002,2490.7148)"
       gradientUnits="userSpaceOnUse"><stop
         offset="0"
         style="stop-color:#FFFCDD"
         id="stop4664" /><stop
         offset="1"
         style="stop-color:#FEF9C8;stop-opacity:0"
         id="stop4666" /></radialGradient><circle
       enable-background="new    "
       cx="1492.027"
       cy="592.53497"
       r="279.20801"
       id="circle4668"
       style="opacity:0.2;fill:url(#SVGID_3_)" /><radialGradient
       id="SVGID_4_"
       cx="-665.03522"
       cy="1994.2656"
       r="221.0005"
       gradientTransform="matrix(1,0,0,-1,2002,2490.7148)"
       gradientUnits="userSpaceOnUse"><stop
         offset="0"
         style="stop-color:#99CCCC"
         id="stop4671" /><stop
         offset="1"
         style="stop-color:#FEF9C8;stop-opacity:0"
         id="stop4673" /></radialGradient><circle
       enable-background="new    "
       cx="1336.965"
       cy="496.448"
       r="221"
       id="circle4675"
       style="opacity:0.2;fill:url(#SVGID_4_)" /><radialGradient
       id="SVGID_5_"
       cx="-1618.96"
       cy="2032.2676"
       r="293.00101"
       gradientTransform="matrix(1,0,0,-1,2002,2490.7148)"
       gradientUnits="userSpaceOnUse"><stop
         offset="0"
         style="stop-color:#FFFCDD"
         id="stop4678" /><stop
         offset="1"
         style="stop-color:#FEF9C8;stop-opacity:0"
         id="stop4680" /></radialGradient><circle
       enable-background="new    "
       cx="383.04001"
       cy="458.448"
       r="293.00101"
       id="circle4682"
       style="opacity:0.1;fill:url(#SVGID_5_)" /><radialGradient
       id="SVGID_6_"
       cx="-1430.959"
       cy="1843.2227"
       r="293.00101"
       gradientTransform="matrix(1,0,0,-1,2002,2490.7148)"
       gradientUnits="userSpaceOnUse"><stop
         offset="0"
         style="stop-color:#FFFCDD"
         id="stop4685" /><stop
         offset="1"
         style="stop-color:#FEF9C8;stop-opacity:0"
         id="stop4687" /></radialGradient><circle
       enable-background="new    "
       cx="571.04102"
       cy="647.492"
       r="293.00101"
       id="circle4689"
       style="opacity:0.1;fill:url(#SVGID_6_)" /><radialGradient
       id="SVGID_7_"
       cx="-1334.625"
       cy="1750.3887"
       r="374.83099"
       gradientTransform="matrix(1,0,0,-1,2002,2490.7148)"
       gradientUnits="userSpaceOnUse"><stop
         offset="0"
         style="stop-color:#FFFCDD"
         id="stop4692" /><stop
         offset="1"
         style="stop-color:#FEF9C8;stop-opacity:0"
         id="stop4694" /></radialGradient><circle
       enable-background="new    "
       cx="667.375"
       cy="740.32599"
       r="374.83099"
       id="circle4696"
       style="opacity:0.1;fill:url(#SVGID_7_)" /><radialGradient
       id="SVGID_8_"
       cx="-723.12988"
       cy="1828.1553"
       r="374.83151"
       gradientTransform="matrix(1,0,0,-1,2002,2490.7148)"
       gradientUnits="userSpaceOnUse"><stop
         offset="0"
         style="stop-color:#FFFCDD"
         id="stop4699" /><stop
         offset="1"
         style="stop-color:#FEF9C8;stop-opacity:0"
         id="stop4701" /></radialGradient><circle
       enable-background="new    "
       cx="1278.87"
       cy="662.56"
       r="374.83099"
       id="circle4703"
       style="opacity:0.1;fill:url(#SVGID_8_)" /><radialGradient
       id="SVGID_9_"
       cx="-1369.7715"
       cy="1978.1543"
       r="374.83099"
       gradientTransform="matrix(1,0,0,-1,2002,2490.7148)"
       gradientUnits="userSpaceOnUse"><stop
         offset="0"
         style="stop-color:#99CCCC"
         id="stop4706" /><stop
         offset="1"
         style="stop-color:#FEF9C8;stop-opacity:0"
         id="stop4708" /></radialGradient><circle
       enable-background="new    "
       cx="632.229"
       cy="512.56097"
       r="374.83099"
       id="circle4710"
       style="opacity:0.2;fill:url(#SVGID_9_)" /><radialGradient
       id="SVGID_10_"
       cx="-435.4707"
       cy="1960.1553"
       r="374.83151"
       gradientTransform="matrix(1,0,0,-1,2002,2490.7148)"
       gradientUnits="userSpaceOnUse"><stop
         offset="0"
         style="stop-color:#FFFCDD"
         id="stop4713" /><stop
         offset="1"
         style="stop-color:#FEF9C8;stop-opacity:0"
         id="stop4715" /></radialGradient><circle
       enable-background="new    "
       cx="1566.5291"
       cy="530.56"
       r="374.83099"
       id="circle4717"
       style="opacity:0.2;fill:url(#SVGID_10_)" /><radialGradient
       id="SVGID_11_"
       cx="-545.30182"
       cy="1696.1562"
       r="374.83151"
       gradientTransform="matrix(1,0,0,-1,2002,2490.7148)"
       gradientUnits="userSpaceOnUse"><stop
         offset="0"
         style="stop-color:#99CCCC"
         id="stop4720" /><stop
         offset="1"
         style="stop-color:#FEF9C8;stop-opacity:0"
         id="stop4722" /></radialGradient><circle
       enable-background="new    "
       cx="1456.698"
       cy="794.55902"
       r="374.83099"
       id="circle4724"
       style="opacity:0.2;fill:url(#SVGID_11_)" /></g><g
     id="rounds"
     transform="matrix(0.66667,0,0,0.66667,-1.09375e-6,-0.00402297)"><path
       stroke-miterlimit="10"
       d="M 884.235,640.436"
       id="path4727"
       inkscape:connector-curvature="0"
       style="fill:none;stroke:#ffffff;stroke-width:2;stroke-miterlimit:10" /><circle
       enable-background="new    "
       cx="1738.156"
       cy="514.03699"
       r="12.067"
       id="circle4729"
       style="opacity:0.5;fill:#ffffff" /><circle
       enable-background="new    "
       cx="1648.067"
       cy="300.526"
       r="12.068"
       id="circle4731"
       style="opacity:0.9;fill:#ffffff" /><circle
       enable-background="new    "
       cx="1588.658"
       cy="922.52502"
       r="12.069"
       id="circle4733"
       style="opacity:0.1;fill:#ffffff" /><circle
       enable-background="new    "
       cx="1706.35"
       cy="733.19702"
       r="12.069"
       id="circle4735"
       style="opacity:0.3;fill:#ffffff" /></g><g
     id="octopus_3_"
     transform="matrix(0.66667,0,0,0.66667,-1.09375e-6,-0.00402297)"><radialGradient
       id="SVGID_12_"
       cx="-2910.0483"
       cy="139.51221"
       r="741.65399"
       gradientTransform="matrix(1.4647,0.5424,-0.5668,1.7245,5489.249,1800.223)"
       gradientUnits="userSpaceOnUse"><stop
         offset="0"
         style="stop-color:#99CCCC"
         id="stop4739" /><stop
         offset="1"
         style="stop-color:#FEF9C8;stop-opacity:0"
         id="stop4741" /></radialGradient><path
       enable-background="new    "
       d="m 1504.219,263.019 c 0,0 59.683,205.863 -35.25,365.762 C 1308.486,899.068 1099.658,874.442 813.886,674.828 310.327,323.073 171.64,584.74 165.694,616.811 l -1.707,-1.903 c 5.949,-32.076 133.185,-354.088 636.752,-2.331 285.761,199.617 494.587,224.244 655.071,-46.044 94.938,-159.906 48.409,-303.514 48.409,-303.514"
       id="path4743"
       style="opacity:0.2;fill:url(#SVGID_12_)"
       inkscape:connector-curvature="0" /><radialGradient
       id="SVGID_13_"
       cx="-2945.4902"
       cy="623.88672"
       r="637.25208"
       gradientTransform="matrix(1.4173,0.672,-0.6766,1.6781,5586.2544,1618.6605)"
       gradientUnits="userSpaceOnUse"><stop
         offset="0"
         style="stop-color:#FFFCDD"
         id="stop4746" /><stop
         offset="1"
         style="stop-color:#FEF9C8;stop-opacity:0"
         id="stop4748" /></radialGradient><path
       enable-background="new    "
       d="m 1522.256,339.803 c 0,0 45.568,211.519 -59.217,363.4 C 1285.896,959.95 1080.332,916.934 810.035,691.819 333.721,295.138 149.1,583.642 141.073,615.255 l 1.336,0.721 c 1.676,-59.132 182.389,-384.368 658.698,12.315 270.3,225.113 475.856,268.121 653,11.382 104.794,-151.886 68.149,-299.87 68.149,-299.87"
       id="path4750"
       style="opacity:0.1;fill:url(#SVGID_13_)"
       inkscape:connector-curvature="0" /><radialGradient
       id="SVGID_14_"
       cx="-2951.291"
       cy="51.8218"
       r="238.75751"
       gradientTransform="matrix(1.4792,0.4962,-0.5276,1.7383,5460.4214,1865.7061)"
       gradientUnits="userSpaceOnUse"><stop
         offset="0"
         style="stop-color:#065E7F"
         id="stop4753" /><stop
         offset="1"
         style="stop-color:#FEF9C8;stop-opacity:0"
         id="stop4755" /></radialGradient><path
       enable-background="new    "
       d="m 1478.551,203.387 c 0,0 64.533,203.609 -26.834,366.085 -154.438,274.66 -364.119,256.487 -654.896,66.062 -12.755,-8.355 -570.774,-489.246 -663.819,85.567 L 144.64,595.682 c 5.214,-32.189 125.162,-357.434 637.565,-21.866 290.779,190.428 500.462,208.59 654.904,-66.06 91.358,-162.484 41.442,-304.369 41.442,-304.369"
       id="path4757"
       style="opacity:0.5;fill:url(#SVGID_14_)"
       inkscape:connector-curvature="0" /><linearGradient
       id="SVGID_15_"
       gradientUnits="userSpaceOnUse"
       x1="849.67822"
       y1="384.21091"
       x2="2109.8516"
       y2="384.21091"
       gradientTransform="matrix(0.9907,-0.4864,0.4732,0.9638,-712.8286,963.3502)"><stop
         offset="0"
         style="stop-color:#ABCCB3;stop-opacity:0.7"
         id="stop4760" /><stop
         offset="0.33"
         style="stop-color:#B4CFB5;stop-opacity:0.05"
         id="stop4762" /><stop
         offset="0.803"
         style="stop-color:#C1D4B7;stop-opacity:0.5"
         id="stop4764" /><stop
         offset="1"
         style="stop-color:#FEF9C8;stop-opacity:0"
         id="stop4766" /></linearGradient><path
       d="m 1623.155,437.662 c 0,0 29.559,144.122 -93.468,270.521 C 1307.554,957.298 1032.849,806.33 822.725,624.521 804.153,608.453 757.457,567.747 673.656,486.956 562.97,380.244 498.732,409.559 371.133,504.436 178.431,659.147 138.716,542.505 135.286,531.548 l -3.339,22.765 c 3.427,10.957 43.147,127.602 235.848,-27.113 120.033,-93.971 199.952,-96.273 286.375,-16.218 86.427,80.059 90.568,82.611 171.021,155.954 276.011,251.637 476.988,306.997 709.857,102.094 123.021,-126.408 88.107,-331.368 88.107,-331.368"
       id="path4768"
       style="fill:url(#SVGID_15_)"
       inkscape:connector-curvature="0" /></g><g
     id="bubble"
     transform="matrix(0.66667,0,0,0.66667,-1.09375e-6,-0.00402297)"><radialGradient
       id="SVGID_16_"
       cx="-868.36719"
       cy="1081.0781"
       r="70.523399"
       gradientTransform="matrix(2.398,0,0,-2.4744,2179.8184,3724.1284)"
       gradientUnits="userSpaceOnUse"><stop
         offset="0.0592"
         style="stop-color:#AEAB93;stop-opacity:0.4372"
         id="stop4772" /><stop
         offset="0.5718"
         style="stop-color:#587E77;stop-opacity:0.3331"
         id="stop4774" /><stop
         offset="1"
         style="stop-color:#366C6C;stop-opacity:0"
         id="stop4776" /></radialGradient><ellipse
       cx="97.473"
       cy="1049.109"
       rx="169.118"
       ry="174.502"
       id="ellipse4778"
       style="fill:url(#SVGID_16_)" /><radialGradient
       id="SVGID_17_"
       cx="-913.38092"
       cy="1066.6406"
       r="103.04"
       gradientTransform="matrix(2.398,0,0,-2.4744,2179.8184,3724.1284)"
       gradientUnits="userSpaceOnUse"><stop
         offset="3.896629e-004"
         style="stop-color:#587E77;stop-opacity:0.3331"
         id="stop4781" /><stop
         offset="0.5616"
         style="stop-color:#AEAB93;stop-opacity:0.3"
         id="stop4783" /><stop
         offset="1"
         style="stop-color:#366C6C;stop-opacity:0"
         id="stop4785" /></radialGradient><path
       d="m -10.47,829.873 c 136.466,0 247.093,114.147 247.093,254.955 0,140.813 -110.626,254.963 -247.093,254.963 -136.465,0 -247.091,-114.148 -247.091,-254.963 0,-140.808 110.626,-254.955 247.091,-254.955 z"
       id="path4787"
       style="fill:url(#SVGID_17_)"
       inkscape:connector-curvature="0" /><radialGradient
       id="SVGID_18_"
       cx="-564.45361"
       cy="1002.2988"
       r="103.0369"
       gradientTransform="matrix(3.1212,0,0,-3.2305,1998.3965,4159.7373)"
       gradientUnits="userSpaceOnUse"><stop
         offset="3.896629e-004"
         style="stop-color:#587E77;stop-opacity:0.3331"
         id="stop4790" /><stop
         offset="0.5468"
         style="stop-color:#AEAB93;stop-opacity:0.1"
         id="stop4792" /><stop
         offset="0.67"
         style="stop-color:#366C6C;stop-opacity:0"
         id="stop4794" /></radialGradient><path
       d="m 236.623,588.955 c 177.612,0 321.599,149.021 321.599,332.854 0,183.842 -143.985,332.864 -321.599,332.864 -177.615,0 -321.602,-149.022 -321.602,-332.864 0.001,-183.831 143.987,-332.854 321.602,-332.854 z"
       id="path4796"
       style="fill:url(#SVGID_18_)"
       inkscape:connector-curvature="0" /><linearGradient
       id="SVGID_19_"
       gradientUnits="userSpaceOnUse"
       x1="-588.0459"
       y1="1275.0312"
       x2="-475.98929"
       y2="1275.0312"
       gradientTransform="matrix(2.398,0,0,-2.4744,2179.8184,3724.1284)"><stop
         offset="0.5468"
         style="stop-color:#99CCCC;stop-opacity:0"
         id="stop4799" /><stop
         offset="0.7931"
         style="stop-color:#C8E1CA;stop-opacity:0.8"
         id="stop4801" /><stop
         offset="1"
         style="stop-color:#FEF9C8;stop-opacity:0"
         id="stop4803" /></linearGradient><ellipse
       enable-background="new    "
       cx="904.039"
       cy="569.18799"
       rx="134.355"
       ry="138.63499"
       id="ellipse4805"
       style="opacity:0.1;fill:url(#SVGID_19_)" /></g><rect
     style="opacity:1;fill:none;fill-opacity:1;stroke:none"
     id="rect4602"
     width="1280.0063"
     height="800.00403"
     x="0"
     y="-0.0040283203" /><g
     id="g3140"
     transform="matrix(0.84636112,0,0,0.84636112,236.75833,5.4578725)"><g
       id="logo_1_"
       style="opacity:0.8"
       transform="matrix(0.46568272,0,0,0.46568272,113.88756,184.48458)"><path
         inkscape:connector-curvature="0"
         style="fill:#ffffff"
         id="path3168"
         d="m 1243.667,361.05 c -4.203,0.056 0.798,2.162 6.293,3.012 1.52,-1.188 2.889,-2.382 4.112,-3.549 -3.412,0.834 -6.892,0.857 -10.405,0.537" /><path
         inkscape:connector-curvature="0"
         style="fill:#ffffff"
         id="path3170"
         d="m 1266.243,355.423 c 2.51,-3.467 4.335,-7.244 4.982,-11.156 -0.565,2.784 -2.075,5.188 -3.505,7.739 -7.863,4.956 -0.745,-2.938 0,-5.943 -8.45,10.646 -1.165,6.382 -1.473,9.36" /><path
         inkscape:connector-curvature="0"
         style="fill:#ffffff"
         id="path3172"
         d="m 1274.583,333.729 c 0.511,-7.572 -1.486,-5.172 -2.161,-2.291 0.783,0.416 1.404,5.345 2.161,2.291" /><path
         inkscape:connector-curvature="0"
         style="fill:#ffffff"
         id="path3174"
         d="m 1227.711,230.187 c 2.249,0.405 4.854,0.711 4.479,1.253 2.464,-0.55 3.021,-1.037 -4.479,-1.253" /><path
         inkscape:connector-curvature="0"
         style="fill:#ffffff"
         id="path3176"
         d="m 1232.188,231.432 -1.575,0.332 1.477,-0.139 0.098,-0.193" /><path
         inkscape:connector-curvature="0"
         style="fill:#ffffff"
         id="path3178"
         d="m 1302.213,336.606 c 0.251,6.8 -1.992,10.104 -4.016,15.951 l -3.636,1.813 c -2.978,5.778 0.298,3.671 -1.842,8.265 -4.646,4.13 -14.095,12.925 -17.107,13.729 -2.211,-0.049 1.49,-2.609 1.98,-3.608 -6.223,4.271 -4.994,6.409 -14.506,9.009 l -0.28,-0.624 c -23.454,11.038 -56.027,-10.83 -55.605,-40.667 -0.247,1.895 -0.711,1.424 -1.229,2.186 -1.213,-15.348 7.098,-30.759 21.088,-37.067 13.689,-6.772 29.743,-4.005 39.541,5.151 -5.385,-7.054 -16.104,-14.532 -28.808,-13.843 -12.447,0.204 -24.092,8.117 -27.981,16.7 -6.377,4.017 -7.119,15.473 -9.896,17.573 -3.737,27.478 7.03,39.343 25.258,53.308 2.861,1.939 0.807,2.229 1.188,3.702 -6.055,-2.827 -11.594,-7.112 -16.152,-12.349 2.419,3.53 5.028,6.97 8.404,9.68 -5.714,-1.931 -13.343,-13.832 -15.563,-14.317 9.844,17.62 39.914,30.898 55.682,24.306 -7.296,0.273 -16.556,0.152 -24.743,-2.879 -3.448,-1.773 -8.12,-5.433 -7.29,-6.115 21.505,8.026 43.706,6.076 62.307,-8.836 4.734,-3.686 9.906,-9.953 11.398,-10.04 -2.254,3.388 0.386,1.629 -1.347,4.611 4.709,-7.601 -2.051,-3.097 4.87,-13.125 l 2.563,3.515 c -0.956,-6.317 7.844,-13.979 6.942,-23.959 2.021,-3.054 2.247,3.287 0.109,10.302 2.973,-7.791 0.791,-9.039 1.547,-15.474 0.815,2.163 1.908,4.463 2.461,6.737 -1.931,-7.527 1.984,-12.669 2.952,-17.048 -0.96,-0.422 -2.984,3.326 -3.453,-5.56 0.072,-3.866 1.077,-2.027 1.466,-2.979 -0.752,-0.437 -2.738,-3.4 -3.949,-9.077 0.872,-1.332 2.346,3.459 3.531,3.653 -0.76,-4.51 -2.084,-7.955 -2.146,-11.42 -3.486,-7.292 -1.236,0.975 -4.06,-3.128 -3.718,-11.587 3.075,-2.688 3.545,-7.951 5.623,8.155 8.826,20.791 10.302,26.025 -1.128,-6.38 -2.938,-12.563 -5.161,-18.548 1.712,0.726 -2.766,-13.128 2.221,-3.954 -5.317,-19.554 -22.746,-37.825 -38.776,-46.394 1.954,1.792 4.438,4.045 3.551,4.401 -7.979,-4.739 -6.58,-5.116 -7.721,-7.124 -6.493,-2.641 -6.926,0.218 -11.214,0.012 -12.247,-6.5 -14.606,-5.809 -25.877,-9.88 l 0.506,2.407 c -8.104,-2.709 -9.448,1.01 -18.222,0.007 -0.521,-0.42 2.819,-1.51 5.567,-1.909 -7.841,1.038 -7.472,-1.548 -15.146,0.289 1.886,-1.326 3.891,-2.212 5.908,-3.335 -6.391,0.391 -15.271,3.72 -12.533,0.682 -10.435,4.661 -28.961,11.194 -39.358,20.942 l -0.326,-2.185 c -4.761,5.723 -20.772,17.078 -22.051,24.497 l -1.271,0.289 c -2.478,4.2 -4.086,8.957 -6.049,13.271 -3.246,5.529 -4.756,2.13 -4.293,2.995 -6.377,12.931 -9.549,23.788 -12.285,32.708 1.952,2.906 0.045,17.542 0.788,29.25 -3.202,57.837 40.588,114.001 88.457,126.958 7.013,2.521 17.448,2.423 26.318,2.673 -10.468,-2.991 -11.821,-1.586 -22.021,-5.148 -7.355,-3.464 -8.971,-7.413 -14.182,-11.942 l 2.06,3.642 c -10.216,-3.619 -5.937,-4.477 -14.26,-7.11 l 2.209,-2.873 c -3.313,-0.249 -8.777,-5.577 -10.269,-8.539 l -3.63,0.146 c -4.349,-5.366 -6.676,-9.241 -6.498,-12.246 l -1.176,2.09 c -1.328,-2.272 -16.018,-20.15 -8.396,-15.989 -1.416,-1.293 -3.304,-2.104 -5.338,-5.818 l 1.548,-1.765 c -3.661,-4.716 -6.756,-10.778 -6.516,-12.792 1.957,2.642 3.313,3.137 4.658,3.59 -9.261,-22.986 -9.784,-1.262 -16.8,-23.393 l 1.489,-0.119 c -1.139,-1.726 -1.833,-3.573 -2.746,-5.402 l 0.648,-6.434 c -6.665,-7.699 -1.859,-32.783 -0.898,-46.535 0.666,-5.594 5.565,-11.549 9.293,-20.887 l -2.273,-0.392 c 4.348,-7.563 24.782,-30.404 34.257,-29.233 4.587,-5.759 -0.915,-0.021 -1.813,-1.467 10.081,-10.426 13.244,-7.363 20.044,-9.248 7.331,-4.344 -6.29,1.704 -2.816,-1.649 12.676,-3.239 8.983,-7.359 25.519,-9.003 1.743,0.988 -4.043,1.529 -5.494,2.813 10.558,-5.168 33.418,-3.985 48.271,2.868 17.228,8.06 36.578,31.86 37.346,54.245 l 0.869,0.23 c -0.432,8.9 1.369,19.196 -1.764,28.652 l 2.121,-4.494" /><path
         inkscape:connector-curvature="0"
         style="fill:#ffffff"
         id="path3180"
         d="m 1197.748,366.819 -0.592,2.95 c 2.761,3.756 4.96,7.833 8.489,10.753 -2.541,-4.945 -4.425,-6.997 -7.897,-13.703" /><path
         inkscape:connector-curvature="0"
         style="fill:#ffffff"
         id="path3182"
         d="m 1204.283,366.565 c -1.468,-1.614 -2.331,-3.565 -3.307,-5.504 0.932,3.411 2.834,6.34 4.599,9.327 l -1.292,-3.823" /><path
         inkscape:connector-curvature="0"
         style="fill:#ffffff"
         id="path3184"
         d="m 1319.947,341.426 -0.607,1.553 c -1.129,8.048 -3.589,16.013 -7.336,23.396 4.142,-7.793 6.809,-16.313 7.943,-24.949" /><path
         inkscape:connector-curvature="0"
         style="fill:#ffffff"
         id="path3186"
         d="m 1228.548,228.167 c 2.842,-1.036 6.989,-0.57 10.014,-1.258 -3.939,0.336 -7.854,0.532 -11.719,1.021 l 1.705,0.237" /><path
         inkscape:connector-curvature="0"
         style="fill:#ffffff"
         id="path3188"
         d="m 1128.68,281.271 c 0.657,6.064 -4.561,8.419 1.151,4.416 3.07,-6.907 -1.19,-1.907 -1.151,-4.416" /><path
         inkscape:connector-curvature="0"
         style="fill:#ffffff"
         id="path3190"
         d="m 1121.957,309.351 c 1.315,-4.043 1.562,-6.473 2.063,-8.813 -3.645,4.655 -1.682,5.645 -2.063,8.813" /></g><g
       transform="matrix(0.46946362,0,0,0.46946362,648.3478,317.59057)"
       id="g4346"><path
         inkscape:connector-curvature="0"
         id="path2862"
         style="fill:#000000;fill-opacity:1;fill-rule:nonzero;stroke:none"
         d="m 182.62093,121.70356 c -0.0871,0.091 -0.0871,14.53264 -0.26721,18.30231 -0.17812,3.04943 -0.44918,9.59747 -6.90816,9.59747 -6.63901,0 -8.25374,-7.62646 -8.79198,-10.94307 -0.62733,-3.67869 -0.62733,-6.73003 -0.62733,-8.07371 0,-4.30597 0.26914,-16.33135 10.40676,-16.33135 3.05135,0 4.75514,0.90031 6.10079,1.61474 l 0.0871,5.83361 z m -26.01595,10.58875 c 0,25.2976 13.45811,25.2976 15.43104,25.2976 5.56255,0 9.15213,-3.05135 10.67589,-8.34089 l 0.18008,7.9827 c 1.70571,-0.091 3.40955,-0.26914 6.18984,-0.26914 0.98741,0 1.79286,0 2.51308,0.091 0.71831,0 1.4347,0.0871 2.24207,0.17811 -1.43466,-2.86935 -2.51116,-9.32833 -2.51116,-23.32856 0,-13.63622 0,-36.691797 1.16556,-43.690924 -3.22755,1.527594 -6.01173,2.515035 -12.11251,3.051349 2.4221,2.602177 2.4221,3.947778 2.4221,15.787265 -1.70187,-0.53631 -3.8568,-1.16359 -7.53544,-1.16359 -16.05837,0 -18.66055,13.99441 -18.66055,24.40505" /><path
         inkscape:connector-curvature="0"
         id="path2864"
         style="fill:#000000;fill-opacity:1;fill-rule:nonzero;stroke:none"
         d="m 205.26023,127.71332 c 0.091,-7.44638 1.61665,-14.08736 7.9846,-14.08736 6.99918,0 7.53353,7.71552 7.35541,14.08736 l -15.34001,0 z m 24.22109,0.90031 c 0,-10.49774 -2.06198,-20.8174 -15.34001,-20.8174 -18.30044,0 -18.30044,20.27721 -18.30044,24.58318 0,18.21138 8.16277,25.38862 21.89002,25.38862 6.0969,0 9.06116,-0.8945 10.67589,-1.34559 -0.0891,-3.22952 0.35819,-5.29343 0.90031,-8.07372 -1.88775,1.16944 -4.30986,2.69316 -9.69233,2.69316 -13.99638,0 -14.17642,-12.74369 -14.17642,-17.13872 l 23.86875,0 0.17423,-5.28953" /><path
         inkscape:connector-curvature="0"
         id="path2866"
         style="fill:#000000;fill-opacity:1;fill-rule:nonzero;stroke:none"
         d="m 258.66865,132.47043 c 0,8.3428 -1.52375,19.55889 -11.93051,19.55889 -1.43662,0 -3.22947,-0.27302 -4.39503,-0.54211 -0.18003,-3.22951 -0.18003,-8.79202 -0.18003,-15.25101 0,-7.71743 0.8054,-11.74846 1.43657,-13.72724 1.88195,-6.36796 6.09886,-6.45702 6.90431,-6.45702 6.8191,0 8.16469,9.4232 8.16469,16.41849 z m -25.74682,9.77942 c 0,6.63906 0,10.40676 -1.07646,13.27616 3.67865,1.43657 8.25184,2.24202 13.7272,2.24202 3.49861,0 13.63628,0 19.10781,-11.21221 2.60218,-5.20239 3.4986,-12.20152 3.4986,-17.49685 0,-3.22952 -0.35819,-10.31579 -2.96037,-14.80376 -2.51116,-4.21303 -6.54996,-6.36795 -10.85401,-6.36795 -8.61386,0 -11.12507,7.17724 -12.46875,10.85592 0,-4.57511 0.0872,-20.544376 0.80353,-28.709111 -5.82973,2.693202 -9.42127,3.138491 -13.27615,3.498608 3.4986,1.432779 3.4986,7.357363 3.4986,26.647123 l 0,22.07005" /><path
         inkscape:connector-curvature="0"
         id="path2868"
         style="fill:#000000;fill-opacity:1;fill-rule:nonzero;stroke:none"
         d="m 285.4242,157.23172 c -1.7929,-0.26914 -3.05331,-0.44918 -5.6555,-0.44918 -2.86547,0 -4.84228,0.18004 -6.90427,0.44918 0.89643,-1.70571 1.25462,-2.51504 1.52376,-8.34281 0.36011,-7.98657 0.45109,-29.34028 -0.17811,-33.82441 -0.44922,-3.41147 -1.25462,-3.94778 -2.51121,-4.8442 7.35541,-0.71831 9.42128,-1.25654 12.82694,-2.87132 -0.71639,3.94394 -0.80737,5.92267 -0.80737,11.93052 -0.17811,30.95697 -0.26913,34.27358 1.70576,37.95222" /><path
         inkscape:connector-curvature="0"
         id="path2870"
         style="fill:#000000;fill-opacity:1;fill-rule:nonzero;stroke:none"
         d="m 314.15263,131.83926 c -0.1762,5.65353 -0.26718,9.60131 -1.79481,12.7398 -1.88383,4.0388 -5.02232,5.2024 -7.35536,5.2024 -5.38636,0 -6.55,-4.48409 -6.55,-8.87912 0,-8.43191 7.53739,-9.06308 10.94306,-9.06308 l 4.75711,0 z m -24.67415,11.03792 c 0,5.65354 1.70571,11.30319 6.73195,13.72725 2.24203,0.98548 4.48409,0.98548 5.2024,0.98548 8.25571,0 11.03404,-6.1027 12.7398,-9.86852 -0.091,3.94782 0,6.368 0.26914,9.51033 1.61473,-0.091 3.22946,-0.26914 5.92267,-0.26914 1.52371,0 2.96033,0.17816 4.48408,0.26914 -0.98744,-1.52372 -1.52375,-2.42402 -1.79673,-5.92267 -0.17816,-3.40566 -0.17816,-6.81713 -0.17816,-11.57036 l 0.091,-18.30235 c 0,-6.82293 -1.79481,-13.54908 -15.25484,-13.54908 -8.87719,0 -14.08155,2.69123 -16.68374,4.03879 1.07842,1.97293 1.97485,3.67476 2.7803,7.53544 3.50052,-3.05135 8.0776,-4.66608 12.7398,-4.66608 7.45026,0 7.45026,4.93522 7.45026,11.93046 -1.7057,-0.0871 -3.14429,-0.26525 -5.56639,-0.26525 -11.3942,0 -18.93156,4.39119 -18.93156,16.41656" /><path
         inkscape:connector-curvature="0"
         id="path2872"
         style="fill:#000000;fill-opacity:1;fill-rule:nonzero;stroke:none"
         d="m 365.82821,148.34872 c 0.091,3.05135 0.091,6.28082 1.34565,8.883 -1.9749,-0.17811 -3.14237,-0.44918 -6.81718,-0.44918 -2.15684,0 -3.32044,0.18004 -5.02619,0.44918 0.35622,-1.16556 0.54019,-1.61473 0.7183,-3.14233 0.26914,-2.06007 0.44917,-8.97014 0.44917,-11.3942 l 0,-9.68845 c 0,-4.21691 0,-10.31962 -0.27105,-12.4707 -0.17812,-1.52372 -0.62345,-5.64966 -5.83165,-5.64966 -5.11334,0 -6.81521,3.76583 -7.44643,6.81718 -0.71442,3.14041 -0.71442,6.54996 -0.71442,19.82799 0.0871,11.48325 0.0871,12.55784 0.98356,15.70017 -1.52371,-0.17811 -3.40758,-0.35819 -6.09882,-0.35819 -2.15689,0 -3.58962,0.0891 -5.38248,0.35819 0.62925,-1.43662 0.98741,-2.15493 1.16557,-7.17725 0.182,-4.93522 0.54014,-29.16024 -0.27303,-34.89895 -0.44528,-3.50249 -1.34559,-4.30794 -2.32916,-5.20436 7.26827,-0.3582 9.59743,-1.5276 11.84338,-2.69124 l 0,9.51034 c 1.07454,-2.78419 3.31661,-8.97403 12.29063,-8.97403 11.21604,0 11.30318,8.16474 11.39415,13.54525 l 0,27.00724" /><path
         inkscape:connector-curvature="0"
         id="path2874"
         style="fill:#cb4b49;fill-opacity:1;fill-rule:nonzero;stroke:none"
         d="m 286.18119,94.651794 -7.42894,7.427016 -7.42706,-7.427016 7.42706,-7.427062 7.42894,7.427062" /><path
         inkscape:connector-curvature="0"
         d="m 380.71893,127.71332 c 0.091,-7.44638 1.61669,-14.08736 7.98465,-14.08736 6.99913,0 7.53352,7.71552 7.3554,14.08736 l -15.34005,0 z m 24.22114,0.90031 c 0,-10.49774 -2.06199,-20.8174 -15.34007,-20.8174 -18.30039,0 -18.30039,20.27721 -18.30039,24.58318 0,18.21138 8.16278,25.38862 21.89003,25.38862 6.0969,0 9.06111,-0.8945 10.67584,-1.34559 -0.0891,-3.22952 0.3582,-5.29343 0.90031,-8.07372 -1.88771,1.16944 -4.30986,2.69316 -9.69228,2.69316 -13.99639,0 -14.17647,-12.74369 -14.17647,-17.13872 l 23.86875,0 0.17428,-5.28953"
         style="fill:#f9f9f9;fill-opacity:1;fill-rule:nonzero;stroke:none"
         id="path2978" /><path
         inkscape:connector-curvature="0"
         d="m 435.39508,121.70356 c -0.0871,0.091 -0.0871,14.53264 -0.26722,18.30231 -0.17811,3.04943 -0.44917,9.59747 -6.90815,9.59747 -6.63902,0 -8.25375,-7.62646 -8.79198,-10.94307 -0.62733,-3.67869 -0.62733,-6.73003 -0.62733,-8.07371 0,-4.30597 0.26913,-16.33135 10.40676,-16.33135 3.05135,0 4.75514,0.90031 6.10078,1.61474 l 0.0871,5.83361 z m -26.01596,10.58875 c 0,25.2976 13.45815,25.2976 15.43104,25.2976 5.56256,0 9.15214,-3.05135 10.67589,-8.34089 l 0.18008,7.9827 c 1.70571,-0.091 3.40955,-0.26914 6.18985,-0.26914 0.9874,0 1.79284,0 2.51308,0.091 0.7183,0 1.4347,0.0871 2.24206,0.17811 -1.43465,-2.86935 -2.51115,-9.32833 -2.51115,-23.32856 0,-13.63622 0,-36.691797 1.16555,-43.690924 -3.22754,1.527594 -6.01173,2.515035 -12.11251,3.051349 2.4221,2.602177 2.4221,3.947778 2.4221,15.787265 -1.70187,-0.53631 -3.8568,-1.16359 -7.53544,-1.16359 -16.05837,0 -18.66055,13.99441 -18.66055,24.40505"
         style="fill:#f9f9f9;fill-opacity:1;fill-rule:nonzero;stroke:none"
         id="path2980" /><path
         sodipodi:nodetypes="ccsccsscscccsccccccscc"
         inkscape:connector-curvature="0"
         d="m 451.41513,116.5735 c -0.091,-3.05134 -0.091,-6.28082 -1.3456,-8.88299 1.97485,0.17811 3.14233,0.44917 6.81713,0.44917 2.1569,0 3.32049,-0.18004 5.02625,-0.44917 -0.35628,1.16556 -0.54019,1.61473 -0.71831,3.14237 -0.26913,2.06002 -0.44917,8.97014 -0.44917,11.39416 l 0,9.68844 c 0,4.21692 0,10.31966 0.27105,12.47071 0.17812,1.52376 0.62341,5.64965 5.83165,5.64965 5.11334,0 6.81521,-3.76578 7.44638,-6.81713 0.71443,-3.14045 0.71443,-6.55 0.71443,-19.82803 -0.0871,-11.48326 -0.0871,-12.5578 -0.98356,-15.70017 1.52375,0.17811 3.40762,0.35819 6.09886,0.35819 2.15685,0 3.58958,-0.0891 5.38248,-0.35819 -0.62925,1.43662 -0.98745,2.15492 -1.16556,7.17728 -0.182,4.93523 -0.54019,29.16021 0.27297,34.89891 0.44534,3.50249 1.14428,6.097 1.87396,7.56472 -4.91878,-0.31189 -6.60307,-0.45182 -11.38813,0.33088 -0.0635,-1.82628 -0.11459,-5.90714 -0.0604,-7.76347 -1.39876,3.81524 -6.93702,7.40669 -12.23035,7.22716 -11.2096,-0.38021 -11.30318,-8.16469 -11.3942,-13.54524 l 0,-27.00725"
         style="fill:#f9f9f9;fill-opacity:1;fill-rule:nonzero;stroke:none"
         id="path2982" /><path
         inkscape:connector-curvature="0"
         id="path4003"
         style="font-style:oblique;font-variant:normal;font-weight:bold;font-stretch:normal;font-size:54.62936401px;line-height:125%;font-family:FreeSans;-inkscape-font-specification:'FreeSans Bold Oblique';letter-spacing:0px;word-spacing:0px;fill:#000000;fill-opacity:1;stroke:#000000;stroke-width:0.35927457;stroke-miterlimit:4;stroke-opacity:1"
         d="m 296.81767,172.93343 c 0,-2.93664 1.1552,-5.38812 3.46561,-7.35443 2.3104,-1.96627 5.38218,-2.94941 9.21537,-2.94944 3.12428,3e-5 5.55283,0.58736 7.28565,1.762 1.75904,1.14916 2.63857,2.75794 2.63859,4.82635 -2e-5,0.63843 -0.10504,1.43005 -0.31505,2.37487 l -5.51347,0 c 0.0525,-0.45964 0.0787,-0.7533 0.0788,-0.881 -2e-5,-2.11949 -1.73282,-3.17924 -5.19841,-3.17927 -1.78533,3e-5 -3.20307,0.35754 -4.25325,1.07253 -1.02394,0.71503 -1.5359,1.68542 -1.53589,2.91113 -10e-6,0.71503 0.32817,1.27683 0.98455,1.68539 0.65634,0.38306 1.91657,0.75333 3.78066,1.11083 l 4.29263,0.84269 c 2.02158,0.38306 3.55747,1.05977 4.60769,2.03013 1.05016,0.97039 1.57524,2.19613 1.57527,3.67722 -3e-5,0.91931 -0.11817,1.83861 -0.35443,2.75791 -0.23632,0.91931 -0.66953,1.88968 -1.29961,2.91113 -0.63013,1.02146 -1.4309,1.91522 -2.40229,2.6813 -0.97145,0.76609 -2.27105,1.40449 -3.89882,1.91522 -1.6278,0.51072 -3.46562,0.76609 -5.51346,0.76609 -2.02162,0 -3.76755,-0.2426 -5.23779,-0.72779 -1.44402,-0.45965 -2.53358,-1.07251 -3.26871,-1.8386 -0.73513,-0.79162 -1.27335,-1.59602 -1.61466,-2.41318 -0.31505,-0.81716 -0.47258,-1.67261 -0.47258,-2.56639 0,-0.43411 0.0525,-0.9959 0.15753,-1.68539 l 5.74976,0 c -0.0525,0.45966 -0.0788,0.75332 -0.0788,0.88101 -1e-5,1.09805 0.4857,1.95351 1.45712,2.56638 0.99767,0.58734 2.38916,0.88101 4.17449,0.881 2.04784,1e-5 3.67563,-0.38304 4.88336,-1.14913 1.23394,-0.79162 1.85092,-1.82583 1.85094,-3.10265 -2e-5,-0.89376 -0.34133,-1.57047 -1.02393,-2.03013 -0.68263,-0.45964 -1.9166,-0.86823 -3.7019,-1.22574 l -3.85942,-0.76608 c -2.33668,-0.45965 -4.03009,-1.13635 -5.08027,-2.03013 -1.05019,-0.91929 -1.57528,-2.17057 -1.57528,-3.75383" /><path
         inkscape:connector-curvature="0"
         id="path4005"
         style="font-style:oblique;font-variant:normal;font-weight:bold;font-stretch:normal;font-size:54.62936401px;line-height:125%;font-family:FreeSans;-inkscape-font-specification:'FreeSans Bold Oblique';letter-spacing:0px;word-spacing:0px;fill:#000000;fill-opacity:1;stroke:#000000;stroke-width:0.35927457;stroke-miterlimit:4;stroke-opacity:1"
         d="m 331.11809,163.08922 -3.34746,15.28342 8.78216,-8.04391 6.26173,0 -9.13661,7.8907 5.08027,12.79364 -6.45863,0 -3.11118,-9.15473 -2.67796,2.37487 -1.49651,6.77986 -5.51348,0 6.1042,-27.92385 5.51347,0" /><path
         inkscape:connector-curvature="0"
         id="path4007"
         style="font-style:oblique;font-variant:normal;font-weight:bold;font-stretch:normal;font-size:54.62936401px;line-height:125%;font-family:FreeSans;-inkscape-font-specification:'FreeSans Bold Oblique';letter-spacing:0px;word-spacing:0px;fill:#000000;fill-opacity:1;stroke:#000000;stroke-width:0.35927457;stroke-miterlimit:4;stroke-opacity:1"
         d="m 340.13668,184.23321 c -1e-5,-3.9581 1.19458,-7.31611 3.58375,-10.07404 2.41542,-2.78343 5.56597,-4.17515 9.45167,-4.17517 2.7042,2e-5 4.83082,0.68949 6.37986,2.06843 1.54901,1.35344 2.32351,3.21758 2.32354,5.59243 -3e-5,4.03473 -1.22087,7.41828 -3.66252,10.15065 -2.4417,2.73238 -5.61851,4.09857 -9.53043,4.09857 -2.59921,0 -4.67332,-0.68948 -6.22233,-2.06844 -1.54903,-1.40449 -2.32355,-3.26864 -2.32354,-5.59243 m 9.53042,3.37078 c 1.23395,0 2.3104,-0.34473 3.22932,-1.03422 0.91889,-0.715 1.60152,-1.58324 2.04786,-2.60469 0.44631,-1.04698 0.77449,-2.01735 0.98455,-2.91113 0.21001,-0.89376 0.31504,-1.65985 0.31506,-2.29826 -2e-5,-1.35341 -0.35446,-2.4387 -1.06332,-3.25587 -0.70889,-0.81714 -1.66718,-1.22572 -2.87488,-1.22574 -1.78533,2e-5 -3.32122,0.88102 -4.60768,2.643 -1.28649,1.73648 -1.92972,3.81767 -1.92971,6.2436 -1e-5,1.35343 0.35442,2.43872 1.06331,3.25587 0.70886,0.79163 1.65403,1.18744 2.83549,1.18744" /><path
         inkscape:connector-curvature="0"
         id="path4009"
         style="font-style:oblique;font-variant:normal;font-weight:bold;font-stretch:normal;font-size:54.62936401px;line-height:125%;font-family:FreeSans;-inkscape-font-specification:'FreeSans Bold Oblique';letter-spacing:0px;word-spacing:0px;fill:#000000;fill-opacity:1;stroke:#000000;stroke-width:0.35927457;stroke-miterlimit:4;stroke-opacity:1"
         d="m 373.81697,163.08922 -6.10419,27.92385 -5.51348,0 6.1042,-27.92385 5.51347,0" /><path
         inkscape:connector-curvature="0"
         id="path4011"
         style="font-style:oblique;font-variant:normal;font-weight:bold;font-stretch:normal;font-size:54.62936401px;line-height:125%;font-family:FreeSans;-inkscape-font-specification:'FreeSans Bold Oblique';letter-spacing:0px;word-spacing:0px;fill:#000000;fill-opacity:1;stroke:#000000;stroke-width:0.35927457;stroke-miterlimit:4;stroke-opacity:1"
         d="m 385.40878,169.984 c 2.49417,2e-5 4.50265,0.70226 6.02543,2.10674 1.549,1.4045 2.32352,3.23035 2.32354,5.47752 -2e-5,1.45557 -0.23632,3.05158 -0.70888,4.78804 l -14.29563,0 c -0.0788,0.71502 -0.11816,1.28959 -0.11815,1.72369 -10e-6,1.04699 0.3413,1.90245 1.02393,2.5664 0.68261,0.6384 1.5884,0.9576 2.71735,0.9576 0.94516,0 1.81157,-0.21705 2.59921,-0.65117 0.81388,-0.43411 1.41774,-1.02145 1.81157,-1.762 l 5.43471,0 c -1.07647,2.11951 -2.57298,3.76659 -4.48955,4.94126 -1.89034,1.17466 -4.0301,1.762 -6.41925,1.762 -2.46794,0 -4.47641,-0.72779 -6.02543,-2.18336 -1.52277,-1.48109 -2.28415,-3.40907 -2.28415,-5.78395 0,-0.61286 0.0656,-1.31511 0.19691,-2.10673 0.13127,-0.79162 0.35443,-1.73646 0.66949,-2.83453 0.31505,-1.12357 0.77451,-2.18333 1.37837,-3.17925 0.63011,-1.02144 1.37836,-1.97905 2.24476,-2.87283 0.8664,-0.89375 1.98222,-1.60876 3.34747,-2.14505 1.36523,-0.53623 2.88799,-0.80436 4.5683,-0.80438 m 2.71736,8.23543 c -2e-5,-2.63022 -1.12897,-3.94533 -3.38685,-3.94535 -2.65173,2e-5 -4.41079,1.50666 -5.27717,4.51992 l 8.66402,0 0,-0.57457" /><path
         inkscape:connector-curvature="0"
         id="path4013"
         style="font-style:oblique;font-variant:normal;font-weight:bold;font-stretch:normal;font-size:54.62936401px;line-height:125%;font-family:FreeSans;-inkscape-font-specification:'FreeSans Bold Oblique';letter-spacing:0px;word-spacing:0px;fill:#000000;fill-opacity:1;stroke:#000000;stroke-width:0.35927457;stroke-miterlimit:4;stroke-opacity:1"
         d="m 406.66086,163.08922 -6.10419,27.92385 -5.51347,0 6.10419,-27.92385 5.51347,0" /><path
         inkscape:connector-curvature="0"
         id="path4015"
         style="font-style:oblique;font-variant:normal;font-weight:bold;font-stretch:normal;font-size:54.62936401px;line-height:125%;font-family:FreeSans;-inkscape-font-specification:'FreeSans Bold Oblique';letter-spacing:0px;word-spacing:0px;fill:#000000;fill-opacity:1;stroke:#000000;stroke-width:0.35927457;stroke-miterlimit:4;stroke-opacity:1"
         d="m 416.00792,170.32873 -4.52893,20.68434 -5.51346,0 4.52892,-20.68434 5.51347,0 m 1.57527,-7.23951 -1.06331,4.78804 -5.51346,0 1.0633,-4.78804 5.51347,0" /><path
         inkscape:connector-curvature="0"
         id="path4017"
         style="font-style:oblique;font-variant:normal;font-weight:bold;font-stretch:normal;font-size:54.62936401px;line-height:125%;font-family:FreeSans;-inkscape-font-specification:'FreeSans Bold Oblique';letter-spacing:0px;word-spacing:0px;fill:#000000;fill-opacity:1;stroke:#000000;stroke-width:0.35927457;stroke-miterlimit:4;stroke-opacity:1"
         d="m 421.25925,170.32873 5.51347,0 -0.70887,3.14095 c 1.05017,-1.22571 2.13974,-2.10671 3.26869,-2.64299 1.12894,-0.56177 2.42854,-0.84267 3.89882,-0.84269 1.75903,2e-5 3.16366,0.45967 4.21386,1.37895 1.05016,0.91932 1.57525,2.14506 1.57528,3.67722 -3e-5,0.68949 -0.0788,1.39174 -0.2363,2.10674 l -3.0324,13.86616 -5.51347,0 2.63858,-11.98925 c 0.15752,-0.84268 0.23628,-1.46832 0.2363,-1.87691 -2e-5,-1.91521 -0.97144,-2.87281 -2.91426,-2.87283 -1.31275,2e-5 -2.45482,0.45967 -3.42623,1.37896 -0.94518,0.89378 -1.60154,2.13228 -1.9691,3.71552 l -2.55981,11.64451 -5.51347,0 4.52891,-20.68434" /><path
         inkscape:connector-curvature="0"
         id="path4019"
         style="font-style:oblique;font-variant:normal;font-weight:bold;font-stretch:normal;font-size:54.62936401px;line-height:125%;font-family:FreeSans;-inkscape-font-specification:'FreeSans Bold Oblique';letter-spacing:0px;word-spacing:0px;fill:#000000;fill-opacity:1;stroke:#000000;stroke-width:0.35927457;stroke-miterlimit:4;stroke-opacity:1"
         d="m 458.86097,191.01307 -5.51346,0 0.59073,-2.60469 c -1.0502,1.22575 -2.13977,2.10674 -3.2687,2.643 -1.12896,0.56179 -2.42856,0.8427 -3.89881,0.8427 -1.73281,0 -3.1243,-0.45965 -4.17448,-1.37896 -1.05019,-0.9193 -1.57528,-2.14504 -1.57528,-3.67722 0,-0.68947 0.0788,-1.39172 0.23629,-2.10673 l 3.15056,-14.40244 5.51346,0 -2.75674,12.52552 c -0.15753,0.89377 -0.23629,1.51941 -0.23628,1.87692 -1e-5,1.91522 0.99767,2.87282 2.99302,2.87282 1.28647,0 2.40229,-0.45965 3.34746,-1.37895 0.94516,-0.9193 1.58839,-2.15781 1.92972,-3.71553 l 2.67797,-12.18078 5.51347,0 -4.52893,20.68434" /><path
         inkscape:connector-curvature="0"
         id="path4021"
         style="font-style:oblique;font-variant:normal;font-weight:bold;font-stretch:normal;font-size:54.62936401px;line-height:125%;font-family:FreeSans;-inkscape-font-specification:'FreeSans Bold Oblique';letter-spacing:0px;word-spacing:0px;fill:#000000;fill-opacity:1;stroke:#000000;stroke-width:0.35927457;stroke-miterlimit:4;stroke-opacity:1"
         d="m 477.3833,180.51769 4.84397,10.49538 -6.61616,0 -2.32354,-6.43512 -4.84398,6.43512 -6.61615,0 9.17599,-10.49538 -4.3714,-10.18896 6.61616,0 2.00848,6.24361 4.84397,-6.24361 6.61617,0 -9.33351,10.18896" /></g></g></svg>